%!PS-Adobe-3.0
%%Pages: (atend)
%%BoundingBox: 15 5 553 173
%%HiResBoundingBox: 15.099219 5.554297 552.724609 173.000000
%.......................................
%%Creator: GPL Ghostscript 871 (pswrite)
%%CreationDate: 2011/08/26 09:47:51
%%DocumentData: Clean7Bit
%%LanguageLevel: 2
%%EndComments
%%BeginProlog
% This copyright applies to everything between here and the %%EndProlog:
% Copyright (C) 2010 Artifex Software, Inc.  All rights reserved.
%%BeginResource: procset GS_pswrite_2_0_1001 1.001 0
/GS_pswrite_2_0_1001 80 dict dup begin
/PageSize 2 array def/setpagesize{ PageSize aload pop 3 index eq exch
4 index eq and{ pop pop pop}{ PageSize dup  1
5 -1 roll put 0 4 -1 roll put dup null eq {false} {dup where} ifelse{ exch get exec}
{ pop/setpagedevice where
{ pop 1 dict dup /PageSize PageSize put setpagedevice}
{ /setpage where{ pop PageSize aload pop pageparams 3 {exch pop} repeat
setpage}if}ifelse}ifelse}ifelse} bind def
/!{bind def}bind def/#{load def}!/N/counttomark #
/rG{3{3 -1 roll 255 div}repeat setrgbcolor}!/G{255 div setgray}!/K{0 G}!
/r6{dup 3 -1 roll rG}!/r5{dup 3 1 roll rG}!/r3{dup rG}!
/w/setlinewidth #/J/setlinecap #
/j/setlinejoin #/M/setmiterlimit #/d/setdash #/i/setflat #
/m/moveto #/l/lineto #/c/rcurveto #
/p{N 2 idiv{N -2 roll rlineto}repeat}!
/P{N 0 gt{N -2 roll moveto p}if}!
/h{p closepath}!/H{P closepath}!
/lx{0 rlineto}!/ly{0 exch rlineto}!/v{0 0 6 2 roll c}!/y{2 copy c}!
/re{4 -2 roll m exch dup lx exch ly neg lx h}!
/^{3 index neg 3 index neg}!
/f{P fill}!/f*{P eofill}!/s{H stroke}!/S{P stroke}!
/q/gsave #/Q/grestore #/rf{re fill}!
/Y{P clip newpath}!/Y*{P eoclip newpath}!/rY{re Y}!
/|={pop exch 4 1 roll 1 array astore cvx 3 array astore cvx exch 1 index def exec}!
/|{exch string readstring |=}!
/+{dup type/nametype eq{2 index 7 add -3 bitshift 2 index mul}if}!
/@/currentfile #/${+ @ |}!
/B{{2 copy string{readstring pop}aload pop 4 array astore cvx
3 1 roll}repeat pop pop true}!
/Ix{[1 0 0 1 11 -2 roll exch neg exch neg]exch}!
/,{true exch Ix imagemask}!/If{false exch Ix imagemask}!/I{exch Ix image}!
/Ic{exch Ix false 3 colorimage}!
/F{/Columns counttomark 3 add -2 roll/Rows exch/K -1/BlackIs1 true>>
/CCITTFaxDecode filter}!/FX{<</EndOfBlock false F}!
/X{/ASCII85Decode filter}!/@X{@ X}!/&2{2 index 2 index}!
/@F{@ &2<<F}!/@C{@X &2 FX}!
/$X{+ @X |}!/&4{4 index 4 index}!/$F{+ @ &4<<F |}!/$C{+ @X &4 FX |}!
/IC{3 1 roll 10 dict begin 1{/ImageType/Interpolate/Decode/DataSource
/ImageMatrix/BitsPerComponent/Height/Width}{exch def}forall
currentdict end image}!
/~{@ read {pop} if}!
end def
%%EndResource
/pagesave null def
%%EndProlog
%%Page: 1 1
%%PageBoundingBox: 0 0 556 173
%%BeginPageSetup
GS_pswrite_2_0_1001 begin
556 173 null setpagesize
/pagesave save store 197 dict begin
0.1 0.1 scale
%%EndPageSetup
gsave mark
Q q
0 0 5560 0 0 1730 ^ Y
7.5 w
14.3356 M
1 j
K
1543.62 1353.46 1086.38 376.535 re
S
154.742 802.578 1086.38 376.773 re
S
0.2 i
237.46 1027.98 11.96 -1.74 P
0.5 -3.61 1.89 -6.25 4.17 -7.9 c
3.05 -2.23 7.23 -3.34 12.51 -3.34 c
5.7 0 10.1 1.13 13.2 3.38 c
3.1 2.26 5.2 5.41 6.29 9.48 c
0.6 2.32 0.89 7.02 0.89 14.11 c
0 0.5 0 1.01 0 1.54 c
-5.38 -6.34 -12.08 -9.5 -20.11 -9.5 c
-9.98 0 -17.71 3.59 -23.18 10.76 c
-5.47 7.18 -8.2 15.79 -8.2 25.82 c
0 6.91 1.26 13.27 3.79 19.11 c
2.52 5.84 6.18 10.34 10.98 13.52 c
4.8 3.18 10.43 4.79 16.9 4.79 c
8.63 0 15.74 -3.45 21.34 -10.33 c
0 8.69 11 0 0 -62.33 p
0 -11.22 -1.15 -19.18 -3.45 -23.86 c
-2.3 -4.68 -5.95 -8.38 -10.94 -11.1 c
-4.99 -2.71 -11.13 -4.07 -18.43 -4.07 c
-8.66 0 -15.66 1.91 -20.99 5.73 c
-5.16 3.7 -7.73 9.2 -7.73 16.5 c
0 0.25 0 0.5 0.01 0.76 c
h
248 1071.47 m
0 -9.55 1.9 -16.51 5.7 -20.89 c
3.8 -4.39 8.55 -6.58 14.27 -6.58 c
5.67 0 10.43 2.18 14.27 6.54 c
3.84 4.36 5.77 11.2 5.77 20.52 c
0 8.91 -1.98 15.62 -5.93 20.14 c
-3.96 4.52 -8.73 6.8 -14.31 6.8 c
-5.49 0 -10.15 -2.24 -14 -6.7 c
-3.84 -4.45 -5.76 -11.06 -5.76 -19.83 c
h
f
367.93 1057.38 12.71 -1.6 P
-2.01 -7.54 -5.72 -13.38 -11.14 -17.54 c
-5.43 -4.16 -12.35 -6.24 -20.78 -6.24 c
-10.62 0 -19.04 3.28 -25.26 9.84 c
-6.22 6.56 -9.33 15.77 -9.33 27.61 c
0 12.25 3.14 21.77 9.43 28.55 c
6.29 6.66 14.45 10 24.47 10 c
9.71 0 17.64 -3.3 23.79 -9.9 c
6.15 -6.59 9.23 -15.87 9.23 -27.83 c
0 -0.73 -0.02 -1.82 -0.07 -3.28 c
-54.14 0 p
0.45 -8.08 2.71 -14.26 6.77 -18.55 c
4.05 -4.29 9.11 -6.44 15.18 -6.44 c
4.51 0 8.36 1.22 11.55 3.67 c
3.19 2.45 5.71 6.35 7.59 11.71 c
h
327.53 1077 40.54 0 P
-0.55 6.15 -2.1 10.76 -4.65 13.84 c
-3.92 4.77 -9 7.16 -15.24 7.16 c
-5.65 0 -10.41 -1.91 -14.25 -5.72 c
-3.85 -3.81 -5.98 -8.91 -6.39 -15.28 c
h
f
408 1034 -12 0 0 72.35 11 0 0 -10.96 P
2.84 5.13 5.46 8.52 7.87 10.15 c
2.41 1.64 5.05 2.47 7.94 2.47 c
4.17 0 8.41 -1.3 12.72 -3.91 c
-4.3 -11.23 p
-3.05 1.43 -6.11 2.14 -9.16 2.14 c
-2.73 0 -5.18 -0.8 -7.35 -2.41 c
-2.18 -1.6 -3.72 -3.83 -4.65 -6.68 c
-1.39 -4.34 -2.08 -9.08 -2.08 -14.23 c
h
f
491.93 1057.38 12.71 -1.6 P
-2.01 -7.54 -5.72 -13.38 -11.14 -17.54 c
-5.43 -4.16 -12.35 -6.24 -20.78 -6.24 c
-10.62 0 -19.04 3.28 -25.26 9.84 c
-6.22 6.56 -9.33 15.77 -9.33 27.61 c
0 12.25 3.14 21.77 9.43 28.55 c
6.29 6.66 14.45 10 24.47 10 c
9.71 0 17.64 -3.3 23.79 -9.9 c
6.15 -6.59 9.23 -15.87 9.23 -27.83 c
0 -0.73 -0.02 -1.82 -0.07 -3.28 c
-54.14 0 p
0.45 -8.08 2.71 -14.26 6.77 -18.55 c
4.05 -4.29 9.11 -6.44 15.18 -6.44 c
4.51 0 8.36 1.22 11.55 3.67 c
3.19 2.45 5.71 6.35 7.59 11.71 c
h
451.53 1077 40.54 0 P
-0.55 6.15 -2.1 10.76 -4.65 13.84 c
-3.92 4.77 -9 7.16 -15.24 7.16 c
-5.65 0 -10.41 -1.91 -14.25 -5.72 c
-3.85 -3.81 -5.98 -8.91 -6.39 -15.28 c
h
f
532 1034 -12 0 0 72.35 11 0 0 -10.29 P
5.34 7.95 13.05 11.94 23.14 11.94 c
4.38 0 8.41 -0.8 12.08 -2.37 c
3.68 -1.57 6.43 -3.62 8.25 -6.16 c
1.82 -2.54 3.11 -5.56 3.84 -9.06 c
0.45 -2.27 0.7 -6.24 0.7 -11.92 c
0 -44.48 -12 0 0 43.75 p
0 4.96 -0.49 8.68 -1.46 11.14 c
-0.98 2.46 -2.7 4.43 -5.18 5.89 c
-2.48 1.46 -5.39 2.21 -8.73 2.21 c
-5.33 0 -9.94 -1.66 -13.81 -4.96 c
-3.87 -3.3 -5.81 -9.55 -5.81 -18.76 c
h
f
645.57 1060.59 12.13 -1.59 P
-1.34 -8.45 -4.75 -15.06 -10.23 -19.84 c
-5.48 -4.77 -12.22 -7.16 -20.21 -7.16 c
-10.01 0 -18.05 3.25 -24.13 9.75 c
-6.09 6.5 -9.12 15.83 -9.12 27.97 c
0 7.85 1.31 14.72 3.93 20.61 c
2.62 5.89 6.6 10.3 11.95 13.25 c
5.35 2.95 11.17 4.43 17.46 4.43 c
7.94 0 14.44 -1.98 19.49 -5.93 c
5.05 -3.95 8.29 -9.56 9.72 -16.82 c
-12 -1.82 p
-1.14 4.83 -3.16 8.47 -6.06 10.91 c
-2.9 2.44 -6.41 3.66 -10.52 3.66 c
-6.21 0 -11.26 -2.24 -15.14 -6.71 c
-3.88 -4.47 -5.82 -11.55 -5.82 -21.22 c
0 -9.82 1.87 -16.95 5.62 -21.4 c
3.75 -4.45 8.63 -6.67 14.66 -6.67 c
4.84 0 8.88 1.52 12.13 4.56 c
3.24 3.04 5.3 7.72 6.16 14.04 c
h
f
680 1120 -12 0 0 14 ^ H
680 1034 -12 0 0 72.6 ^ H
f
747 1042.61 m
-4.6 -3.88 -9.03 -6.62 -13.28 -8.21 c
-4.25 -1.6 -8.82 -2.4 -13.69 -2.4 c
-8.05 0 -14.23 1.97 -18.55 5.91 c
-4.32 3.95 -6.48 8.98 -6.48 15.12 c
0 3.6 0.82 6.88 2.45 9.86 c
1.63 2.98 3.77 5.36 6.42 7.16 c
2.64 1.8 5.63 3.16 8.94 4.08 c
2.44 0.64 6.12 1.27 11.04 1.87 c
10.03 1.17 17.41 2.57 22.16 4.2 c
0 1.67 0 2.73 0 3.18 c
0 4.96 -1.17 8.46 -3.51 10.49 c
-3.17 2.75 -7.87 4.13 -14.12 4.13 c
-5.83 0 -10.13 -1.01 -12.91 -3.03 c
-2.78 -2.02 -4.83 -5.59 -6.16 -10.72 c
-12.12 1.62 p
1.09 5.1 2.89 9.21 5.39 12.35 c
2.5 3.14 6.13 5.55 10.86 7.24 c
4.74 1.69 10.23 2.54 16.47 2.54 c
6.2 0 11.23 -0.74 15.1 -2.2 c
3.87 -1.46 6.72 -3.3 8.54 -5.51 c
1.82 -2.21 3.1 -5.01 3.82 -8.39 c
0.41 -2.1 0.63 -5.89 0.63 -11.36 c
0 -16.43 p
0 -11.46 0.33 -18.7 1 -21.74 c
0.49 -3.04 1.46 -5.95 2.91 -8.73 c
-12.52 0 p
-1.25 2.55 -2.04 5.54 -2.4 8.97 c
h
746 1065.92 0 4.52 P
-4.54 -1.74 -11.35 -3.22 -20.43 -4.44 c
-5.14 -0.74 -8.78 -1.57 -10.91 -2.48 c
-2.13 -0.92 -3.78 -2.27 -4.93 -4.04 c
-1.16 -1.77 -1.73 -3.73 -1.73 -5.89 c
0 -3.31 1.26 -6.07 3.79 -8.27 c
2.52 -2.21 6.21 -3.31 11.08 -3.31 c
4.82 0 9.1 1.04 12.85 3.11 c
3.75 2.07 6.5 4.91 8.27 8.51 c
1.34 2.78 2.02 6.88 2.02 12.3 c
h
f
836 1033.65 -11 0 0 9.19 P
-4.65 -7.23 -11.48 -10.84 -20.49 -10.84 c
-5.84 0 -11.2 1.6 -16.1 4.79 c
-4.89 3.2 -8.69 7.66 -11.38 13.38 c
-2.69 5.73 -4.03 12.31 -4.03 19.75 c
0 7.26 1.21 13.84 3.64 19.75 c
2.43 5.91 6.07 10.44 10.93 13.59 c
4.86 3.15 10.29 4.73 16.29 4.73 c
4.4 0 8.32 -0.9 11.75 -2.7 c
3.44 -1.8 6.23 -4.15 8.39 -7.04 c
0 35.96 12 0 h
786 1069.96 m
0 -9.37 1.95 -16.37 5.86 -21.01 c
3.91 -4.64 8.52 -6.96 13.84 -6.96 c
5.36 0 9.92 2.21 13.67 6.65 c
3.75 4.43 5.63 11.19 5.63 20.28 c
0 10.01 -1.91 17.36 -5.73 22.04 c
-3.82 4.68 -8.52 7.03 -14.11 7.03 c
-5.45 0 -10.01 -2.25 -13.67 -6.75 c
-3.66 -4.5 -5.49 -11.59 -5.49 -21.28 c
h
f
850 1070 m
0 13.46 3.79 23.43 11.37 29.92 c
6.34 5.38 14.05 8.09 23.16 8.09 c
10.13 0 18.4 -3.29 24.83 -9.83 c
6.43 -6.55 9.64 -15.6 9.64 -27.14 c
0 -9.36 -1.43 -16.72 -4.27 -22.08 c
-2.84 -5.36 -6.98 -9.53 -12.41 -12.5 c
-5.43 -2.96 -11.36 -4.45 -17.79 -4.45 c
-10.31 0 -18.64 3.26 -25 9.79 c
-6.36 6.53 -9.54 15.93 -9.54 28.21 c
h
863 1070.04 m
0 -9.37 2.04 -16.38 6.12 -21.04 c
4.08 -4.66 9.22 -6.99 15.41 -6.99 c
6.14 0 11.26 2.34 15.34 7.03 c
4.08 4.68 6.13 11.82 6.13 21.42 c
0 9.05 -2.06 15.9 -6.16 20.56 c
-4.11 4.66 -9.21 6.99 -15.31 6.99 c
-6.19 0 -11.33 -2.32 -15.41 -6.96 c
-4.08 -4.64 -6.12 -11.64 -6.12 -21 c
h
f
945 1034 -12 0 0 72.35 11 0 0 -10.96 P
2.84 5.13 5.46 8.52 7.87 10.15 c
2.41 1.64 5.05 2.47 7.94 2.47 c
4.17 0 8.41 -1.3 12.72 -3.91 c
-4.3 -11.23 p
-3.05 1.43 -6.11 2.14 -9.16 2.14 c
-2.73 0 -5.18 -0.8 -7.35 -2.41 c
-2.18 -1.6 -3.72 -3.83 -4.65 -6.68 c
-1.39 -4.34 -2.08 -9.08 -2.08 -14.23 c
h
f
1077 1033.65 -11 0 0 9.19 P
-4.65 -7.23 -11.48 -10.84 -20.49 -10.84 c
-5.84 0 -11.2 1.6 -16.1 4.79 c
-4.89 3.2 -8.69 7.66 -11.38 13.38 c
-2.69 5.73 -4.03 12.31 -4.03 19.75 c
0 7.26 1.21 13.84 3.64 19.75 c
2.43 5.91 6.07 10.44 10.93 13.59 c
4.86 3.15 10.29 4.73 16.29 4.73 c
4.4 0 8.32 -0.9 11.75 -2.7 c
3.44 -1.8 6.23 -4.15 8.39 -7.04 c
0 35.96 12 0 h
1027 1069.96 m
0 -9.37 1.95 -16.37 5.86 -21.01 c
3.91 -4.64 8.52 -6.96 13.84 -6.96 c
5.36 0 9.92 2.21 13.67 6.65 c
3.75 4.43 5.63 11.19 5.63 20.28 c
0 10.01 -1.91 17.36 -5.73 22.04 c
-3.82 4.68 -8.52 7.03 -14.11 7.03 c
-5.45 0 -10.01 -2.25 -13.67 -6.75 c
-3.66 -4.5 -5.49 -11.59 -5.49 -21.28 c
h
f
1144 1042.61 m
-4.6 -3.88 -9.03 -6.62 -13.28 -8.21 c
-4.25 -1.6 -8.82 -2.4 -13.69 -2.4 c
-8.05 0 -14.23 1.97 -18.55 5.91 c
-4.32 3.95 -6.48 8.98 -6.48 15.12 c
0 3.6 0.82 6.88 2.45 9.86 c
1.63 2.98 3.77 5.36 6.42 7.16 c
2.64 1.8 5.63 3.16 8.94 4.08 c
2.44 0.64 6.12 1.27 11.04 1.87 c
10.03 1.17 17.41 2.57 22.16 4.2 c
0 1.67 0 2.73 0 3.18 c
0 4.96 -1.17 8.46 -3.51 10.49 c
-3.17 2.75 -7.87 4.13 -14.12 4.13 c
-5.83 0 -10.13 -1.01 -12.91 -3.03 c
-2.78 -2.02 -4.83 -5.59 -6.16 -10.72 c
-12.12 1.62 p
1.09 5.1 2.89 9.21 5.39 12.35 c
2.5 3.14 6.13 5.55 10.86 7.24 c
4.74 1.69 10.23 2.54 16.47 2.54 c
6.2 0 11.23 -0.74 15.1 -2.2 c
3.87 -1.46 6.72 -3.3 8.54 -5.51 c
1.82 -2.21 3.1 -5.01 3.82 -8.39 c
0.41 -2.1 0.63 -5.89 0.63 -11.36 c
0 -16.43 p
0 -11.46 0.33 -18.7 1 -21.74 c
0.49 -3.04 1.46 -5.95 2.91 -8.73 c
-12.52 0 p
-1.25 2.55 -2.04 5.54 -2.4 8.97 c
h
1143 1065.92 0 4.52 P
-4.54 -1.74 -11.35 -3.22 -20.43 -4.44 c
-5.14 -0.74 -8.78 -1.57 -10.91 -2.48 c
-2.13 -0.92 -3.78 -2.27 -4.93 -4.04 c
-1.16 -1.77 -1.73 -3.73 -1.73 -5.89 c
0 -3.31 1.26 -6.07 3.79 -8.27 c
2.52 -2.21 6.21 -3.31 11.08 -3.31 c
4.82 0 9.1 1.04 12.85 3.11 c
3.75 2.07 6.5 4.91 8.27 8.51 c
1.34 2.78 2.02 6.88 2.02 12.3 c
h
f
453.93 896.38 12.71 -1.6 P
-2.01 -7.54 -5.72 -13.38 -11.14 -17.54 c
-5.43 -4.16 -12.35 -6.24 -20.78 -6.24 c
-10.62 0 -19.04 3.28 -25.26 9.84 c
-6.22 6.56 -9.33 15.77 -9.33 27.61 c
0 12.25 3.14 21.77 9.43 28.55 c
6.29 6.66 14.45 10 24.47 10 c
9.71 0 17.64 -3.3 23.79 -9.89 c
6.15 -6.6 9.23 -15.87 9.23 -27.83 c
0 -0.73 -0.02 -1.82 -0.07 -3.27 c
-54.14 0 p
0.45 -8.08 2.71 -14.27 6.77 -18.56 c
4.05 -4.29 9.11 -6.44 15.18 -6.44 c
4.51 0 8.36 1.22 11.55 3.67 c
3.19 2.45 5.71 6.35 7.59 11.71 c
h
413.53 916 40.54 0 P
-0.55 6.15 -2.1 10.76 -4.65 13.84 c
-3.92 4.77 -9 7.16 -15.24 7.16 c
-5.65 0 -10.41 -1.91 -14.25 -5.71 c
-3.85 -3.81 -5.98 -8.91 -6.39 -15.29 c
h
f
493 873 -12 0 0 72.35 11 0 0 -10.15 P
2.27 3.54 5.28 6.39 9.05 8.55 c
3.77 2.16 8.05 3.25 12.86 3.25 c
5.35 0 9.74 -1.1 13.17 -3.29 c
3.43 -2.19 5.84 -5.25 7.25 -9.19 c
5.71 8.32 13.16 12.48 22.32 12.48 c
7.17 0 12.68 -2 16.54 -5.98 c
3.86 -3.98 5.81 -10.09 5.81 -18.36 c
0 -49.66 -12 0 0 45.31 p
0 4.88 -0.39 8.39 -1.17 10.53 c
-0.78 2.14 -2.2 3.87 -4.24 5.18 c
-2.05 1.31 -4.45 1.98 -7.21 1.98 c
-4.99 0 -9.13 -1.7 -12.43 -5.06 c
-3.3 -3.36 -4.95 -8.75 -4.95 -16.15 c
0 -41.79 -12 0 0 46.73 p
0 5.42 -1.05 9.48 -3.13 12.19 c
-2.08 2.71 -5.48 4.08 -10.21 4.08 c
-3.59 0 -6.92 -0.92 -9.97 -2.73 c
-3.05 -1.8 -5.26 -4.45 -6.63 -7.92 c
-1.37 -3.48 -2.05 -8.49 -2.05 -15.04 c
h
f
657 872.65 -11 0 0 10.71 P
-5.68 -8.24 -13.38 -12.36 -23.11 -12.36 c
-4.3 0 -8.31 0.82 -12.04 2.47 c
-3.73 1.65 -6.49 3.72 -8.29 6.21 c
-1.81 2.5 -3.07 5.55 -3.81 9.17 c
-0.5 2.43 -0.75 6.27 -0.75 11.54 c
0 45.2 12 0 0 -40.23 p
0 -6.42 0.25 -10.75 0.77 -12.98 c
0.79 -3.23 2.47 -5.77 5.03 -7.62 c
2.56 -1.84 5.73 -2.77 9.5 -2.77 c
3.77 0 7.31 0.95 10.62 2.84 c
3.3 1.89 5.64 4.46 7.02 7.72 c
1.38 3.25 2.06 7.98 2.06 14.18 c
0 38.87 12 0 h
f
675.996 873 12.0039 100.215 re
f
755 881.61 m
-4.6 -3.88 -9.03 -6.62 -13.28 -8.21 c
-4.25 -1.6 -8.82 -2.4 -13.69 -2.4 c
-8.05 0 -14.23 1.97 -18.55 5.91 c
-4.32 3.95 -6.48 8.98 -6.48 15.12 c
0 3.6 0.82 6.88 2.45 9.86 c
1.63 2.98 3.77 5.36 6.42 7.16 c
2.64 1.8 5.63 3.16 8.94 4.08 c
2.44 0.64 6.12 1.27 11.04 1.87 c
10.03 1.17 17.41 2.57 22.16 4.2 c
0 1.67 0 2.73 0 3.18 c
0 4.96 -1.17 8.46 -3.51 10.49 c
-3.17 2.75 -7.87 4.13 -14.12 4.13 c
-5.83 0 -10.13 -1.01 -12.91 -3.03 c
-2.78 -2.02 -4.83 -5.59 -6.16 -10.72 c
-12.12 1.62 p
1.09 5.1 2.89 9.21 5.39 12.35 c
2.5 3.14 6.13 5.55 10.86 7.24 c
4.74 1.69 10.23 2.54 16.47 2.54 c
6.2 0 11.23 -0.74 15.1 -2.2 c
3.87 -1.46 6.72 -3.3 8.54 -5.51 c
1.82 -2.21 3.1 -5.01 3.82 -8.39 c
0.41 -2.1 0.63 -5.89 0.63 -11.36 c
0 -16.43 p
0 -11.46 0.33 -18.7 1 -21.74 c
0.49 -3.04 1.46 -5.95 2.91 -8.73 c
-12.52 0 p
-1.25 2.55 -2.04 5.54 -2.4 8.97 c
h
754 904.92 0 4.52 P
-4.54 -1.74 -11.35 -3.22 -20.43 -4.44 c
-5.14 -0.74 -8.78 -1.57 -10.91 -2.48 c
-2.13 -0.92 -3.78 -2.27 -4.93 -4.04 c
-1.16 -1.77 -1.73 -3.73 -1.73 -5.89 c
0 -3.31 1.26 -6.07 3.79 -8.27 c
2.52 -2.21 6.21 -3.31 11.08 -3.31 c
4.82 0 9.1 1.04 12.85 3.11 c
3.75 2.07 6.5 4.91 8.27 8.51 c
1.34 2.78 2.02 6.88 2.02 12.3 c
h
f
832.57 899.54 12.13 -1.57 P
-1.34 -8.32 -4.75 -14.84 -10.23 -19.55 c
-5.48 -4.71 -12.22 -7.06 -20.21 -7.06 c
-10.01 0 -18.05 3.24 -24.13 9.71 c
-6.09 6.47 -9.12 15.75 -9.12 27.84 c
0 7.81 1.31 14.65 3.93 20.51 c
2.62 5.86 6.6 10.25 11.95 13.18 c
5.35 2.93 11.17 4.4 17.46 4.4 c
7.94 0 14.44 -1.98 19.49 -5.93 c
5.05 -3.95 8.29 -9.56 9.72 -16.82 c
-12 -1.82 p
-1.14 4.83 -3.16 8.47 -6.06 10.91 c
-2.9 2.44 -6.41 3.66 -10.52 3.66 c
-6.21 0 -11.26 -2.23 -15.14 -6.66 c
-3.88 -4.43 -5.82 -11.45 -5.82 -21.05 c
0 -9.73 1.87 -16.81 5.62 -21.22 c
3.75 -4.41 8.63 -6.62 14.66 -6.62 c
4.84 0 8.88 1.48 12.13 4.43 c
3.24 2.96 5.3 7.5 6.16 13.64 c
h
804.1 864.32 3.51 11.62 9.06 0 -2.23 -7.22 P
3.83 -0.45 6.71 -1.63 8.65 -3.54 c
1.94 -1.91 2.91 -4.04 2.91 -6.37 c
0 -3.37 -1.63 -6.35 -4.88 -8.93 c
-3.25 -2.59 -8.16 -3.87 -14.71 -3.87 c
-3.71 0 -6.96 0.26 -9.76 0.78 c
0.76 7.63 p
2.95 0.39 5.11 0.59 6.49 0.59 c
4.32 0 7.36 0.57 9.11 1.7 c
1.33 0.88 2 1.95 2 3.22 c
0 0.79 -0.27 1.49 -0.8 2.1 c
-0.53 0.61 -1.52 1.14 -2.95 1.58 c
-1.44 0.44 -3.82 0.68 -7.15 0.72 c
h
f
903 881.61 m
-4.6 -3.88 -9.03 -6.62 -13.28 -8.21 c
-4.25 -1.6 -8.82 -2.4 -13.69 -2.4 c
-8.05 0 -14.23 1.97 -18.55 5.91 c
-4.32 3.95 -6.48 8.98 -6.48 15.12 c
0 3.6 0.82 6.88 2.45 9.86 c
1.63 2.98 3.77 5.36 6.42 7.16 c
2.64 1.8 5.63 3.16 8.94 4.08 c
2.44 0.64 6.12 1.27 11.04 1.87 c
10.03 1.17 17.41 2.57 22.16 4.2 c
0 1.67 0 2.73 0 3.18 c
0 4.96 -1.17 8.46 -3.51 10.49 c
-3.17 2.75 -7.87 4.13 -14.12 4.13 c
-5.83 0 -10.13 -1.01 -12.91 -3.03 c
-2.78 -2.02 -4.83 -5.59 -6.16 -10.72 c
-12.12 1.62 p
1.09 5.1 2.89 9.21 5.39 12.35 c
2.5 3.14 6.13 5.55 10.86 7.24 c
4.74 1.69 10.23 2.54 16.47 2.54 c
6.2 0 11.23 -0.74 15.1 -2.2 c
3.87 -1.46 6.72 -3.3 8.54 -5.51 c
1.82 -2.21 3.1 -5.01 3.82 -8.39 c
0.41 -2.1 0.63 -5.89 0.63 -11.36 c
0 -16.43 p
0 -11.46 0.33 -18.7 1 -21.74 c
0.49 -3.04 1.46 -5.95 2.91 -8.73 c
-12.52 0 p
-1.25 2.55 -2.04 5.54 -2.4 8.97 c
h
902 904.92 0 4.52 P
-4.54 -1.74 -11.35 -3.22 -20.43 -4.44 c
-5.14 -0.74 -8.78 -1.57 -10.91 -2.48 c
-2.13 -0.92 -3.78 -2.27 -4.93 -4.04 c
-1.16 -1.77 -1.73 -3.73 -1.73 -5.89 c
0 -3.31 1.26 -6.07 3.79 -8.27 c
2.52 -2.21 6.21 -3.31 11.08 -3.31 c
4.82 0 9.1 1.04 12.85 3.11 c
3.75 2.07 6.5 4.91 8.27 8.51 c
1.34 2.78 2.02 6.88 2.02 12.3 c
h
870.75 956.33 -8.75 0 P
0 0.08 0 0.16 0 0.24 c
0 4.65 1.27 8.37 3.81 11.16 c
2.54 2.84 5.79 4.26 9.75 4.26 c
2.76 0 6.52 -1.25 11.29 -3.75 c
2.63 -1.39 4.72 -2.08 6.28 -2.08 c
1.42 0 2.51 0.39 3.27 1.2 c
0.76 0.8 1.29 2.38 1.61 4.75 c
9 0 p
-0.14 -5.04 -1.43 -8.82 -3.87 -11.34 c
-2.44 -2.52 -5.54 -3.78 -9.3 -3.78 c
-2.82 0 -6.54 1.18 -11.15 3.55 c
-3 1.52 -5.2 2.28 -6.58 2.28 c
-1.52 0 -2.75 -0.55 -3.7 -1.64 c
-0.94 -1.05 -1.41 -2.57 -1.41 -4.57 c
0 -0.09 -0.07 -0.19 -0.25 -0.28 c
h
f
928 909 m
0 13.46 3.79 23.43 11.37 29.92 c
6.34 5.38 14.05 8.09 23.16 8.09 c
10.13 0 18.4 -3.29 24.83 -9.83 c
6.43 -6.55 9.64 -15.6 9.64 -27.14 c
0 -9.36 -1.43 -16.72 -4.27 -22.08 c
-2.84 -5.36 -6.98 -9.53 -12.41 -12.5 c
-5.43 -2.96 -11.36 -4.45 -17.79 -4.45 c
-10.31 0 -18.64 3.26 -25 9.79 c
-6.36 6.53 -9.54 15.93 -9.54 28.21 c
h
941 909.04 m
0 -9.37 2.04 -16.38 6.12 -21.04 c
4.08 -4.66 9.22 -6.99 15.41 -6.99 c
6.14 0 11.26 2.34 15.34 7.03 c
4.08 4.68 6.13 11.82 6.13 21.42 c
0 9.05 -2.06 15.9 -6.16 20.56 c
-4.11 4.66 -9.21 6.99 -15.31 6.99 c
-6.19 0 -11.33 -2.32 -15.41 -6.96 c
-4.08 -4.64 -6.12 -11.64 -6.12 -21 c
h
f
1940 1592.77 0 -9.12 -11 0 0 100.57 12 0 0 -35.75 P
5.23 6.36 11.91 9.54 20.03 9.54 c
4.5 0 8.75 -0.91 12.77 -2.71 c
4.02 -1.8 7.32 -4.34 9.91 -7.6 c
2.59 -3.27 4.63 -7.2 6.09 -11.81 c
1.47 -4.61 2.2 -9.54 2.2 -14.79 c
0 -12.46 -3.11 -22.09 -9.32 -28.89 c
-6.21 -6.8 -13.65 -10.2 -22.34 -10.2 c
-8.64 0 -15.42 3.59 -20.34 10.77 c
h
1940 1620.55 m
0 -8.76 1.18 -15.09 3.54 -18.99 c
3.86 -6.37 9.09 -9.56 15.68 -9.56 c
5.36 0 10 2.35 13.91 7.05 c
3.91 4.7 5.87 11.71 5.87 21.02 c
0 9.54 -1.88 16.58 -5.63 21.12 c
-3.75 4.54 -8.29 6.81 -13.6 6.81 c
-5.36 0 -10 -2.35 -13.91 -7.05 c
-3.91 -4.7 -5.86 -11.5 -5.86 -20.39 c
h
f
2006 1584 12.0039 100.215 re
f
2032 1620 m
0 13.46 3.79 23.43 11.37 29.92 c
6.34 5.38 14.05 8.09 23.16 8.09 c
10.13 0 18.4 -3.29 24.83 -9.83 c
6.43 -6.55 9.64 -15.6 9.64 -27.14 c
0 -9.36 -1.43 -16.72 -4.27 -22.08 c
-2.84 -5.36 -6.98 -9.53 -12.41 -12.5 c
-5.43 -2.96 -11.36 -4.45 -17.79 -4.45 c
-10.31 0 -18.64 3.26 -25 9.79 c
-6.36 6.53 -9.54 15.93 -9.54 28.21 c
h
2045 1620.04 m
0 -9.37 2.04 -16.38 6.12 -21.04 c
4.08 -4.66 9.22 -6.99 15.41 -6.99 c
6.14 0 11.26 2.34 15.34 7.03 c
4.08 4.68 6.13 11.82 6.13 21.42 c
0 9.05 -2.06 15.9 -6.16 20.56 c
-4.11 4.66 -9.21 6.99 -15.31 6.99 c
-6.19 0 -11.33 -2.32 -15.41 -6.96 c
-4.08 -4.64 -6.12 -11.64 -6.12 -21 c
h
f
2162.57 1610.59 12.13 -1.59 P
-1.34 -8.45 -4.75 -15.06 -10.23 -19.84 c
-5.48 -4.77 -12.22 -7.16 -20.21 -7.16 c
-10.01 0 -18.05 3.25 -24.13 9.75 c
-6.09 6.5 -9.12 15.83 -9.12 27.97 c
0 7.85 1.31 14.72 3.93 20.61 c
2.62 5.89 6.6 10.3 11.95 13.25 c
5.35 2.95 11.17 4.43 17.46 4.43 c
7.94 0 14.44 -1.98 19.49 -5.93 c
5.05 -3.95 8.29 -9.56 9.72 -16.82 c
-12 -1.82 p
-1.14 4.83 -3.16 8.47 -6.06 10.91 c
-2.9 2.44 -6.41 3.66 -10.52 3.66 c
-6.21 0 -11.26 -2.24 -15.14 -6.71 c
-3.88 -4.47 -5.82 -11.55 -5.82 -21.22 c
0 -9.82 1.87 -16.95 5.62 -21.4 c
3.75 -4.45 8.63 -6.67 14.66 -6.67 c
4.84 0 8.88 1.52 12.13 4.56 c
3.24 3.04 5.3 7.72 6.16 14.04 c
h
f
2180 1620 m
0 13.46 3.79 23.43 11.37 29.92 c
6.34 5.38 14.05 8.09 23.16 8.09 c
10.13 0 18.4 -3.29 24.83 -9.83 c
6.43 -6.55 9.64 -15.6 9.64 -27.14 c
0 -9.36 -1.43 -16.72 -4.27 -22.08 c
-2.84 -5.36 -6.98 -9.53 -12.41 -12.5 c
-5.43 -2.96 -11.36 -4.45 -17.79 -4.45 c
-10.31 0 -18.64 3.26 -25 9.79 c
-6.36 6.53 -9.54 15.93 -9.54 28.21 c
h
2193 1620.04 m
0 -9.37 2.04 -16.38 6.12 -21.04 c
4.08 -4.66 9.22 -6.99 15.41 -6.99 c
6.14 0 11.26 2.34 15.34 7.03 c
4.08 4.68 6.13 11.82 6.13 21.42 c
0 9.05 -2.06 15.9 -6.16 20.56 c
-4.11 4.66 -9.21 6.99 -15.31 6.99 c
-6.19 0 -11.33 -2.32 -15.41 -6.96 c
-4.08 -4.64 -6.12 -11.64 -6.12 -21 c
h
f
1835.13 1434.01 1.75 -10.91 P
-3.4 -0.73 -6.44 -1.1 -9.12 -1.1 c
-4.38 0 -7.77 0.71 -10.19 2.12 c
-2.41 1.41 -4.11 3.27 -5.09 5.57 c
-0.98 2.3 -1.47 7.14 -1.47 14.53 c
0 41.78 -9.54 0 0 10 ^ 0 17.69 12 7.27 0 -24.96 12.09 0 
0 -10 ^ 0 -42.86 p
0 -3.54 0.21 -5.82 0.63 -6.83 c
0.43 -1.01 1.12 -1.82 2.08 -2.41 c
0.96 -0.6 2.34 -0.9 4.12 -0.9 c
1.34 0 3.11 0.34 5.29 1.01 c
h
f
1859 1423 -12 0 0 72.35 11 0 0 -10.96 P
2.84 5.13 5.46 8.52 7.87 10.15 c
2.41 1.64 5.05 2.47 7.94 2.47 c
4.17 0 8.41 -1.3 12.72 -3.91 c
-4.3 -11.23 p
-3.05 1.43 -6.11 2.14 -9.16 2.14 c
-2.73 0 -5.18 -0.8 -7.35 -2.41 c
-2.18 -1.6 -3.72 -3.83 -4.65 -6.68 c
-1.39 -4.34 -2.08 -9.08 -2.08 -14.23 c
h
f
1941 1431.61 m
-4.6 -3.88 -9.03 -6.62 -13.28 -8.21 c
-4.25 -1.6 -8.82 -2.4 -13.69 -2.4 c
-8.05 0 -14.23 1.97 -18.55 5.91 c
-4.32 3.95 -6.48 8.98 -6.48 15.12 c
0 3.6 0.82 6.88 2.45 9.86 c
1.63 2.98 3.77 5.36 6.42 7.16 c
2.64 1.8 5.63 3.16 8.94 4.08 c
2.44 0.64 6.12 1.27 11.04 1.87 c
10.03 1.17 17.41 2.57 22.16 4.2 c
0 1.67 0 2.73 0 3.18 c
0 4.96 -1.17 8.46 -3.51 10.49 c
-3.17 2.75 -7.87 4.13 -14.12 4.13 c
-5.83 0 -10.13 -1.01 -12.91 -3.03 c
-2.78 -2.02 -4.83 -5.59 -6.16 -10.72 c
-12.12 1.62 p
1.09 5.1 2.89 9.21 5.39 12.35 c
2.5 3.14 6.13 5.55 10.86 7.24 c
4.74 1.69 10.23 2.54 16.47 2.54 c
6.2 0 11.23 -0.74 15.1 -2.2 c
3.87 -1.46 6.72 -3.3 8.54 -5.51 c
1.82 -2.21 3.1 -5.01 3.82 -8.39 c
0.41 -2.1 0.63 -5.89 0.63 -11.36 c
0 -16.43 p
0 -11.46 0.33 -18.7 1 -21.74 c
0.49 -3.04 1.46 -5.95 2.91 -8.73 c
-12.52 0 p
-1.25 2.55 -2.04 5.54 -2.4 8.97 c
h
1940 1454.92 0 4.52 P
-4.54 -1.74 -11.35 -3.22 -20.43 -4.44 c
-5.14 -0.74 -8.78 -1.57 -10.91 -2.48 c
-2.13 -0.92 -3.78 -2.27 -4.93 -4.04 c
-1.16 -1.77 -1.73 -3.73 -1.73 -5.89 c
0 -3.31 1.26 -6.07 3.79 -8.27 c
2.52 -2.21 6.21 -3.31 11.08 -3.31 c
4.82 0 9.1 1.04 12.85 3.11 c
3.75 2.07 6.5 4.91 8.27 8.51 c
1.34 2.78 2.02 6.88 2.02 12.3 c
h
f
2030 1422.65 -11 0 0 9.19 P
-4.65 -7.23 -11.48 -10.84 -20.49 -10.84 c
-5.84 0 -11.2 1.6 -16.1 4.79 c
-4.89 3.2 -8.69 7.66 -11.38 13.38 c
-2.69 5.73 -4.03 12.31 -4.03 19.75 c
0 7.26 1.21 13.84 3.64 19.75 c
2.43 5.91 6.07 10.44 10.93 13.59 c
4.86 3.15 10.29 4.73 16.29 4.73 c
4.4 0 8.32 -0.9 11.75 -2.7 c
3.44 -1.8 6.23 -4.15 8.39 -7.04 c
0 35.96 12 0 h
1980 1458.96 m
0 -9.37 1.95 -16.37 5.86 -21.01 c
3.91 -4.64 8.52 -6.96 13.84 -6.96 c
5.36 0 9.92 2.21 13.67 6.65 c
3.75 4.43 5.63 11.19 5.63 20.28 c
0 10.01 -1.91 17.36 -5.73 22.04 c
-3.82 4.68 -8.52 7.03 -14.11 7.03 c
-5.45 0 -10.01 -2.25 -13.67 -6.75 c
-3.66 -4.5 -5.49 -11.59 -5.49 -21.28 c
h
f
2108 1422.65 -11 0 0 10.71 P
-5.68 -8.24 -13.38 -12.36 -23.11 -12.36 c
-4.3 0 -8.31 0.82 -12.04 2.47 c
-3.73 1.65 -6.49 3.72 -8.29 6.21 c
-1.81 2.5 -3.07 5.55 -3.81 9.17 c
-0.5 2.43 -0.75 6.27 -0.75 11.54 c
0 45.2 12 0 0 -40.23 p
0 -6.42 0.25 -10.75 0.77 -12.98 c
0.79 -3.23 2.47 -5.77 5.03 -7.62 c
2.56 -1.84 5.73 -2.77 9.5 -2.77 c
3.77 0 7.31 0.95 10.62 2.84 c
3.3 1.89 5.64 4.46 7.02 7.72 c
1.38 3.25 2.06 7.98 2.06 14.18 c
0 38.87 12 0 h
f
2184.99 1423 -64.26 0 0 9.98 46.21 53.05 P
-5.24 -0.02 -9.87 -0.03 -13.87 -0.03 c
-29.6 0 0 10 59.34 0 0 -8.19 -39.3 -46.37 -7.59 -8.46 p
5.51 0.68 10.69 1.02 15.52 1.02 c
33.56 0 h
f
2209 1509 -12 0 0 14 ^ H
2209 1423 -12 0 0 72.6 ^ H
f
2287 1422.65 -11 0 0 9.19 P
-4.65 -7.23 -11.48 -10.84 -20.49 -10.84 c
-5.84 0 -11.2 1.6 -16.1 4.79 c
-4.89 3.2 -8.69 7.66 -11.38 13.38 c
-2.69 5.73 -4.03 12.31 -4.03 19.75 c
0 7.26 1.21 13.84 3.64 19.75 c
2.43 5.91 6.07 10.44 10.93 13.59 c
4.86 3.15 10.29 4.73 16.29 4.73 c
4.4 0 8.32 -0.9 11.75 -2.7 c
3.44 -1.8 6.23 -4.15 8.39 -7.04 c
0 35.96 12 0 h
2237 1458.96 m
0 -9.37 1.95 -16.37 5.86 -21.01 c
3.91 -4.64 8.52 -6.96 13.84 -6.96 c
5.36 0 9.92 2.21 13.67 6.65 c
3.75 4.43 5.63 11.19 5.63 20.28 c
0 10.01 -1.91 17.36 -5.73 22.04 c
-3.82 4.68 -8.52 7.03 -14.11 7.03 c
-5.45 0 -10.01 -2.25 -13.67 -6.75 c
-3.66 -4.5 -5.49 -11.59 -5.49 -21.28 c
h
f
2301 1459 m
0 13.46 3.79 23.43 11.37 29.92 c
6.34 5.38 14.05 8.09 23.16 8.09 c
10.13 0 18.4 -3.29 24.83 -9.83 c
6.43 -6.55 9.64 -15.6 9.64 -27.14 c
0 -9.36 -1.43 -16.72 -4.27 -22.08 c
-2.84 -5.36 -6.98 -9.53 -12.41 -12.5 c
-5.43 -2.96 -11.36 -4.45 -17.79 -4.45 c
-10.31 0 -18.64 3.26 -25 9.79 c
-6.36 6.53 -9.54 15.93 -9.54 28.21 c
h
2314 1459.04 m
0 -9.37 2.04 -16.38 6.12 -21.04 c
4.08 -4.66 9.22 -6.99 15.41 -6.99 c
6.14 0 11.26 2.34 15.34 7.03 c
4.08 4.68 6.13 11.82 6.13 21.42 c
0 9.05 -2.06 15.9 -6.16 20.56 c
-4.11 4.66 -9.21 6.99 -15.31 6.99 c
-6.19 0 -11.33 -2.32 -15.41 -6.96 c
-4.08 -4.64 -6.12 -11.64 -6.12 -21 c
h
f
2042.56 58.54 -8.95 0 P
-6.89 8.57 -12.71 18.59 -17.48 30.08 c
-4.76 11.48 -7.14 23.38 -7.14 35.68 c
0 10.84 1.78 21.23 5.34 31.17 c
4.16 11.53 10.59 23.01 19.28 34.45 c
8.95 0 p
-5.55 -9.48 -9.22 -16.25 -11 -20.3 c
-2.8 -6.29 -5 -12.85 -6.6 -19.69 c
-1.97 -8.52 -2.96 -17.09 -2.96 -25.7 c
0 -21.92 6.85 -43.82 20.56 -65.69 c
h
f
2105 96.61 m
-4.6 -3.88 -9.03 -6.62 -13.28 -8.21 c
-4.25 -1.6 -8.82 -2.4 -13.69 -2.4 c
-8.05 0 -14.23 1.97 -18.55 5.91 c
-4.32 3.95 -6.48 8.98 -6.48 15.12 c
0 3.6 0.82 6.88 2.45 9.86 c
1.63 2.98 3.77 5.36 6.42 7.16 c
2.64 1.8 5.63 3.16 8.94 4.08 c
2.44 0.64 6.12 1.27 11.04 1.87 c
10.03 1.17 17.41 2.57 22.16 4.2 c
0 1.67 0 2.73 0 3.18 c
0 4.96 -1.17 8.46 -3.51 10.49 c
-3.17 2.75 -7.87 4.13 -14.12 4.13 c
-5.83 0 -10.13 -1.01 -12.91 -3.03 c
-2.78 -2.02 -4.83 -5.59 -6.16 -10.72 c
-12.12 1.62 p
1.09 5.1 2.89 9.21 5.39 12.35 c
2.5 3.14 6.13 5.55 10.86 7.24 c
4.74 1.69 10.23 2.54 16.47 2.54 c
6.2 0 11.23 -0.74 15.1 -2.2 c
3.87 -1.46 6.72 -3.3 8.54 -5.51 c
1.82 -2.21 3.1 -5.01 3.82 -8.39 c
0.41 -2.1 0.63 -5.89 0.63 -11.36 c
0 -16.43 p
0 -11.46 0.33 -18.7 1 -21.74 c
0.49 -3.04 1.46 -5.95 2.91 -8.73 c
-12.52 0 p
-1.25 2.55 -2.04 5.54 -2.4 8.97 c
h
2104 119.92 0 4.52 P
-4.54 -1.74 -11.35 -3.22 -20.43 -4.44 c
-5.14 -0.74 -8.78 -1.57 -10.91 -2.48 c
-2.13 -0.92 -3.78 -2.27 -4.93 -4.04 c
-1.16 -1.77 -1.73 -3.73 -1.73 -5.89 c
0 -3.31 1.26 -6.07 3.79 -8.27 c
2.52 -2.21 6.21 -3.31 11.08 -3.31 c
4.82 0 9.1 1.04 12.85 3.11 c
3.75 2.07 6.5 4.91 8.27 8.51 c
1.34 2.78 2.02 6.88 2.02 12.3 c
h
f
2143.41 58.54 -8.93 0 P
13.68 21.88 20.52 43.77 20.52 65.69 c
0 8.57 -0.98 17.07 -2.95 25.5 c
-1.56 6.84 -3.73 13.4 -6.52 19.69 c
-1.79 4.1 -5.47 10.94 -11.05 20.51 c
8.93 0 p
8.68 -11.44 15.1 -22.93 19.25 -34.45 c
3.55 -9.94 5.34 -20.33 5.34 -31.17 c
0 -12.3 -2.39 -24.2 -7.17 -35.68 c
-4.78 -11.48 -10.59 -21.51 -17.42 -30.08 c
h
f
1 i
1543.62 802.816 1086.38 376.535 re
S
0.2 i
1940 1042.77 0 -9.12 -11 0 0 100.57 12 0 0 -35.75 P
5.23 6.36 11.91 9.54 20.03 9.54 c
4.5 0 8.75 -0.91 12.77 -2.71 c
4.02 -1.8 7.32 -4.34 9.91 -7.6 c
2.59 -3.27 4.63 -7.2 6.09 -11.81 c
1.47 -4.61 2.2 -9.54 2.2 -14.79 c
0 -12.46 -3.11 -22.09 -9.32 -28.89 c
-6.21 -6.8 -13.65 -10.2 -22.34 -10.2 c
-8.64 0 -15.42 3.59 -20.34 10.77 c
h
1940 1070.55 m
0 -8.76 1.18 -15.09 3.54 -18.99 c
3.86 -6.37 9.09 -9.56 15.68 -9.56 c
5.36 0 10 2.35 13.91 7.05 c
3.91 4.7 5.87 11.71 5.87 21.02 c
0 9.54 -1.88 16.58 -5.63 21.12 c
-3.75 4.54 -8.29 6.81 -13.6 6.81 c
-5.36 0 -10 -2.35 -13.91 -7.05 c
-3.91 -4.7 -5.86 -11.5 -5.86 -20.39 c
h
f
2006 1034 12.0039 100.215 re
f
2032 1070 m
0 13.46 3.79 23.43 11.37 29.92 c
6.34 5.38 14.05 8.09 23.16 8.09 c
10.13 0 18.4 -3.29 24.83 -9.83 c
6.43 -6.55 9.64 -15.6 9.64 -27.14 c
0 -9.36 -1.43 -16.72 -4.27 -22.08 c
-2.84 -5.36 -6.98 -9.53 -12.41 -12.5 c
-5.43 -2.96 -11.36 -4.45 -17.79 -4.45 c
-10.31 0 -18.64 3.26 -25 9.79 c
-6.36 6.53 -9.54 15.93 -9.54 28.21 c
h
2045 1070.04 m
0 -9.37 2.04 -16.38 6.12 -21.04 c
4.08 -4.66 9.22 -6.99 15.41 -6.99 c
6.14 0 11.26 2.34 15.34 7.03 c
4.08 4.68 6.13 11.82 6.13 21.42 c
0 9.05 -2.06 15.9 -6.16 20.56 c
-4.11 4.66 -9.21 6.99 -15.31 6.99 c
-6.19 0 -11.33 -2.32 -15.41 -6.96 c
-4.08 -4.64 -6.12 -11.64 -6.12 -21 c
h
f
2162.57 1060.59 12.13 -1.59 P
-1.34 -8.45 -4.75 -15.06 -10.23 -19.84 c
-5.48 -4.77 -12.22 -7.16 -20.21 -7.16 c
-10.01 0 -18.05 3.25 -24.13 9.75 c
-6.09 6.5 -9.12 15.83 -9.12 27.97 c
0 7.85 1.31 14.72 3.93 20.61 c
2.62 5.89 6.6 10.3 11.95 13.25 c
5.35 2.95 11.17 4.43 17.46 4.43 c
7.94 0 14.44 -1.98 19.49 -5.93 c
5.05 -3.95 8.29 -9.56 9.72 -16.82 c
-12 -1.82 p
-1.14 4.83 -3.16 8.47 -6.06 10.91 c
-2.9 2.44 -6.41 3.66 -10.52 3.66 c
-6.21 0 -11.26 -2.24 -15.14 -6.71 c
-3.88 -4.47 -5.82 -11.55 -5.82 -21.22 c
0 -9.82 1.87 -16.95 5.62 -21.4 c
3.75 -4.45 8.63 -6.67 14.66 -6.67 c
4.84 0 8.88 1.52 12.13 4.56 c
3.24 3.04 5.3 7.72 6.16 14.04 c
h
f
2180 1070 m
0 13.46 3.79 23.43 11.37 29.92 c
6.34 5.38 14.05 8.09 23.16 8.09 c
10.13 0 18.4 -3.29 24.83 -9.83 c
6.43 -6.55 9.64 -15.6 9.64 -27.14 c
0 -9.36 -1.43 -16.72 -4.27 -22.08 c
-2.84 -5.36 -6.98 -9.53 -12.41 -12.5 c
-5.43 -2.96 -11.36 -4.45 -17.79 -4.45 c
-10.31 0 -18.64 3.26 -25 9.79 c
-6.36 6.53 -9.54 15.93 -9.54 28.21 c
h
2193 1070.04 m
0 -9.37 2.04 -16.38 6.12 -21.04 c
4.08 -4.66 9.22 -6.99 15.41 -6.99 c
6.14 0 11.26 2.34 15.34 7.03 c
4.08 4.68 6.13 11.82 6.13 21.42 c
0 9.05 -2.06 15.9 -6.16 20.56 c
-4.11 4.66 -9.21 6.99 -15.31 6.99 c
-6.19 0 -11.33 -2.32 -15.41 -6.96 c
-4.08 -4.64 -6.12 -11.64 -6.12 -21 c
h
f
1835.13 884.01 1.75 -10.91 P
-3.4 -0.73 -6.44 -1.1 -9.12 -1.1 c
-4.38 0 -7.77 0.71 -10.19 2.12 c
-2.41 1.41 -4.11 3.27 -5.09 5.57 c
-0.98 2.3 -1.47 7.14 -1.47 14.53 c
0 41.78 -9.54 0 0 10 ^ 0 17.69 12 7.27 0 -24.96 12.09 0 
0 -10 ^ 0 -42.86 p
0 -3.54 0.21 -5.82 0.63 -6.83 c
0.43 -1.01 1.12 -1.82 2.08 -2.41 c
0.96 -0.6 2.34 -0.9 4.12 -0.9 c
1.34 0 3.11 0.34 5.29 1.01 c
h
f
1859 873 -12 0 0 72.35 11 0 0 -10.96 P
2.84 5.13 5.46 8.52 7.87 10.15 c
2.41 1.64 5.05 2.47 7.94 2.47 c
4.17 0 8.41 -1.3 12.72 -3.91 c
-4.3 -11.23 p
-3.05 1.43 -6.11 2.14 -9.16 2.14 c
-2.73 0 -5.18 -0.8 -7.35 -2.41 c
-2.18 -1.6 -3.72 -3.83 -4.65 -6.68 c
-1.39 -4.34 -2.08 -9.08 -2.08 -14.23 c
h
f
1941 881.61 m
-4.6 -3.88 -9.03 -6.62 -13.28 -8.21 c
-4.25 -1.6 -8.82 -2.4 -13.69 -2.4 c
-8.05 0 -14.23 1.97 -18.55 5.91 c
-4.32 3.95 -6.48 8.98 -6.48 15.12 c
0 3.6 0.82 6.88 2.45 9.86 c
1.63 2.98 3.77 5.36 6.42 7.16 c
2.64 1.8 5.63 3.16 8.94 4.08 c
2.44 0.64 6.12 1.27 11.04 1.87 c
10.03 1.17 17.41 2.57 22.16 4.2 c
0 1.67 0 2.73 0 3.18 c
0 4.96 -1.17 8.46 -3.51 10.49 c
-3.17 2.75 -7.87 4.13 -14.12 4.13 c
-5.83 0 -10.13 -1.01 -12.91 -3.03 c
-2.78 -2.02 -4.83 -5.59 -6.16 -10.72 c
-12.12 1.62 p
1.09 5.1 2.89 9.21 5.39 12.35 c
2.5 3.14 6.13 5.55 10.86 7.24 c
4.74 1.69 10.23 2.54 16.47 2.54 c
6.2 0 11.23 -0.74 15.1 -2.2 c
3.87 -1.46 6.72 -3.3 8.54 -5.51 c
1.82 -2.21 3.1 -5.01 3.82 -8.39 c
0.41 -2.1 0.63 -5.89 0.63 -11.36 c
0 -16.43 p
0 -11.46 0.33 -18.7 1 -21.74 c
0.49 -3.04 1.46 -5.95 2.91 -8.73 c
-12.52 0 p
-1.25 2.55 -2.04 5.54 -2.4 8.97 c
h
1940 904.92 0 4.52 P
-4.54 -1.74 -11.35 -3.22 -20.43 -4.44 c
-5.14 -0.74 -8.78 -1.57 -10.91 -2.48 c
-2.13 -0.92 -3.78 -2.27 -4.93 -4.04 c
-1.16 -1.77 -1.73 -3.73 -1.73 -5.89 c
0 -3.31 1.26 -6.07 3.79 -8.27 c
2.52 -2.21 6.21 -3.31 11.08 -3.31 c
4.82 0 9.1 1.04 12.85 3.11 c
3.75 2.07 6.5 4.91 8.27 8.51 c
1.34 2.78 2.02 6.88 2.02 12.3 c
h
f
2030 872.65 -11 0 0 9.19 P
-4.65 -7.23 -11.48 -10.84 -20.49 -10.84 c
-5.84 0 -11.2 1.6 -16.1 4.79 c
-4.89 3.2 -8.69 7.66 -11.38 13.38 c
-2.69 5.73 -4.03 12.31 -4.03 19.75 c
0 7.26 1.21 13.84 3.64 19.75 c
2.43 5.91 6.07 10.44 10.93 13.59 c
4.86 3.15 10.29 4.73 16.29 4.73 c
4.4 0 8.32 -0.9 11.75 -2.7 c
3.44 -1.8 6.23 -4.15 8.39 -7.04 c
0 35.96 12 0 h
1980 908.96 m
0 -9.37 1.95 -16.37 5.86 -21.01 c
3.91 -4.64 8.52 -6.96 13.84 -6.96 c
5.36 0 9.92 2.21 13.67 6.65 c
3.75 4.43 5.63 11.19 5.63 20.28 c
0 10.01 -1.91 17.36 -5.73 22.04 c
-3.82 4.68 -8.52 7.03 -14.11 7.03 c
-5.45 0 -10.01 -2.25 -13.67 -6.75 c
-3.66 -4.5 -5.49 -11.59 -5.49 -21.28 c
h
f
2108 872.65 -11 0 0 10.71 P
-5.68 -8.24 -13.38 -12.36 -23.11 -12.36 c
-4.3 0 -8.31 0.82 -12.04 2.47 c
-3.73 1.65 -6.49 3.72 -8.29 6.21 c
-1.81 2.5 -3.07 5.55 -3.81 9.17 c
-0.5 2.43 -0.75 6.27 -0.75 11.54 c
0 45.2 12 0 0 -40.23 p
0 -6.42 0.25 -10.75 0.77 -12.98 c
0.79 -3.23 2.47 -5.77 5.03 -7.62 c
2.56 -1.84 5.73 -2.77 9.5 -2.77 c
3.77 0 7.31 0.95 10.62 2.84 c
3.3 1.89 5.64 4.46 7.02 7.72 c
1.38 3.25 2.06 7.98 2.06 14.18 c
0 38.87 12 0 h
f
2184.99 873 -64.26 0 0 9.98 46.21 53.05 P
-5.24 -0.02 -9.87 -0.03 -13.87 -0.03 c
-29.6 0 0 10 59.34 0 0 -8.19 -39.3 -46.37 -7.59 -8.46 p
5.51 0.68 10.69 1.02 15.52 1.02 c
33.56 0 h
f
2209 959 -12 0 0 14 ^ H
2209 873 -12 0 0 72.6 ^ H
f
2287 872.65 -11 0 0 9.19 P
-4.65 -7.23 -11.48 -10.84 -20.49 -10.84 c
-5.84 0 -11.2 1.6 -16.1 4.79 c
-4.89 3.2 -8.69 7.66 -11.38 13.38 c
-2.69 5.73 -4.03 12.31 -4.03 19.75 c
0 7.26 1.21 13.84 3.64 19.75 c
2.43 5.91 6.07 10.44 10.93 13.59 c
4.86 3.15 10.29 4.73 16.29 4.73 c
4.4 0 8.32 -0.9 11.75 -2.7 c
3.44 -1.8 6.23 -4.15 8.39 -7.04 c
0 35.96 12 0 h
2237 908.96 m
0 -9.37 1.95 -16.37 5.86 -21.01 c
3.91 -4.64 8.52 -6.96 13.84 -6.96 c
5.36 0 9.92 2.21 13.67 6.65 c
3.75 4.43 5.63 11.19 5.63 20.28 c
0 10.01 -1.91 17.36 -5.73 22.04 c
-3.82 4.68 -8.52 7.03 -14.11 7.03 c
-5.45 0 -10.01 -2.25 -13.67 -6.75 c
-3.66 -4.5 -5.49 -11.59 -5.49 -21.28 c
h
f
2301 909 m
0 13.46 3.79 23.43 11.37 29.92 c
6.34 5.38 14.05 8.09 23.16 8.09 c
10.13 0 18.4 -3.29 24.83 -9.83 c
6.43 -6.55 9.64 -15.6 9.64 -27.14 c
0 -9.36 -1.43 -16.72 -4.27 -22.08 c
-2.84 -5.36 -6.98 -9.53 -12.41 -12.5 c
-5.43 -2.96 -11.36 -4.45 -17.79 -4.45 c
-10.31 0 -18.64 3.26 -25 9.79 c
-6.36 6.53 -9.54 15.93 -9.54 28.21 c
h
2314 909.04 m
0 -9.37 2.04 -16.38 6.12 -21.04 c
4.08 -4.66 9.22 -6.99 15.41 -6.99 c
6.14 0 11.26 2.34 15.34 7.03 c
4.08 4.68 6.13 11.82 6.13 21.42 c
0 9.05 -2.06 15.9 -6.16 20.56 c
-4.11 4.66 -9.21 6.99 -15.31 6.99 c
-6.19 0 -11.33 -2.32 -15.41 -6.96 c
-4.08 -4.64 -6.12 -11.64 -6.12 -21 c
h
f
1 i
1543.62 258.918 1086.38 376.535 re
S
0.2 i
1940 489.77 0 -9.12 -11 0 0 100.57 12 0 0 -35.75 P
5.23 6.36 11.91 9.54 20.03 9.54 c
4.5 0 8.75 -0.91 12.77 -2.71 c
4.02 -1.8 7.32 -4.34 9.91 -7.6 c
2.59 -3.27 4.63 -7.2 6.09 -11.81 c
1.47 -4.61 2.2 -9.54 2.2 -14.79 c
0 -12.46 -3.11 -22.09 -9.32 -28.89 c
-6.21 -6.8 -13.65 -10.2 -22.34 -10.2 c
-8.64 0 -15.42 3.59 -20.34 10.77 c
h
1940 517.55 m
0 -8.76 1.18 -15.09 3.54 -18.99 c
3.86 -6.37 9.09 -9.56 15.68 -9.56 c
5.36 0 10 2.35 13.91 7.05 c
3.91 4.7 5.87 11.71 5.87 21.02 c
0 9.54 -1.88 16.58 -5.63 21.12 c
-3.75 4.54 -8.29 6.81 -13.6 6.81 c
-5.36 0 -10 -2.35 -13.91 -7.05 c
-3.91 -4.7 -5.86 -11.5 -5.86 -20.39 c
h
f
2006 481 12.0039 100.215 re
f
2032 517 m
0 13.46 3.79 23.43 11.37 29.92 c
6.34 5.38 14.05 8.09 23.16 8.09 c
10.13 0 18.4 -3.29 24.83 -9.83 c
6.43 -6.55 9.64 -15.6 9.64 -27.14 c
0 -9.36 -1.43 -16.72 -4.27 -22.08 c
-2.84 -5.36 -6.98 -9.53 -12.41 -12.5 c
-5.43 -2.96 -11.36 -4.45 -17.79 -4.45 c
-10.31 0 -18.64 3.26 -25 9.79 c
-6.36 6.53 -9.54 15.93 -9.54 28.21 c
h
2045 517.04 m
0 -9.37 2.04 -16.38 6.12 -21.04 c
4.08 -4.66 9.22 -6.99 15.41 -6.99 c
6.14 0 11.26 2.34 15.34 7.03 c
4.08 4.68 6.13 11.82 6.13 21.42 c
0 9.05 -2.06 15.9 -6.16 20.56 c
-4.11 4.66 -9.21 6.99 -15.31 6.99 c
-6.19 0 -11.33 -2.32 -15.41 -6.96 c
-4.08 -4.64 -6.12 -11.64 -6.12 -21 c
h
f
2162.57 507.59 12.13 -1.59 P
-1.34 -8.45 -4.75 -15.06 -10.23 -19.84 c
-5.48 -4.77 -12.22 -7.16 -20.21 -7.16 c
-10.01 0 -18.05 3.25 -24.13 9.75 c
-6.09 6.5 -9.12 15.83 -9.12 27.97 c
0 7.85 1.31 14.72 3.93 20.61 c
2.62 5.89 6.6 10.3 11.95 13.25 c
5.35 2.95 11.17 4.43 17.46 4.43 c
7.94 0 14.44 -1.98 19.49 -5.93 c
5.05 -3.95 8.29 -9.56 9.72 -16.82 c
-12 -1.82 p
-1.14 4.83 -3.16 8.47 -6.06 10.91 c
-2.9 2.44 -6.41 3.66 -10.52 3.66 c
-6.21 0 -11.26 -2.24 -15.14 -6.71 c
-3.88 -4.47 -5.82 -11.55 -5.82 -21.22 c
0 -9.82 1.87 -16.95 5.62 -21.4 c
3.75 -4.45 8.63 -6.67 14.66 -6.67 c
4.84 0 8.88 1.52 12.13 4.56 c
3.24 3.04 5.3 7.72 6.16 14.04 c
h
f
2180 517 m
0 13.46 3.79 23.43 11.37 29.92 c
6.34 5.38 14.05 8.09 23.16 8.09 c
10.13 0 18.4 -3.29 24.83 -9.83 c
6.43 -6.55 9.64 -15.6 9.64 -27.14 c
0 -9.36 -1.43 -16.72 -4.27 -22.08 c
-2.84 -5.36 -6.98 -9.53 -12.41 -12.5 c
-5.43 -2.96 -11.36 -4.45 -17.79 -4.45 c
-10.31 0 -18.64 3.26 -25 9.79 c
-6.36 6.53 -9.54 15.93 -9.54 28.21 c
h
2193 517.04 m
0 -9.37 2.04 -16.38 6.12 -21.04 c
4.08 -4.66 9.22 -6.99 15.41 -6.99 c
6.14 0 11.26 2.34 15.34 7.03 c
4.08 4.68 6.13 11.82 6.13 21.42 c
0 9.05 -2.06 15.9 -6.16 20.56 c
-4.11 4.66 -9.21 6.99 -15.31 6.99 c
-6.19 0 -11.33 -2.32 -15.41 -6.96 c
-4.08 -4.64 -6.12 -11.64 -6.12 -21 c
h
f
1835.13 332.01 1.75 -10.91 P
-3.4 -0.73 -6.44 -1.1 -9.12 -1.1 c
-4.38 0 -7.77 0.71 -10.19 2.12 c
-2.41 1.41 -4.11 3.27 -5.09 5.57 c
-0.98 2.3 -1.47 7.14 -1.47 14.53 c
0 41.78 -9.54 0 0 10 ^ 0 17.69 12 7.27 0 -24.96 12.09 0 
0 -10 ^ 0 -42.86 p
0 -3.54 0.21 -5.82 0.63 -6.83 c
0.43 -1.01 1.12 -1.82 2.08 -2.41 c
0.96 -0.6 2.34 -0.9 4.12 -0.9 c
1.34 0 3.11 0.34 5.29 1.01 c
h
f
1859 321 -12 0 0 72.35 11 0 0 -10.96 P
2.84 5.13 5.46 8.52 7.87 10.15 c
2.41 1.64 5.05 2.47 7.94 2.47 c
4.17 0 8.41 -1.3 12.72 -3.91 c
-4.3 -11.23 p
-3.05 1.43 -6.11 2.14 -9.16 2.14 c
-2.73 0 -5.18 -0.8 -7.35 -2.41 c
-2.18 -1.6 -3.72 -3.83 -4.65 -6.68 c
-1.39 -4.34 -2.08 -9.08 -2.08 -14.23 c
h
f
1941 329.61 m
-4.6 -3.88 -9.03 -6.62 -13.28 -8.21 c
-4.25 -1.6 -8.82 -2.4 -13.69 -2.4 c
-8.05 0 -14.23 1.97 -18.55 5.91 c
-4.32 3.95 -6.48 8.98 -6.48 15.12 c
0 3.6 0.82 6.88 2.45 9.86 c
1.63 2.98 3.77 5.36 6.42 7.16 c
2.64 1.8 5.63 3.16 8.94 4.08 c
2.44 0.64 6.12 1.27 11.04 1.87 c
10.03 1.17 17.41 2.57 22.16 4.2 c
0 1.67 0 2.73 0 3.18 c
0 4.96 -1.17 8.46 -3.51 10.49 c
-3.17 2.75 -7.87 4.13 -14.12 4.13 c
-5.83 0 -10.13 -1.01 -12.91 -3.03 c
-2.78 -2.02 -4.83 -5.59 -6.16 -10.72 c
-12.12 1.62 p
1.09 5.1 2.89 9.21 5.39 12.35 c
2.5 3.14 6.13 5.55 10.86 7.24 c
4.74 1.69 10.23 2.54 16.47 2.54 c
6.2 0 11.23 -0.74 15.1 -2.2 c
3.87 -1.46 6.72 -3.3 8.54 -5.51 c
1.82 -2.21 3.1 -5.01 3.82 -8.39 c
0.41 -2.1 0.63 -5.89 0.63 -11.36 c
0 -16.43 p
0 -11.46 0.33 -18.7 1 -21.74 c
0.49 -3.04 1.46 -5.95 2.91 -8.73 c
-12.52 0 p
-1.25 2.55 -2.04 5.54 -2.4 8.97 c
h
1940 352.92 0 4.52 P
-4.54 -1.74 -11.35 -3.22 -20.43 -4.44 c
-5.14 -0.74 -8.78 -1.57 -10.91 -2.48 c
-2.13 -0.92 -3.78 -2.27 -4.93 -4.04 c
-1.16 -1.77 -1.73 -3.73 -1.73 -5.89 c
0 -3.31 1.26 -6.07 3.79 -8.27 c
2.52 -2.21 6.21 -3.31 11.08 -3.31 c
4.82 0 9.1 1.04 12.85 3.11 c
3.75 2.07 6.5 4.91 8.27 8.51 c
1.34 2.78 2.02 6.88 2.02 12.3 c
h
f
2030 320.65 -11 0 0 9.19 P
-4.65 -7.23 -11.48 -10.84 -20.49 -10.84 c
-5.84 0 -11.2 1.6 -16.1 4.79 c
-4.89 3.2 -8.69 7.66 -11.38 13.38 c
-2.69 5.73 -4.03 12.31 -4.03 19.75 c
0 7.26 1.21 13.84 3.64 19.75 c
2.43 5.91 6.07 10.44 10.93 13.59 c
4.86 3.15 10.29 4.73 16.29 4.73 c
4.4 0 8.32 -0.9 11.75 -2.7 c
3.44 -1.8 6.23 -4.15 8.39 -7.04 c
0 35.96 12 0 h
1980 356.96 m
0 -9.37 1.95 -16.37 5.86 -21.01 c
3.91 -4.64 8.52 -6.96 13.84 -6.96 c
5.36 0 9.92 2.21 13.67 6.65 c
3.75 4.43 5.63 11.19 5.63 20.28 c
0 10.01 -1.91 17.36 -5.73 22.04 c
-3.82 4.68 -8.52 7.03 -14.11 7.03 c
-5.45 0 -10.01 -2.25 -13.67 -6.75 c
-3.66 -4.5 -5.49 -11.59 -5.49 -21.28 c
h
f
2108 320.65 -11 0 0 10.71 P
-5.68 -8.24 -13.38 -12.36 -23.11 -12.36 c
-4.3 0 -8.31 0.82 -12.04 2.47 c
-3.73 1.65 -6.49 3.72 -8.29 6.21 c
-1.81 2.5 -3.07 5.55 -3.81 9.17 c
-0.5 2.43 -0.75 6.27 -0.75 11.54 c
0 45.2 12 0 0 -40.23 p
0 -6.42 0.25 -10.75 0.77 -12.98 c
0.79 -3.23 2.47 -5.77 5.03 -7.62 c
2.56 -1.84 5.73 -2.77 9.5 -2.77 c
3.77 0 7.31 0.95 10.62 2.84 c
3.3 1.89 5.64 4.46 7.02 7.72 c
1.38 3.25 2.06 7.98 2.06 14.18 c
0 38.87 12 0 h
f
2184.99 321 -64.26 0 0 9.98 46.21 53.05 P
-5.24 -0.02 -9.87 -0.03 -13.87 -0.03 c
-29.6 0 0 10 59.34 0 0 -8.19 -39.3 -46.37 -7.59 -8.46 p
5.51 0.68 10.69 1.02 15.52 1.02 c
33.56 0 h
f
2209 407 -12 0 0 14 ^ H
2209 321 -12 0 0 72.6 ^ H
f
2287 320.65 -11 0 0 9.19 P
-4.65 -7.23 -11.48 -10.84 -20.49 -10.84 c
-5.84 0 -11.2 1.6 -16.1 4.79 c
-4.89 3.2 -8.69 7.66 -11.38 13.38 c
-2.69 5.73 -4.03 12.31 -4.03 19.75 c
0 7.26 1.21 13.84 3.64 19.75 c
2.43 5.91 6.07 10.44 10.93 13.59 c
4.86 3.15 10.29 4.73 16.29 4.73 c
4.4 0 8.32 -0.9 11.75 -2.7 c
3.44 -1.8 6.23 -4.15 8.39 -7.04 c
0 35.96 12 0 h
2237 356.96 m
0 -9.37 1.95 -16.37 5.86 -21.01 c
3.91 -4.64 8.52 -6.96 13.84 -6.96 c
5.36 0 9.92 2.21 13.67 6.65 c
3.75 4.43 5.63 11.19 5.63 20.28 c
0 10.01 -1.91 17.36 -5.73 22.04 c
-3.82 4.68 -8.52 7.03 -14.11 7.03 c
-5.45 0 -10.01 -2.25 -13.67 -6.75 c
-3.66 -4.5 -5.49 -11.59 -5.49 -21.28 c
h
f
2301 357 m
0 13.46 3.79 23.43 11.37 29.92 c
6.34 5.38 14.05 8.09 23.16 8.09 c
10.13 0 18.4 -3.29 24.83 -9.83 c
6.43 -6.55 9.64 -15.6 9.64 -27.14 c
0 -9.36 -1.43 -16.72 -4.27 -22.08 c
-2.84 -5.36 -6.98 -9.53 -12.41 -12.5 c
-5.43 -2.96 -11.36 -4.45 -17.79 -4.45 c
-10.31 0 -18.64 3.26 -25 9.79 c
-6.36 6.53 -9.54 15.93 -9.54 28.21 c
h
2314 357.04 m
0 -9.37 2.04 -16.38 6.12 -21.04 c
4.08 -4.66 9.22 -6.99 15.41 -6.99 c
6.14 0 11.26 2.34 15.34 7.03 c
4.08 4.68 6.13 11.82 6.13 21.42 c
0 9.05 -2.06 15.9 -6.16 20.56 c
-4.11 4.66 -9.21 6.99 -15.31 6.99 c
-6.19 0 -11.33 -2.32 -15.41 -6.96 c
-4.08 -4.64 -6.12 -11.64 -6.12 -21 c
h
f
15 w
1 i
1237.88 891.46 218.98 0 S
1456.86 866.68 68.07 24.78 -68.07 24.78 f*
11.4737 M
0 j
1456.86 866.68 68.07 24.78 -68.07 24.78 H
S
14.3356 M
1 j
1546.8 1107.24 -218.97 0 S
1327.83 1132.02 -68.07 -24.78 68.07 -24.77 f*
11.4737 M
0 j
1327.83 1132.02 -68.07 -24.78 68.07 -24.77 H
S
14.3356 M
1 j
1037.99 800.1 434.87 -301.62 S
1458.73 478.12 70.05 -18.44 -41.82 59.15 f*
11.4737 M
0 j
1458.73 478.12 70.05 -18.44 -41.82 59.15 H
S
14.3356 M
1 j
1532.82 316.24 -599.79 420.76 S
947.26 757.28 -69.96 18.81 41.5 -59.37 f*
11.4737 M
0 j
947.26 757.28 -69.96 18.81 41.5 -59.37 H
S
14.3356 M
1 j
859.35 1185.04 599.79 420.75 S
1473.36 1585.51 41.5 59.38 -69.96 -18.81 f*
11.4737 M
0 j
1473.36 1585.51 41.5 59.38 -69.96 -18.81 H
S
14.3356 M
1 j
1532.82 1537.95 -434.87 -301.62 S
1083.83 1256.69 -41.81 -59.16 70.05 18.44 f*
11.4737 M
0 j
1083.83 1256.69 -41.81 -59.16 70.05 18.44 H
S
7.5 w
14.3356 M
1 j
4436.91 1350.75 1086.38 376.535 re
S
3048.03 799.867 1086.38 376.773 re
S
0.2 i
3130.46 1024.98 11.96 -1.74 P
0.5 -3.61 1.89 -6.25 4.17 -7.9 c
3.05 -2.23 7.23 -3.34 12.51 -3.34 c
5.7 0 10.1 1.13 13.2 3.38 c
3.1 2.26 5.2 5.41 6.29 9.48 c
0.6 2.32 0.89 7.02 0.89 14.11 c
0 0.5 0 1.01 0 1.54 c
-5.38 -6.34 -12.08 -9.5 -20.11 -9.5 c
-9.98 0 -17.71 3.59 -23.18 10.76 c
-5.47 7.18 -8.2 15.79 -8.2 25.82 c
0 6.91 1.26 13.27 3.79 19.11 c
2.52 5.84 6.18 10.34 10.98 13.52 c
4.8 3.18 10.43 4.79 16.9 4.79 c
8.63 0 15.74 -3.45 21.34 -10.33 c
0 8.69 11 0 0 -62.33 p
0 -11.22 -1.15 -19.18 -3.45 -23.86 c
-2.3 -4.68 -5.95 -8.38 -10.94 -11.1 c
-4.99 -2.71 -11.13 -4.07 -18.43 -4.07 c
-8.66 0 -15.66 1.91 -20.99 5.73 c
-5.16 3.7 -7.73 9.2 -7.73 16.5 c
0 0.25 0 0.5 0.01 0.76 c
h
3141 1068.47 m
0 -9.55 1.9 -16.51 5.7 -20.89 c
3.8 -4.39 8.55 -6.58 14.27 -6.58 c
5.67 0 10.43 2.18 14.27 6.54 c
3.84 4.36 5.77 11.2 5.77 20.52 c
0 8.91 -1.98 15.62 -5.93 20.14 c
-3.96 4.52 -8.73 6.8 -14.31 6.8 c
-5.49 0 -10.15 -2.24 -14 -6.7 c
-3.84 -4.45 -5.76 -11.06 -5.76 -19.83 c
h
f
3260.93 1054.38 12.71 -1.6 P
-2.01 -7.54 -5.72 -13.38 -11.14 -17.54 c
-5.43 -4.16 -12.35 -6.24 -20.78 -6.24 c
-10.62 0 -19.04 3.28 -25.26 9.84 c
-6.22 6.56 -9.33 15.77 -9.33 27.61 c
0 12.25 3.14 21.77 9.43 28.55 c
6.29 6.66 14.45 10 24.47 10 c
9.71 0 17.64 -3.3 23.79 -9.89 c
6.15 -6.6 9.23 -15.87 9.23 -27.83 c
0 -0.73 -0.02 -1.82 -0.07 -3.27 c
-54.14 0 p
0.45 -8.08 2.71 -14.27 6.77 -18.56 c
4.05 -4.29 9.11 -6.44 15.18 -6.44 c
4.51 0 8.36 1.22 11.55 3.67 c
3.19 2.45 5.71 6.35 7.59 11.71 c
h
3220.53 1074 40.54 0 P
-0.55 6.15 -2.1 10.76 -4.65 13.84 c
-3.92 4.77 -9 7.16 -15.24 7.16 c
-5.65 0 -10.41 -1.91 -14.25 -5.71 c
-3.85 -3.81 -5.98 -8.91 -6.39 -15.29 c
h
f
3301 1031 -12 0 0 72.35 11 0 0 -10.96 P
2.84 5.13 5.46 8.52 7.87 10.15 c
2.41 1.64 5.05 2.47 7.94 2.47 c
4.17 0 8.41 -1.3 12.72 -3.91 c
-4.3 -11.23 p
-3.05 1.43 -6.11 2.14 -9.16 2.14 c
-2.73 0 -5.18 -0.8 -7.35 -2.41 c
-2.18 -1.6 -3.72 -3.83 -4.65 -6.68 c
-1.39 -4.34 -2.08 -9.08 -2.08 -14.23 c
h
f
3385.93 1054.38 12.71 -1.6 P
-2.01 -7.54 -5.72 -13.38 -11.14 -17.54 c
-5.43 -4.16 -12.35 -6.24 -20.78 -6.24 c
-10.62 0 -19.04 3.28 -25.26 9.84 c
-6.22 6.56 -9.33 15.77 -9.33 27.61 c
0 12.25 3.14 21.77 9.43 28.55 c
6.29 6.66 14.45 10 24.47 10 c
9.71 0 17.64 -3.3 23.79 -9.89 c
6.15 -6.6 9.23 -15.87 9.23 -27.83 c
0 -0.73 -0.02 -1.82 -0.07 -3.27 c
-54.14 0 p
0.45 -8.08 2.71 -14.27 6.77 -18.56 c
4.05 -4.29 9.11 -6.44 15.18 -6.44 c
4.51 0 8.36 1.22 11.55 3.67 c
3.19 2.45 5.71 6.35 7.59 11.71 c
h
3345.53 1074 40.54 0 P
-0.55 6.15 -2.1 10.76 -4.65 13.84 c
-3.92 4.77 -9 7.16 -15.24 7.16 c
-5.65 0 -10.41 -1.91 -14.25 -5.71 c
-3.85 -3.81 -5.98 -8.91 -6.39 -15.29 c
h
f
3426 1031 -12 0 0 72.35 11 0 0 -10.29 P
5.34 7.95 13.05 11.94 23.14 11.94 c
4.38 0 8.41 -0.8 12.08 -2.37 c
3.68 -1.57 6.43 -3.62 8.25 -6.16 c
1.82 -2.54 3.11 -5.56 3.84 -9.06 c
0.45 -2.27 0.7 -6.24 0.7 -11.92 c
0 -44.48 -12 0 0 43.75 p
0 4.96 -0.49 8.68 -1.46 11.14 c
-0.98 2.46 -2.7 4.43 -5.18 5.89 c
-2.48 1.46 -5.39 2.21 -8.73 2.21 c
-5.33 0 -9.94 -1.66 -13.81 -4.96 c
-3.87 -3.3 -5.81 -9.55 -5.81 -18.76 c
h
f
3538.57 1057.59 12.13 -1.59 P
-1.34 -8.45 -4.75 -15.06 -10.23 -19.84 c
-5.48 -4.77 -12.22 -7.16 -20.21 -7.16 c
-10.01 0 -18.05 3.25 -24.13 9.75 c
-6.09 6.5 -9.12 15.83 -9.12 27.97 c
0 7.85 1.31 14.72 3.93 20.61 c
2.62 5.89 6.6 10.3 11.95 13.25 c
5.35 2.95 11.17 4.43 17.46 4.43 c
7.94 0 14.44 -1.98 19.49 -5.93 c
5.05 -3.95 8.29 -9.56 9.72 -16.82 c
-12 -1.82 p
-1.14 4.83 -3.16 8.47 -6.06 10.91 c
-2.9 2.44 -6.41 3.66 -10.52 3.66 c
-6.21 0 -11.26 -2.24 -15.14 -6.71 c
-3.88 -4.47 -5.82 -11.55 -5.82 -21.22 c
0 -9.82 1.87 -16.95 5.62 -21.4 c
3.75 -4.45 8.63 -6.67 14.66 -6.67 c
4.84 0 8.88 1.52 12.13 4.56 c
3.24 3.04 5.3 7.72 6.16 14.04 c
h
f
3573 1117 -12 0 0 14 ^ H
3573 1031 -12 0 0 72.6 ^ H
f
3641 1039.61 m
-4.6 -3.88 -9.03 -6.62 -13.28 -8.21 c
-4.25 -1.6 -8.82 -2.4 -13.69 -2.4 c
-8.05 0 -14.23 1.97 -18.55 5.91 c
-4.32 3.95 -6.48 8.98 -6.48 15.12 c
0 3.6 0.82 6.88 2.45 9.86 c
1.63 2.98 3.77 5.36 6.42 7.16 c
2.64 1.8 5.63 3.16 8.94 4.08 c
2.44 0.64 6.12 1.27 11.04 1.87 c
10.03 1.17 17.41 2.57 22.16 4.2 c
0 1.67 0 2.73 0 3.18 c
0 4.96 -1.17 8.46 -3.51 10.49 c
-3.17 2.75 -7.87 4.13 -14.12 4.13 c
-5.83 0 -10.13 -1.01 -12.91 -3.03 c
-2.78 -2.02 -4.83 -5.59 -6.16 -10.72 c
-12.12 1.62 p
1.09 5.1 2.89 9.21 5.39 12.35 c
2.5 3.14 6.13 5.55 10.86 7.24 c
4.74 1.69 10.23 2.54 16.47 2.54 c
6.2 0 11.23 -0.74 15.1 -2.2 c
3.87 -1.46 6.72 -3.3 8.54 -5.51 c
1.82 -2.21 3.1 -5.01 3.82 -8.39 c
0.41 -2.1 0.63 -5.89 0.63 -11.36 c
0 -16.43 p
0 -11.46 0.33 -18.7 1 -21.74 c
0.49 -3.04 1.46 -5.95 2.91 -8.73 c
-12.52 0 p
-1.25 2.55 -2.04 5.54 -2.4 8.97 c
h
3640 1062.92 0 4.52 P
-4.54 -1.74 -11.35 -3.22 -20.43 -4.44 c
-5.14 -0.74 -8.78 -1.57 -10.91 -2.48 c
-2.13 -0.92 -3.78 -2.27 -4.93 -4.04 c
-1.16 -1.77 -1.73 -3.73 -1.73 -5.89 c
0 -3.31 1.26 -6.07 3.79 -8.27 c
2.52 -2.21 6.21 -3.31 11.08 -3.31 c
4.82 0 9.1 1.04 12.85 3.11 c
3.75 2.07 6.5 4.91 8.27 8.51 c
1.34 2.78 2.02 6.88 2.02 12.3 c
h
f
3729 1030.65 -11 0 0 9.19 P
-4.65 -7.23 -11.48 -10.84 -20.49 -10.84 c
-5.84 0 -11.2 1.6 -16.1 4.79 c
-4.89 3.2 -8.69 7.66 -11.38 13.38 c
-2.69 5.73 -4.03 12.31 -4.03 19.75 c
0 7.26 1.21 13.84 3.64 19.75 c
2.43 5.91 6.07 10.44 10.93 13.59 c
4.86 3.15 10.29 4.73 16.29 4.73 c
4.4 0 8.32 -0.9 11.75 -2.7 c
3.44 -1.8 6.23 -4.15 8.39 -7.04 c
0 35.96 12 0 h
3679 1066.96 m
0 -9.37 1.95 -16.37 5.86 -21.01 c
3.91 -4.64 8.52 -6.96 13.84 -6.96 c
5.36 0 9.92 2.21 13.67 6.65 c
3.75 4.43 5.63 11.19 5.63 20.28 c
0 10.01 -1.91 17.36 -5.73 22.04 c
-3.82 4.68 -8.52 7.03 -14.11 7.03 c
-5.45 0 -10.01 -2.25 -13.67 -6.75 c
-3.66 -4.5 -5.49 -11.59 -5.49 -21.28 c
h
f
3743 1067 m
0 13.46 3.79 23.43 11.37 29.92 c
6.34 5.38 14.05 8.09 23.16 8.09 c
10.13 0 18.4 -3.29 24.83 -9.83 c
6.43 -6.55 9.64 -15.6 9.64 -27.14 c
0 -9.36 -1.43 -16.72 -4.27 -22.08 c
-2.84 -5.36 -6.98 -9.53 -12.41 -12.5 c
-5.43 -2.96 -11.36 -4.45 -17.79 -4.45 c
-10.31 0 -18.64 3.26 -25 9.79 c
-6.36 6.53 -9.54 15.93 -9.54 28.21 c
h
3756 1067.04 m
0 -9.37 2.04 -16.38 6.12 -21.04 c
4.08 -4.66 9.22 -6.99 15.41 -6.99 c
6.14 0 11.26 2.34 15.34 7.03 c
4.08 4.68 6.13 11.82 6.13 21.42 c
0 9.05 -2.06 15.9 -6.16 20.56 c
-4.11 4.66 -9.21 6.99 -15.31 6.99 c
-6.19 0 -11.33 -2.32 -15.41 -6.96 c
-4.08 -4.64 -6.12 -11.64 -6.12 -21 c
h
f
3838 1031 -12 0 0 72.35 11 0 0 -10.96 P
2.84 5.13 5.46 8.52 7.87 10.15 c
2.41 1.64 5.05 2.47 7.94 2.47 c
4.17 0 8.41 -1.3 12.72 -3.91 c
-4.3 -11.23 p
-3.05 1.43 -6.11 2.14 -9.16 2.14 c
-2.73 0 -5.18 -0.8 -7.35 -2.41 c
-2.18 -1.6 -3.72 -3.83 -4.65 -6.68 c
-1.39 -4.34 -2.08 -9.08 -2.08 -14.23 c
h
f
3970 1030.65 -11 0 0 9.19 P
-4.65 -7.23 -11.48 -10.84 -20.49 -10.84 c
-5.84 0 -11.2 1.6 -16.1 4.79 c
-4.89 3.2 -8.69 7.66 -11.38 13.38 c
-2.69 5.73 -4.03 12.31 -4.03 19.75 c
0 7.26 1.21 13.84 3.64 19.75 c
2.43 5.91 6.07 10.44 10.93 13.59 c
4.86 3.15 10.29 4.73 16.29 4.73 c
4.4 0 8.32 -0.9 11.75 -2.7 c
3.44 -1.8 6.23 -4.15 8.39 -7.04 c
0 35.96 12 0 h
3920 1066.96 m
0 -9.37 1.95 -16.37 5.86 -21.01 c
3.91 -4.64 8.52 -6.96 13.84 -6.96 c
5.36 0 9.92 2.21 13.67 6.65 c
3.75 4.43 5.63 11.19 5.63 20.28 c
0 10.01 -1.91 17.36 -5.73 22.04 c
-3.82 4.68 -8.52 7.03 -14.11 7.03 c
-5.45 0 -10.01 -2.25 -13.67 -6.75 c
-3.66 -4.5 -5.49 -11.59 -5.49 -21.28 c
h
f
4037 1039.61 m
-4.6 -3.88 -9.03 -6.62 -13.28 -8.21 c
-4.25 -1.6 -8.82 -2.4 -13.69 -2.4 c
-8.05 0 -14.23 1.97 -18.55 5.91 c
-4.32 3.95 -6.48 8.98 -6.48 15.12 c
0 3.6 0.82 6.88 2.45 9.86 c
1.63 2.98 3.77 5.36 6.42 7.16 c
2.64 1.8 5.63 3.16 8.94 4.08 c
2.44 0.64 6.12 1.27 11.04 1.87 c
10.03 1.17 17.41 2.57 22.16 4.2 c
0 1.67 0 2.73 0 3.18 c
0 4.96 -1.17 8.46 -3.51 10.49 c
-3.17 2.75 -7.87 4.13 -14.12 4.13 c
-5.83 0 -10.13 -1.01 -12.91 -3.03 c
-2.78 -2.02 -4.83 -5.59 -6.16 -10.72 c
-12.12 1.62 p
1.09 5.1 2.89 9.21 5.39 12.35 c
2.5 3.14 6.13 5.55 10.86 7.24 c
4.74 1.69 10.23 2.54 16.47 2.54 c
6.2 0 11.23 -0.74 15.1 -2.2 c
3.87 -1.46 6.72 -3.3 8.54 -5.51 c
1.82 -2.21 3.1 -5.01 3.82 -8.39 c
0.41 -2.1 0.63 -5.89 0.63 -11.36 c
0 -16.43 p
0 -11.46 0.33 -18.7 1 -21.74 c
0.49 -3.04 1.46 -5.95 2.91 -8.73 c
-12.52 0 p
-1.25 2.55 -2.04 5.54 -2.4 8.97 c
h
4036 1062.92 0 4.52 P
-4.54 -1.74 -11.35 -3.22 -20.43 -4.44 c
-5.14 -0.74 -8.78 -1.57 -10.91 -2.48 c
-2.13 -0.92 -3.78 -2.27 -4.93 -4.04 c
-1.16 -1.77 -1.73 -3.73 -1.73 -5.89 c
0 -3.31 1.26 -6.07 3.79 -8.27 c
2.52 -2.21 6.21 -3.31 11.08 -3.31 c
4.82 0 9.1 1.04 12.85 3.11 c
3.75 2.07 6.5 4.91 8.27 8.51 c
1.34 2.78 2.02 6.88 2.02 12.3 c
h
f
3346.93 893.38 12.71 -1.6 P
-2.01 -7.54 -5.72 -13.38 -11.14 -17.54 c
-5.43 -4.16 -12.35 -6.24 -20.78 -6.24 c
-10.62 0 -19.04 3.28 -25.26 9.84 c
-6.22 6.56 -9.33 15.77 -9.33 27.61 c
0 12.25 3.14 21.77 9.43 28.55 c
6.29 6.66 14.45 10 24.47 10 c
9.71 0 17.64 -3.3 23.79 -9.89 c
6.15 -6.6 9.23 -15.87 9.23 -27.83 c
0 -0.73 -0.02 -1.82 -0.07 -3.27 c
-54.14 0 p
0.45 -8.08 2.71 -14.27 6.77 -18.56 c
4.05 -4.29 9.11 -6.44 15.18 -6.44 c
4.51 0 8.36 1.22 11.55 3.67 c
3.19 2.45 5.71 6.35 7.59 11.71 c
h
3306.53 913 40.54 0 P
-0.55 6.15 -2.1 10.76 -4.65 13.84 c
-3.92 4.77 -9 7.16 -15.24 7.16 c
-5.65 0 -10.41 -1.91 -14.25 -5.71 c
-3.85 -3.81 -5.98 -8.91 -6.39 -15.29 c
h
f
3387 870 -12 0 0 72.35 11 0 0 -10.15 P
2.27 3.54 5.28 6.39 9.05 8.55 c
3.77 2.16 8.05 3.25 12.86 3.25 c
5.35 0 9.74 -1.1 13.17 -3.29 c
3.43 -2.19 5.84 -5.25 7.25 -9.19 c
5.71 8.32 13.16 12.48 22.32 12.48 c
7.17 0 12.68 -2 16.54 -5.98 c
3.86 -3.98 5.81 -10.09 5.81 -18.36 c
0 -49.66 -12 0 0 45.31 p
0 4.88 -0.39 8.39 -1.17 10.53 c
-0.78 2.14 -2.2 3.87 -4.24 5.18 c
-2.05 1.31 -4.45 1.98 -7.21 1.98 c
-4.99 0 -9.13 -1.7 -12.43 -5.06 c
-3.3 -3.36 -4.95 -8.75 -4.95 -16.15 c
0 -41.79 -12 0 0 46.73 p
0 5.42 -1.05 9.48 -3.13 12.19 c
-2.08 2.71 -5.48 4.08 -10.21 4.08 c
-3.59 0 -6.92 -0.92 -9.97 -2.73 c
-3.05 -1.8 -5.26 -4.45 -6.63 -7.92 c
-1.37 -3.48 -2.05 -8.49 -2.05 -15.04 c
h
f
3550 869.65 -11 0 0 10.71 P
-5.68 -8.24 -13.38 -12.36 -23.11 -12.36 c
-4.3 0 -8.31 0.82 -12.04 2.47 c
-3.73 1.65 -6.49 3.72 -8.29 6.21 c
-1.81 2.5 -3.07 5.55 -3.81 9.17 c
-0.5 2.43 -0.75 6.27 -0.75 11.54 c
0 45.2 12 0 0 -40.23 p
0 -6.42 0.25 -10.75 0.77 -12.98 c
0.79 -3.23 2.47 -5.77 5.03 -7.62 c
2.56 -1.84 5.73 -2.77 9.5 -2.77 c
3.77 0 7.31 0.95 10.62 2.84 c
3.3 1.89 5.64 4.46 7.02 7.72 c
1.38 3.25 2.06 7.98 2.06 14.18 c
0 38.87 12 0 h
f
3569 870 12.0039 100.215 re
f
3648 878.61 m
-4.6 -3.88 -9.03 -6.62 -13.28 -8.21 c
-4.25 -1.6 -8.82 -2.4 -13.69 -2.4 c
-8.05 0 -14.23 1.97 -18.55 5.91 c
-4.32 3.95 -6.48 8.98 -6.48 15.12 c
0 3.6 0.82 6.88 2.45 9.86 c
1.63 2.98 3.77 5.36 6.42 7.16 c
2.64 1.8 5.63 3.16 8.94 4.08 c
2.44 0.64 6.12 1.27 11.04 1.87 c
10.03 1.17 17.41 2.57 22.16 4.2 c
0 1.67 0 2.73 0 3.18 c
0 4.96 -1.17 8.46 -3.51 10.49 c
-3.17 2.75 -7.87 4.13 -14.12 4.13 c
-5.83 0 -10.13 -1.01 -12.91 -3.03 c
-2.78 -2.02 -4.83 -5.59 -6.16 -10.72 c
-12.12 1.62 p
1.09 5.1 2.89 9.21 5.39 12.35 c
2.5 3.14 6.13 5.55 10.86 7.24 c
4.74 1.69 10.23 2.54 16.47 2.54 c
6.2 0 11.23 -0.74 15.1 -2.2 c
3.87 -1.46 6.72 -3.3 8.54 -5.51 c
1.82 -2.21 3.1 -5.01 3.82 -8.39 c
0.41 -2.1 0.63 -5.89 0.63 -11.36 c
0 -16.43 p
0 -11.46 0.33 -18.7 1 -21.74 c
0.49 -3.04 1.46 -5.95 2.91 -8.73 c
-12.52 0 p
-1.25 2.55 -2.04 5.54 -2.4 8.97 c
h
3647 901.92 0 4.52 P
-4.54 -1.74 -11.35 -3.22 -20.43 -4.44 c
-5.14 -0.74 -8.78 -1.57 -10.91 -2.48 c
-2.13 -0.92 -3.78 -2.27 -4.93 -4.04 c
-1.16 -1.77 -1.73 -3.73 -1.73 -5.89 c
0 -3.31 1.26 -6.07 3.79 -8.27 c
2.52 -2.21 6.21 -3.31 11.08 -3.31 c
4.82 0 9.1 1.04 12.85 3.11 c
3.75 2.07 6.5 4.91 8.27 8.51 c
1.34 2.78 2.02 6.88 2.02 12.3 c
h
f
3725.57 896.54 12.13 -1.57 P
-1.34 -8.32 -4.75 -14.84 -10.23 -19.55 c
-5.48 -4.71 -12.22 -7.06 -20.21 -7.06 c
-10.01 0 -18.05 3.24 -24.13 9.71 c
-6.09 6.47 -9.12 15.75 -9.12 27.84 c
0 7.81 1.31 14.65 3.93 20.51 c
2.62 5.86 6.6 10.25 11.95 13.18 c
5.35 2.93 11.17 4.4 17.46 4.4 c
7.94 0 14.44 -1.98 19.49 -5.93 c
5.05 -3.95 8.29 -9.56 9.72 -16.82 c
-12 -1.82 p
-1.14 4.83 -3.16 8.47 -6.06 10.91 c
-2.9 2.44 -6.41 3.66 -10.52 3.66 c
-6.21 0 -11.26 -2.23 -15.14 -6.66 c
-3.88 -4.43 -5.82 -11.45 -5.82 -21.05 c
0 -9.73 1.87 -16.81 5.62 -21.22 c
3.75 -4.41 8.63 -6.62 14.66 -6.62 c
4.84 0 8.88 1.48 12.13 4.43 c
3.24 2.96 5.3 7.5 6.16 13.64 c
h
3697.1 861.32 3.51 11.62 9.06 0 -2.23 -7.22 P
3.83 -0.45 6.71 -1.63 8.65 -3.54 c
1.94 -1.91 2.91 -4.04 2.91 -6.37 c
0 -3.37 -1.63 -6.35 -4.88 -8.93 c
-3.25 -2.59 -8.16 -3.87 -14.71 -3.87 c
-3.71 0 -6.96 0.26 -9.76 0.78 c
0.76 7.63 p
2.95 0.39 5.11 0.59 6.49 0.59 c
4.32 0 7.36 0.57 9.11 1.7 c
1.33 0.88 2 1.95 2 3.22 c
0 0.79 -0.27 1.49 -0.8 2.1 c
-0.53 0.61 -1.52 1.14 -2.95 1.58 c
-1.44 0.44 -3.82 0.68 -7.15 0.72 c
h
f
3796 878.61 m
-4.6 -3.88 -9.03 -6.62 -13.28 -8.21 c
-4.25 -1.6 -8.82 -2.4 -13.69 -2.4 c
-8.05 0 -14.23 1.97 -18.55 5.91 c
-4.32 3.95 -6.48 8.98 -6.48 15.12 c
0 3.6 0.82 6.88 2.45 9.86 c
1.63 2.98 3.77 5.36 6.42 7.16 c
2.64 1.8 5.63 3.16 8.94 4.08 c
2.44 0.64 6.12 1.27 11.04 1.87 c
10.03 1.17 17.41 2.57 22.16 4.2 c
0 1.67 0 2.73 0 3.18 c
0 4.96 -1.17 8.46 -3.51 10.49 c
-3.17 2.75 -7.87 4.13 -14.12 4.13 c
-5.83 0 -10.13 -1.01 -12.91 -3.03 c
-2.78 -2.02 -4.83 -5.59 -6.16 -10.72 c
-12.12 1.62 p
1.09 5.1 2.89 9.21 5.39 12.35 c
2.5 3.14 6.13 5.55 10.86 7.24 c
4.74 1.69 10.23 2.54 16.47 2.54 c
6.2 0 11.23 -0.74 15.1 -2.2 c
3.87 -1.46 6.72 -3.3 8.54 -5.51 c
1.82 -2.21 3.1 -5.01 3.82 -8.39 c
0.41 -2.1 0.63 -5.89 0.63 -11.36 c
0 -16.43 p
0 -11.46 0.33 -18.7 1 -21.74 c
0.49 -3.04 1.46 -5.95 2.91 -8.73 c
-12.52 0 p
-1.25 2.55 -2.04 5.54 -2.4 8.97 c
h
3795 901.92 0 4.52 P
-4.54 -1.74 -11.35 -3.22 -20.43 -4.44 c
-5.14 -0.74 -8.78 -1.57 -10.91 -2.48 c
-2.13 -0.92 -3.78 -2.27 -4.93 -4.04 c
-1.16 -1.77 -1.73 -3.73 -1.73 -5.89 c
0 -3.31 1.26 -6.07 3.79 -8.27 c
2.52 -2.21 6.21 -3.31 11.08 -3.31 c
4.82 0 9.1 1.04 12.85 3.11 c
3.75 2.07 6.5 4.91 8.27 8.51 c
1.34 2.78 2.02 6.88 2.02 12.3 c
h
3763.75 953.33 -8.75 0 P
0 0.08 0 0.16 0 0.24 c
0 4.65 1.27 8.37 3.81 11.16 c
2.54 2.84 5.79 4.26 9.75 4.26 c
2.76 0 6.52 -1.25 11.29 -3.75 c
2.63 -1.39 4.72 -2.08 6.28 -2.08 c
1.42 0 2.51 0.39 3.27 1.2 c
0.76 0.8 1.29 2.38 1.61 4.75 c
9 0 p
-0.14 -5.04 -1.43 -8.82 -3.87 -11.34 c
-2.44 -2.52 -5.54 -3.78 -9.3 -3.78 c
-2.82 0 -6.54 1.18 -11.15 3.55 c
-3 1.52 -5.2 2.28 -6.58 2.28 c
-1.52 0 -2.75 -0.55 -3.7 -1.64 c
-0.94 -1.05 -1.41 -2.57 -1.41 -4.57 c
0 -0.09 -0.07 -0.19 -0.25 -0.28 c
h
f
3821 906 m
0 13.46 3.79 23.43 11.37 29.92 c
6.34 5.38 14.05 8.09 23.16 8.09 c
10.13 0 18.4 -3.29 24.83 -9.83 c
6.43 -6.55 9.64 -15.6 9.64 -27.14 c
0 -9.36 -1.43 -16.72 -4.27 -22.08 c
-2.84 -5.36 -6.98 -9.53 -12.41 -12.5 c
-5.43 -2.96 -11.36 -4.45 -17.79 -4.45 c
-10.31 0 -18.64 3.26 -25 9.79 c
-6.36 6.53 -9.54 15.93 -9.54 28.21 c
h
3834 906.04 m
0 -9.37 2.04 -16.38 6.12 -21.04 c
4.08 -4.66 9.22 -6.99 15.41 -6.99 c
6.14 0 11.26 2.34 15.34 7.03 c
4.08 4.68 6.13 11.82 6.13 21.42 c
0 9.05 -2.06 15.9 -6.16 20.56 c
-4.11 4.66 -9.21 6.99 -15.31 6.99 c
-6.19 0 -11.33 -2.32 -15.41 -6.96 c
-4.08 -4.64 -6.12 -11.64 -6.12 -21 c
h
f
4833 1590.77 0 -9.12 -11 0 0 100.57 12 0 0 -35.75 P
5.23 6.36 11.91 9.54 20.03 9.54 c
4.5 0 8.75 -0.91 12.77 -2.71 c
4.02 -1.8 7.32 -4.34 9.91 -7.6 c
2.59 -3.27 4.63 -7.2 6.09 -11.81 c
1.47 -4.61 2.2 -9.54 2.2 -14.79 c
0 -12.46 -3.11 -22.09 -9.32 -28.89 c
-6.21 -6.8 -13.65 -10.2 -22.34 -10.2 c
-8.64 0 -15.42 3.59 -20.34 10.77 c
h
4833 1618.55 m
0 -8.76 1.18 -15.09 3.54 -18.99 c
3.86 -6.37 9.09 -9.56 15.68 -9.56 c
5.36 0 10 2.35 13.91 7.05 c
3.91 4.7 5.87 11.71 5.87 21.02 c
0 9.54 -1.88 16.58 -5.63 21.12 c
-3.75 4.54 -8.29 6.81 -13.6 6.81 c
-5.36 0 -10 -2.35 -13.91 -7.05 c
-3.91 -4.7 -5.86 -11.5 -5.86 -20.39 c
h
f
4900 1582 12.0039 100.215 re
f
4926 1618 m
0 13.46 3.79 23.43 11.37 29.92 c
6.34 5.38 14.05 8.09 23.16 8.09 c
10.13 0 18.4 -3.29 24.83 -9.83 c
6.43 -6.55 9.64 -15.6 9.64 -27.14 c
0 -9.36 -1.43 -16.72 -4.27 -22.08 c
-2.84 -5.36 -6.98 -9.53 -12.41 -12.5 c
-5.43 -2.96 -11.36 -4.45 -17.79 -4.45 c
-10.31 0 -18.64 3.26 -25 9.79 c
-6.36 6.53 -9.54 15.93 -9.54 28.21 c
h
4939 1618.04 m
0 -9.37 2.04 -16.38 6.12 -21.04 c
4.08 -4.66 9.22 -6.99 15.41 -6.99 c
6.14 0 11.26 2.34 15.34 7.03 c
4.08 4.68 6.13 11.82 6.13 21.42 c
0 9.05 -2.06 15.9 -6.16 20.56 c
-4.11 4.66 -9.21 6.99 -15.31 6.99 c
-6.19 0 -11.33 -2.32 -15.41 -6.96 c
-4.08 -4.64 -6.12 -11.64 -6.12 -21 c
h
f
5056.57 1608.59 12.13 -1.59 P
-1.34 -8.45 -4.75 -15.06 -10.23 -19.84 c
-5.48 -4.77 -12.22 -7.16 -20.21 -7.16 c
-10.01 0 -18.05 3.25 -24.13 9.75 c
-6.09 6.5 -9.12 15.83 -9.12 27.97 c
0 7.85 1.31 14.72 3.93 20.61 c
2.62 5.89 6.6 10.3 11.95 13.25 c
5.35 2.95 11.17 4.43 17.46 4.43 c
7.94 0 14.44 -1.98 19.49 -5.93 c
5.05 -3.95 8.29 -9.56 9.72 -16.82 c
-12 -1.82 p
-1.14 4.83 -3.16 8.47 -6.06 10.91 c
-2.9 2.44 -6.41 3.66 -10.52 3.66 c
-6.21 0 -11.26 -2.24 -15.14 -6.71 c
-3.88 -4.47 -5.82 -11.55 -5.82 -21.22 c
0 -9.82 1.87 -16.95 5.62 -21.4 c
3.75 -4.45 8.63 -6.67 14.66 -6.67 c
4.84 0 8.88 1.52 12.13 4.56 c
3.24 3.04 5.3 7.72 6.16 14.04 c
h
f
5074 1618 m
0 13.46 3.79 23.43 11.37 29.92 c
6.34 5.38 14.05 8.09 23.16 8.09 c
10.13 0 18.4 -3.29 24.83 -9.83 c
6.43 -6.55 9.64 -15.6 9.64 -27.14 c
0 -9.36 -1.43 -16.72 -4.27 -22.08 c
-2.84 -5.36 -6.98 -9.53 -12.41 -12.5 c
-5.43 -2.96 -11.36 -4.45 -17.79 -4.45 c
-10.31 0 -18.64 3.26 -25 9.79 c
-6.36 6.53 -9.54 15.93 -9.54 28.21 c
h
5087 1618.04 m
0 -9.37 2.04 -16.38 6.12 -21.04 c
4.08 -4.66 9.22 -6.99 15.41 -6.99 c
6.14 0 11.26 2.34 15.34 7.03 c
4.08 4.68 6.13 11.82 6.13 21.42 c
0 9.05 -2.06 15.9 -6.16 20.56 c
-4.11 4.66 -9.21 6.99 -15.31 6.99 c
-6.19 0 -11.33 -2.32 -15.41 -6.96 c
-4.08 -4.64 -6.12 -11.64 -6.12 -21 c
h
f
4728.13 1432.01 1.75 -10.91 P
-3.4 -0.73 -6.44 -1.1 -9.12 -1.1 c
-4.38 0 -7.77 0.71 -10.19 2.12 c
-2.41 1.41 -4.11 3.27 -5.09 5.57 c
-0.98 2.3 -1.47 7.14 -1.47 14.53 c
0 41.78 -9.54 0 0 10 ^ 0 17.69 12 7.27 0 -24.96 12.09 0 
0 -10 ^ 0 -42.86 p
0 -3.54 0.21 -5.82 0.63 -6.83 c
0.43 -1.01 1.12 -1.82 2.08 -2.41 c
0.96 -0.6 2.34 -0.9 4.12 -0.9 c
1.34 0 3.11 0.34 5.29 1.01 c
h
f
4752 1421 -12 0 0 72.35 11 0 0 -10.96 P
2.84 5.13 5.46 8.52 7.87 10.15 c
2.41 1.64 5.05 2.47 7.94 2.47 c
4.17 0 8.41 -1.3 12.72 -3.91 c
-4.3 -11.23 p
-3.05 1.43 -6.11 2.14 -9.16 2.14 c
-2.73 0 -5.18 -0.8 -7.35 -2.41 c
-2.18 -1.6 -3.72 -3.83 -4.65 -6.68 c
-1.39 -4.34 -2.08 -9.08 -2.08 -14.23 c
h
f
4835 1429.61 m
-4.6 -3.88 -9.03 -6.62 -13.28 -8.21 c
-4.25 -1.6 -8.82 -2.4 -13.69 -2.4 c
-8.05 0 -14.23 1.97 -18.55 5.91 c
-4.32 3.95 -6.48 8.98 -6.48 15.12 c
0 3.6 0.82 6.88 2.45 9.86 c
1.63 2.98 3.77 5.36 6.42 7.16 c
2.64 1.8 5.63 3.16 8.94 4.08 c
2.44 0.64 6.12 1.27 11.04 1.87 c
10.03 1.17 17.41 2.57 22.16 4.2 c
0 1.67 0 2.73 0 3.18 c
0 4.96 -1.17 8.46 -3.51 10.49 c
-3.17 2.75 -7.87 4.13 -14.12 4.13 c
-5.83 0 -10.13 -1.01 -12.91 -3.03 c
-2.78 -2.02 -4.83 -5.59 -6.16 -10.72 c
-12.12 1.62 p
1.09 5.1 2.89 9.21 5.39 12.35 c
2.5 3.14 6.13 5.55 10.86 7.24 c
4.74 1.69 10.23 2.54 16.47 2.54 c
6.2 0 11.23 -0.74 15.1 -2.2 c
3.87 -1.46 6.72 -3.3 8.54 -5.51 c
1.82 -2.21 3.1 -5.01 3.82 -8.39 c
0.41 -2.1 0.63 -5.89 0.63 -11.36 c
0 -16.43 p
0 -11.46 0.33 -18.7 1 -21.74 c
0.49 -3.04 1.46 -5.95 2.91 -8.73 c
-12.52 0 p
-1.25 2.55 -2.04 5.54 -2.4 8.97 c
h
4834 1452.92 0 4.52 P
-4.54 -1.74 -11.35 -3.22 -20.43 -4.44 c
-5.14 -0.74 -8.78 -1.57 -10.91 -2.48 c
-2.13 -0.92 -3.78 -2.27 -4.93 -4.04 c
-1.16 -1.77 -1.73 -3.73 -1.73 -5.89 c
0 -3.31 1.26 -6.07 3.79 -8.27 c
2.52 -2.21 6.21 -3.31 11.08 -3.31 c
4.82 0 9.1 1.04 12.85 3.11 c
3.75 2.07 6.5 4.91 8.27 8.51 c
1.34 2.78 2.02 6.88 2.02 12.3 c
h
f
4924 1420.65 -11 0 0 9.19 P
-4.65 -7.23 -11.48 -10.84 -20.49 -10.84 c
-5.84 0 -11.2 1.6 -16.1 4.79 c
-4.89 3.2 -8.69 7.66 -11.38 13.38 c
-2.69 5.73 -4.03 12.31 -4.03 19.75 c
0 7.26 1.21 13.84 3.64 19.75 c
2.43 5.91 6.07 10.44 10.93 13.59 c
4.86 3.15 10.29 4.73 16.29 4.73 c
4.4 0 8.32 -0.9 11.75 -2.7 c
3.44 -1.8 6.23 -4.15 8.39 -7.04 c
0 35.96 12 0 h
4874 1456.96 m
0 -9.37 1.95 -16.37 5.86 -21.01 c
3.91 -4.64 8.52 -6.96 13.84 -6.96 c
5.36 0 9.92 2.21 13.67 6.65 c
3.75 4.43 5.63 11.19 5.63 20.28 c
0 10.01 -1.91 17.36 -5.73 22.04 c
-3.82 4.68 -8.52 7.03 -14.11 7.03 c
-5.45 0 -10.01 -2.25 -13.67 -6.75 c
-3.66 -4.5 -5.49 -11.59 -5.49 -21.28 c
h
f
5001 1420.65 -11 0 0 10.71 P
-5.68 -8.24 -13.38 -12.36 -23.11 -12.36 c
-4.3 0 -8.31 0.82 -12.04 2.47 c
-3.73 1.65 -6.49 3.72 -8.29 6.21 c
-1.81 2.5 -3.07 5.55 -3.81 9.17 c
-0.5 2.43 -0.75 6.27 -0.75 11.54 c
0 45.2 12 0 0 -40.23 p
0 -6.42 0.25 -10.75 0.77 -12.98 c
0.79 -3.23 2.47 -5.77 5.03 -7.62 c
2.56 -1.84 5.73 -2.77 9.5 -2.77 c
3.77 0 7.31 0.95 10.62 2.84 c
3.3 1.89 5.64 4.46 7.02 7.72 c
1.38 3.25 2.06 7.98 2.06 14.18 c
0 38.87 12 0 h
f
5077.99 1421 -64.26 0 0 9.98 46.21 53.05 P
-5.24 -0.02 -9.87 -0.03 -13.87 -0.03 c
-29.6 0 0 10 59.34 0 0 -8.19 -39.3 -46.37 -7.59 -8.46 p
5.51 0.68 10.69 1.02 15.52 1.02 c
33.56 0 h
f
5102 1507 -12 0 0 14 ^ H
5102 1421 -12 0 0 72.6 ^ H
f
5180 1420.65 -11 0 0 9.19 P
-4.65 -7.23 -11.48 -10.84 -20.49 -10.84 c
-5.84 0 -11.2 1.6 -16.1 4.79 c
-4.89 3.2 -8.69 7.66 -11.38 13.38 c
-2.69 5.73 -4.03 12.31 -4.03 19.75 c
0 7.26 1.21 13.84 3.64 19.75 c
2.43 5.91 6.07 10.44 10.93 13.59 c
4.86 3.15 10.29 4.73 16.29 4.73 c
4.4 0 8.32 -0.9 11.75 -2.7 c
3.44 -1.8 6.23 -4.15 8.39 -7.04 c
0 35.96 12 0 h
5130 1456.96 m
0 -9.37 1.95 -16.37 5.86 -21.01 c
3.91 -4.64 8.52 -6.96 13.84 -6.96 c
5.36 0 9.92 2.21 13.67 6.65 c
3.75 4.43 5.63 11.19 5.63 20.28 c
0 10.01 -1.91 17.36 -5.73 22.04 c
-3.82 4.68 -8.52 7.03 -14.11 7.03 c
-5.45 0 -10.01 -2.25 -13.67 -6.75 c
-3.66 -4.5 -5.49 -11.59 -5.49 -21.28 c
h
f
5194 1457 m
0 13.46 3.79 23.43 11.37 29.92 c
6.34 5.38 14.05 8.09 23.16 8.09 c
10.13 0 18.4 -3.29 24.83 -9.83 c
6.43 -6.55 9.64 -15.6 9.64 -27.14 c
0 -9.36 -1.43 -16.72 -4.27 -22.08 c
-2.84 -5.36 -6.98 -9.53 -12.41 -12.5 c
-5.43 -2.96 -11.36 -4.45 -17.79 -4.45 c
-10.31 0 -18.64 3.26 -25 9.79 c
-6.36 6.53 -9.54 15.93 -9.54 28.21 c
h
5207 1457.04 m
0 -9.37 2.04 -16.38 6.12 -21.04 c
4.08 -4.66 9.22 -6.99 15.41 -6.99 c
6.14 0 11.26 2.34 15.34 7.03 c
4.08 4.68 6.13 11.82 6.13 21.42 c
0 9.05 -2.06 15.9 -6.16 20.56 c
-4.11 4.66 -9.21 6.99 -15.31 6.99 c
-6.19 0 -11.33 -2.32 -15.41 -6.96 c
-4.08 -4.64 -6.12 -11.64 -6.12 -21 c
h
f
4936.56 55.54 -8.95 0 P
-6.89 8.57 -12.71 18.59 -17.48 30.08 c
-4.76 11.48 -7.14 23.38 -7.14 35.68 c
0 10.84 1.78 21.23 5.34 31.17 c
4.16 11.53 10.59 23.01 19.28 34.45 c
8.95 0 p
-5.55 -9.48 -9.22 -16.25 -11 -20.3 c
-2.8 -6.29 -5 -12.85 -6.6 -19.69 c
-1.97 -8.52 -2.96 -17.09 -2.96 -25.7 c
0 -21.92 6.85 -43.82 20.56 -65.69 c
h
f
4961 93.77 0 -9.12 -11 0 0 100.57 12 0 0 -35.75 P
5.23 6.36 11.91 9.54 20.03 9.54 c
4.5 0 8.75 -0.91 12.77 -2.71 c
4.02 -1.8 7.32 -4.34 9.91 -7.6 c
2.59 -3.27 4.63 -7.2 6.09 -11.81 c
1.47 -4.61 2.2 -9.54 2.2 -14.79 c
0 -12.46 -3.11 -22.09 -9.32 -28.89 c
-6.21 -6.8 -13.65 -10.2 -22.34 -10.2 c
-8.64 0 -15.42 3.59 -20.34 10.77 c
h
4961 121.55 m
0 -8.76 1.18 -15.09 3.54 -18.99 c
3.86 -6.37 9.09 -9.56 15.68 -9.56 c
5.36 0 10 2.35 13.91 7.05 c
3.91 4.7 5.87 11.71 5.87 21.02 c
0 9.54 -1.88 16.58 -5.63 21.12 c
-3.75 4.54 -8.29 6.81 -13.6 6.81 c
-5.36 0 -10 -2.35 -13.91 -7.05 c
-3.91 -4.7 -5.86 -11.5 -5.86 -20.39 c
h
f
5036.41 55.54 -8.93 0 P
13.68 21.88 20.52 43.77 20.52 65.69 c
0 8.57 -0.98 17.07 -2.95 25.5 c
-1.56 6.84 -3.73 13.4 -6.52 19.69 c
-1.79 4.1 -5.47 10.94 -11.05 20.51 c
8.93 0 p
8.68 -11.44 15.1 -22.93 19.25 -34.45 c
3.55 -9.94 5.34 -20.33 5.34 -31.17 c
0 -12.3 -2.39 -24.2 -7.17 -35.68 c
-4.78 -11.48 -10.59 -21.51 -17.42 -30.08 c
h
f
1 i
4436.91 800.105 1086.38 376.535 re
S
0.2 i
4833 1039.77 0 -9.12 -11 0 0 100.57 12 0 0 -35.75 P
5.23 6.36 11.91 9.54 20.03 9.54 c
4.5 0 8.75 -0.91 12.77 -2.71 c
4.02 -1.8 7.32 -4.34 9.91 -7.6 c
2.59 -3.27 4.63 -7.2 6.09 -11.81 c
1.47 -4.61 2.2 -9.54 2.2 -14.79 c
0 -12.46 -3.11 -22.09 -9.32 -28.89 c
-6.21 -6.8 -13.65 -10.2 -22.34 -10.2 c
-8.64 0 -15.42 3.59 -20.34 10.77 c
h
4833 1067.55 m
0 -8.76 1.18 -15.09 3.54 -18.99 c
3.86 -6.37 9.09 -9.56 15.68 -9.56 c
5.36 0 10 2.35 13.91 7.05 c
3.91 4.7 5.87 11.71 5.87 21.02 c
0 9.54 -1.88 16.58 -5.63 21.12 c
-3.75 4.54 -8.29 6.81 -13.6 6.81 c
-5.36 0 -10 -2.35 -13.91 -7.05 c
-3.91 -4.7 -5.86 -11.5 -5.86 -20.39 c
h
f
4900 1031 12.0039 100.215 re
f
4926 1067 m
0 13.46 3.79 23.43 11.37 29.92 c
6.34 5.38 14.05 8.09 23.16 8.09 c
10.13 0 18.4 -3.29 24.83 -9.83 c
6.43 -6.55 9.64 -15.6 9.64 -27.14 c
0 -9.36 -1.43 -16.72 -4.27 -22.08 c
-2.84 -5.36 -6.98 -9.53 -12.41 -12.5 c
-5.43 -2.96 -11.36 -4.45 -17.79 -4.45 c
-10.31 0 -18.64 3.26 -25 9.79 c
-6.36 6.53 -9.54 15.93 -9.54 28.21 c
h
4939 1067.04 m
0 -9.37 2.04 -16.38 6.12 -21.04 c
4.08 -4.66 9.22 -6.99 15.41 -6.99 c
6.14 0 11.26 2.34 15.34 7.03 c
4.08 4.68 6.13 11.82 6.13 21.42 c
0 9.05 -2.06 15.9 -6.16 20.56 c
-4.11 4.66 -9.21 6.99 -15.31 6.99 c
-6.19 0 -11.33 -2.32 -15.41 -6.96 c
-4.08 -4.64 -6.12 -11.64 -6.12 -21 c
h
f
5056.57 1057.59 12.13 -1.59 P
-1.34 -8.45 -4.75 -15.06 -10.23 -19.84 c
-5.48 -4.77 -12.22 -7.16 -20.21 -7.16 c
-10.01 0 -18.05 3.25 -24.13 9.75 c
-6.09 6.5 -9.12 15.83 -9.12 27.97 c
0 7.85 1.31 14.72 3.93 20.61 c
2.62 5.89 6.6 10.3 11.95 13.25 c
5.35 2.95 11.17 4.43 17.46 4.43 c
7.94 0 14.44 -1.98 19.49 -5.93 c
5.05 -3.95 8.29 -9.56 9.72 -16.82 c
-12 -1.82 p
-1.14 4.83 -3.16 8.47 -6.06 10.91 c
-2.9 2.44 -6.41 3.66 -10.52 3.66 c
-6.21 0 -11.26 -2.24 -15.14 -6.71 c
-3.88 -4.47 -5.82 -11.55 -5.82 -21.22 c
0 -9.82 1.87 -16.95 5.62 -21.4 c
3.75 -4.45 8.63 -6.67 14.66 -6.67 c
4.84 0 8.88 1.52 12.13 4.56 c
3.24 3.04 5.3 7.72 6.16 14.04 c
h
f
5074 1067 m
0 13.46 3.79 23.43 11.37 29.92 c
6.34 5.38 14.05 8.09 23.16 8.09 c
10.13 0 18.4 -3.29 24.83 -9.83 c
6.43 -6.55 9.64 -15.6 9.64 -27.14 c
0 -9.36 -1.43 -16.72 -4.27 -22.08 c
-2.84 -5.36 -6.98 -9.53 -12.41 -12.5 c
-5.43 -2.96 -11.36 -4.45 -17.79 -4.45 c
-10.31 0 -18.64 3.26 -25 9.79 c
-6.36 6.53 -9.54 15.93 -9.54 28.21 c
h
5087 1067.04 m
0 -9.37 2.04 -16.38 6.12 -21.04 c
4.08 -4.66 9.22 -6.99 15.41 -6.99 c
6.14 0 11.26 2.34 15.34 7.03 c
4.08 4.68 6.13 11.82 6.13 21.42 c
0 9.05 -2.06 15.9 -6.16 20.56 c
-4.11 4.66 -9.21 6.99 -15.31 6.99 c
-6.19 0 -11.33 -2.32 -15.41 -6.96 c
-4.08 -4.64 -6.12 -11.64 -6.12 -21 c
h
f
4728.13 881.01 1.75 -10.91 P
-3.4 -0.73 -6.44 -1.1 -9.12 -1.1 c
-4.38 0 -7.77 0.71 -10.19 2.12 c
-2.41 1.41 -4.11 3.27 -5.09 5.57 c
-0.98 2.3 -1.47 7.14 -1.47 14.53 c
0 41.78 -9.54 0 0 10 ^ 0 17.69 12 7.27 0 -24.96 12.09 0 
0 -10 ^ 0 -42.86 p
0 -3.54 0.21 -5.82 0.63 -6.83 c
0.43 -1.01 1.12 -1.82 2.08 -2.41 c
0.96 -0.6 2.34 -0.9 4.12 -0.9 c
1.34 0 3.11 0.34 5.29 1.01 c
h
f
4752 870 -12 0 0 72.35 11 0 0 -10.96 P
2.84 5.13 5.46 8.52 7.87 10.15 c
2.41 1.64 5.05 2.47 7.94 2.47 c
4.17 0 8.41 -1.3 12.72 -3.91 c
-4.3 -11.23 p
-3.05 1.43 -6.11 2.14 -9.16 2.14 c
-2.73 0 -5.18 -0.8 -7.35 -2.41 c
-2.18 -1.6 -3.72 -3.83 -4.65 -6.68 c
-1.39 -4.34 -2.08 -9.08 -2.08 -14.23 c
h
f
4835 878.61 m
-4.6 -3.88 -9.03 -6.62 -13.28 -8.21 c
-4.25 -1.6 -8.82 -2.4 -13.69 -2.4 c
-8.05 0 -14.23 1.97 -18.55 5.91 c
-4.32 3.95 -6.48 8.98 -6.48 15.12 c
0 3.6 0.82 6.88 2.45 9.86 c
1.63 2.98 3.77 5.36 6.42 7.16 c
2.64 1.8 5.63 3.16 8.94 4.08 c
2.44 0.64 6.12 1.27 11.04 1.87 c
10.03 1.17 17.41 2.57 22.16 4.2 c
0 1.67 0 2.73 0 3.18 c
0 4.96 -1.17 8.46 -3.51 10.49 c
-3.17 2.75 -7.87 4.13 -14.12 4.13 c
-5.83 0 -10.13 -1.01 -12.91 -3.03 c
-2.78 -2.02 -4.83 -5.59 -6.16 -10.72 c
-12.12 1.62 p
1.09 5.1 2.89 9.21 5.39 12.35 c
2.5 3.14 6.13 5.55 10.86 7.24 c
4.74 1.69 10.23 2.54 16.47 2.54 c
6.2 0 11.23 -0.74 15.1 -2.2 c
3.87 -1.46 6.72 -3.3 8.54 -5.51 c
1.82 -2.21 3.1 -5.01 3.82 -8.39 c
0.41 -2.1 0.63 -5.89 0.63 -11.36 c
0 -16.43 p
0 -11.46 0.33 -18.7 1 -21.74 c
0.49 -3.04 1.46 -5.95 2.91 -8.73 c
-12.52 0 p
-1.25 2.55 -2.04 5.54 -2.4 8.97 c
h
4834 901.92 0 4.52 P
-4.54 -1.74 -11.35 -3.22 -20.43 -4.44 c
-5.14 -0.74 -8.78 -1.57 -10.91 -2.48 c
-2.13 -0.92 -3.78 -2.27 -4.93 -4.04 c
-1.16 -1.77 -1.73 -3.73 -1.73 -5.89 c
0 -3.31 1.26 -6.07 3.79 -8.27 c
2.52 -2.21 6.21 -3.31 11.08 -3.31 c
4.82 0 9.1 1.04 12.85 3.11 c
3.75 2.07 6.5 4.91 8.27 8.51 c
1.34 2.78 2.02 6.88 2.02 12.3 c
h
f
4924 869.65 -11 0 0 9.19 P
-4.65 -7.23 -11.48 -10.84 -20.49 -10.84 c
-5.84 0 -11.2 1.6 -16.1 4.79 c
-4.89 3.2 -8.69 7.66 -11.38 13.38 c
-2.69 5.73 -4.03 12.31 -4.03 19.75 c
0 7.26 1.21 13.84 3.64 19.75 c
2.43 5.91 6.07 10.44 10.93 13.59 c
4.86 3.15 10.29 4.73 16.29 4.73 c
4.4 0 8.32 -0.9 11.75 -2.7 c
3.44 -1.8 6.23 -4.15 8.39 -7.04 c
0 35.96 12 0 h
4874 905.96 m
0 -9.37 1.95 -16.37 5.86 -21.01 c
3.91 -4.64 8.52 -6.96 13.84 -6.96 c
5.36 0 9.92 2.21 13.67 6.65 c
3.75 4.43 5.63 11.19 5.63 20.28 c
0 10.01 -1.91 17.36 -5.73 22.04 c
-3.82 4.68 -8.52 7.03 -14.11 7.03 c
-5.45 0 -10.01 -2.25 -13.67 -6.75 c
-3.66 -4.5 -5.49 -11.59 -5.49 -21.28 c
h
f
5001 869.65 -11 0 0 10.71 P
-5.68 -8.24 -13.38 -12.36 -23.11 -12.36 c
-4.3 0 -8.31 0.82 -12.04 2.47 c
-3.73 1.65 -6.49 3.72 -8.29 6.21 c
-1.81 2.5 -3.07 5.55 -3.81 9.17 c
-0.5 2.43 -0.75 6.27 -0.75 11.54 c
0 45.2 12 0 0 -40.23 p
0 -6.42 0.25 -10.75 0.77 -12.98 c
0.79 -3.23 2.47 -5.77 5.03 -7.62 c
2.56 -1.84 5.73 -2.77 9.5 -2.77 c
3.77 0 7.31 0.95 10.62 2.84 c
3.3 1.89 5.64 4.46 7.02 7.72 c
1.38 3.25 2.06 7.98 2.06 14.18 c
0 38.87 12 0 h
f
5077.99 870 -64.26 0 0 9.98 46.21 53.05 P
-5.24 -0.02 -9.87 -0.03 -13.87 -0.03 c
-29.6 0 0 10 59.34 0 0 -8.19 -39.3 -46.37 -7.59 -8.46 p
5.51 0.68 10.69 1.02 15.52 1.02 c
33.56 0 h
f
5102 956 -12 0 0 14 ^ H
5102 870 -12 0 0 72.6 ^ H
f
5180 869.65 -11 0 0 9.19 P
-4.65 -7.23 -11.48 -10.84 -20.49 -10.84 c
-5.84 0 -11.2 1.6 -16.1 4.79 c
-4.89 3.2 -8.69 7.66 -11.38 13.38 c
-2.69 5.73 -4.03 12.31 -4.03 19.75 c
0 7.26 1.21 13.84 3.64 19.75 c
2.43 5.91 6.07 10.44 10.93 13.59 c
4.86 3.15 10.29 4.73 16.29 4.73 c
4.4 0 8.32 -0.9 11.75 -2.7 c
3.44 -1.8 6.23 -4.15 8.39 -7.04 c
0 35.96 12 0 h
5130 905.96 m
0 -9.37 1.95 -16.37 5.86 -21.01 c
3.91 -4.64 8.52 -6.96 13.84 -6.96 c
5.36 0 9.92 2.21 13.67 6.65 c
3.75 4.43 5.63 11.19 5.63 20.28 c
0 10.01 -1.91 17.36 -5.73 22.04 c
-3.82 4.68 -8.52 7.03 -14.11 7.03 c
-5.45 0 -10.01 -2.25 -13.67 -6.75 c
-3.66 -4.5 -5.49 -11.59 -5.49 -21.28 c
h
f
5194 906 m
0 13.46 3.79 23.43 11.37 29.92 c
6.34 5.38 14.05 8.09 23.16 8.09 c
10.13 0 18.4 -3.29 24.83 -9.83 c
6.43 -6.55 9.64 -15.6 9.64 -27.14 c
0 -9.36 -1.43 -16.72 -4.27 -22.08 c
-2.84 -5.36 -6.98 -9.53 -12.41 -12.5 c
-5.43 -2.96 -11.36 -4.45 -17.79 -4.45 c
-10.31 0 -18.64 3.26 -25 9.79 c
-6.36 6.53 -9.54 15.93 -9.54 28.21 c
h
5207 906.04 m
0 -9.37 2.04 -16.38 6.12 -21.04 c
4.08 -4.66 9.22 -6.99 15.41 -6.99 c
6.14 0 11.26 2.34 15.34 7.03 c
4.08 4.68 6.13 11.82 6.13 21.42 c
0 9.05 -2.06 15.9 -6.16 20.56 c
-4.11 4.66 -9.21 6.99 -15.31 6.99 c
-6.19 0 -11.33 -2.32 -15.41 -6.96 c
-4.08 -4.64 -6.12 -11.64 -6.12 -21 c
h
f
1 i
4436.91 256.207 1086.38 376.535 re
S
0.2 i
4833 487.77 0 -9.12 -11 0 0 100.57 12 0 0 -35.75 P
5.23 6.36 11.91 9.54 20.03 9.54 c
4.5 0 8.75 -0.91 12.77 -2.71 c
4.02 -1.8 7.32 -4.34 9.91 -7.6 c
2.59 -3.27 4.63 -7.2 6.09 -11.81 c
1.47 -4.61 2.2 -9.54 2.2 -14.79 c
0 -12.46 -3.11 -22.09 -9.32 -28.89 c
-6.21 -6.8 -13.65 -10.2 -22.34 -10.2 c
-8.64 0 -15.42 3.59 -20.34 10.77 c
h
4833 515.55 m
0 -8.76 1.18 -15.09 3.54 -18.99 c
3.86 -6.37 9.09 -9.56 15.68 -9.56 c
5.36 0 10 2.35 13.91 7.05 c
3.91 4.7 5.87 11.71 5.87 21.02 c
0 9.54 -1.88 16.58 -5.63 21.12 c
-3.75 4.54 -8.29 6.81 -13.6 6.81 c
-5.36 0 -10 -2.35 -13.91 -7.05 c
-3.91 -4.7 -5.86 -11.5 -5.86 -20.39 c
h
f
4900 479 12.0039 100.215 re
f
4926 515 m
0 13.46 3.79 23.43 11.37 29.92 c
6.34 5.38 14.05 8.09 23.16 8.09 c
10.13 0 18.4 -3.29 24.83 -9.83 c
6.43 -6.55 9.64 -15.6 9.64 -27.14 c
0 -9.36 -1.43 -16.72 -4.27 -22.08 c
-2.84 -5.36 -6.98 -9.53 -12.41 -12.5 c
-5.43 -2.96 -11.36 -4.45 -17.79 -4.45 c
-10.31 0 -18.64 3.26 -25 9.79 c
-6.36 6.53 -9.54 15.93 -9.54 28.21 c
h
4939 515.04 m
0 -9.37 2.04 -16.38 6.12 -21.04 c
4.08 -4.66 9.22 -6.99 15.41 -6.99 c
6.14 0 11.26 2.34 15.34 7.03 c
4.08 4.68 6.13 11.82 6.13 21.42 c
0 9.05 -2.06 15.9 -6.16 20.56 c
-4.11 4.66 -9.21 6.99 -15.31 6.99 c
-6.19 0 -11.33 -2.32 -15.41 -6.96 c
-4.08 -4.64 -6.12 -11.64 -6.12 -21 c
h
f
5056.57 505.59 12.13 -1.59 P
-1.34 -8.45 -4.75 -15.06 -10.23 -19.84 c
-5.48 -4.77 -12.22 -7.16 -20.21 -7.16 c
-10.01 0 -18.05 3.25 -24.13 9.75 c
-6.09 6.5 -9.12 15.83 -9.12 27.97 c
0 7.85 1.31 14.72 3.93 20.61 c
2.62 5.89 6.6 10.3 11.95 13.25 c
5.35 2.95 11.17 4.43 17.46 4.43 c
7.94 0 14.44 -1.98 19.49 -5.93 c
5.05 -3.95 8.29 -9.56 9.72 -16.82 c
-12 -1.82 p
-1.14 4.83 -3.16 8.47 -6.06 10.91 c
-2.9 2.44 -6.41 3.66 -10.52 3.66 c
-6.21 0 -11.26 -2.24 -15.14 -6.71 c
-3.88 -4.47 -5.82 -11.55 -5.82 -21.22 c
0 -9.82 1.87 -16.95 5.62 -21.4 c
3.75 -4.45 8.63 -6.67 14.66 -6.67 c
4.84 0 8.88 1.52 12.13 4.56 c
3.24 3.04 5.3 7.72 6.16 14.04 c
h
f
5074 515 m
0 13.46 3.79 23.43 11.37 29.92 c
6.34 5.38 14.05 8.09 23.16 8.09 c
10.13 0 18.4 -3.29 24.83 -9.83 c
6.43 -6.55 9.64 -15.6 9.64 -27.14 c
0 -9.36 -1.43 -16.72 -4.27 -22.08 c
-2.84 -5.36 -6.98 -9.53 -12.41 -12.5 c
-5.43 -2.96 -11.36 -4.45 -17.79 -4.45 c
-10.31 0 -18.64 3.26 -25 9.79 c
-6.36 6.53 -9.54 15.93 -9.54 28.21 c
h
5087 515.04 m
0 -9.37 2.04 -16.38 6.12 -21.04 c
4.08 -4.66 9.22 -6.99 15.41 -6.99 c
6.14 0 11.26 2.34 15.34 7.03 c
4.08 4.68 6.13 11.82 6.13 21.42 c
0 9.05 -2.06 15.9 -6.16 20.56 c
-4.11 4.66 -9.21 6.99 -15.31 6.99 c
-6.19 0 -11.33 -2.32 -15.41 -6.96 c
-4.08 -4.64 -6.12 -11.64 -6.12 -21 c
h
f
4728.13 329.01 1.75 -10.91 P
-3.4 -0.73 -6.44 -1.1 -9.12 -1.1 c
-4.38 0 -7.77 0.71 -10.19 2.12 c
-2.41 1.41 -4.11 3.27 -5.09 5.57 c
-0.98 2.3 -1.47 7.14 -1.47 14.53 c
0 41.78 -9.54 0 0 10 ^ 0 17.69 12 7.27 0 -24.96 12.09 0 
0 -10 ^ 0 -42.86 p
0 -3.54 0.21 -5.82 0.63 -6.83 c
0.43 -1.01 1.12 -1.82 2.08 -2.41 c
0.96 -0.6 2.34 -0.9 4.12 -0.9 c
1.34 0 3.11 0.34 5.29 1.01 c
h
f
4752 318 -12 0 0 72.35 11 0 0 -10.96 P
2.84 5.13 5.46 8.52 7.87 10.15 c
2.41 1.64 5.05 2.47 7.94 2.47 c
4.17 0 8.41 -1.3 12.72 -3.91 c
-4.3 -11.23 p
-3.05 1.43 -6.11 2.14 -9.16 2.14 c
-2.73 0 -5.18 -0.8 -7.35 -2.41 c
-2.18 -1.6 -3.72 -3.83 -4.65 -6.68 c
-1.39 -4.34 -2.08 -9.08 -2.08 -14.23 c
h
f
4835 326.61 m
-4.6 -3.88 -9.03 -6.62 -13.28 -8.21 c
-4.25 -1.6 -8.82 -2.4 -13.69 -2.4 c
-8.05 0 -14.23 1.97 -18.55 5.91 c
-4.32 3.95 -6.48 8.98 -6.48 15.12 c
0 3.6 0.82 6.88 2.45 9.86 c
1.63 2.98 3.77 5.36 6.42 7.16 c
2.64 1.8 5.63 3.16 8.94 4.08 c
2.44 0.64 6.12 1.27 11.04 1.87 c
10.03 1.17 17.41 2.57 22.16 4.2 c
0 1.67 0 2.73 0 3.18 c
0 4.96 -1.17 8.46 -3.51 10.49 c
-3.17 2.75 -7.87 4.13 -14.12 4.13 c
-5.83 0 -10.13 -1.01 -12.91 -3.03 c
-2.78 -2.02 -4.83 -5.59 -6.16 -10.72 c
-12.12 1.62 p
1.09 5.1 2.89 9.21 5.39 12.35 c
2.5 3.14 6.13 5.55 10.86 7.24 c
4.74 1.69 10.23 2.54 16.47 2.54 c
6.2 0 11.23 -0.74 15.1 -2.2 c
3.87 -1.46 6.72 -3.3 8.54 -5.51 c
1.82 -2.21 3.1 -5.01 3.82 -8.39 c
0.41 -2.1 0.63 -5.89 0.63 -11.36 c
0 -16.43 p
0 -11.46 0.33 -18.7 1 -21.74 c
0.49 -3.04 1.46 -5.95 2.91 -8.73 c
-12.52 0 p
-1.25 2.55 -2.04 5.54 -2.4 8.97 c
h
4834 349.92 0 4.52 P
-4.54 -1.74 -11.35 -3.22 -20.43 -4.44 c
-5.14 -0.74 -8.78 -1.57 -10.91 -2.48 c
-2.13 -0.92 -3.78 -2.27 -4.93 -4.04 c
-1.16 -1.77 -1.73 -3.73 -1.73 -5.89 c
0 -3.31 1.26 -6.07 3.79 -8.27 c
2.52 -2.21 6.21 -3.31 11.08 -3.31 c
4.82 0 9.1 1.04 12.85 3.11 c
3.75 2.07 6.5 4.91 8.27 8.51 c
1.34 2.78 2.02 6.88 2.02 12.3 c
h
f
4924 317.65 -11 0 0 9.19 P
-4.65 -7.23 -11.48 -10.84 -20.49 -10.84 c
-5.84 0 -11.2 1.6 -16.1 4.79 c
-4.89 3.2 -8.69 7.66 -11.38 13.38 c
-2.69 5.73 -4.03 12.31 -4.03 19.75 c
0 7.26 1.21 13.84 3.64 19.75 c
2.43 5.91 6.07 10.44 10.93 13.59 c
4.86 3.15 10.29 4.73 16.29 4.73 c
4.4 0 8.32 -0.9 11.75 -2.7 c
3.44 -1.8 6.23 -4.15 8.39 -7.04 c
0 35.96 12 0 h
4874 353.96 m
0 -9.37 1.95 -16.37 5.86 -21.01 c
3.91 -4.64 8.52 -6.96 13.84 -6.96 c
5.36 0 9.92 2.21 13.67 6.65 c
3.75 4.43 5.63 11.19 5.63 20.28 c
0 10.01 -1.91 17.36 -5.73 22.04 c
-3.82 4.68 -8.52 7.03 -14.11 7.03 c
-5.45 0 -10.01 -2.25 -13.67 -6.75 c
-3.66 -4.5 -5.49 -11.59 -5.49 -21.28 c
h
f
5001 317.65 -11 0 0 10.71 P
-5.68 -8.24 -13.38 -12.36 -23.11 -12.36 c
-4.3 0 -8.31 0.82 -12.04 2.47 c
-3.73 1.65 -6.49 3.72 -8.29 6.21 c
-1.81 2.5 -3.07 5.55 -3.81 9.17 c
-0.5 2.43 -0.75 6.27 -0.75 11.54 c
0 45.2 12 0 0 -40.23 p
0 -6.42 0.25 -10.75 0.77 -12.98 c
0.79 -3.23 2.47 -5.77 5.03 -7.62 c
2.56 -1.84 5.73 -2.77 9.5 -2.77 c
3.77 0 7.31 0.95 10.62 2.84 c
3.3 1.89 5.64 4.46 7.02 7.72 c
1.38 3.25 2.06 7.98 2.06 14.18 c
0 38.87 12 0 h
f
5077.99 318 -64.26 0 0 9.98 46.21 53.05 P
-5.24 -0.02 -9.87 -0.03 -13.87 -0.03 c
-29.6 0 0 10 59.34 0 0 -8.19 -39.3 -46.37 -7.59 -8.46 p
5.51 0.68 10.69 1.02 15.52 1.02 c
33.56 0 h
f
5102 404 -12 0 0 14 ^ H
5102 318 -12 0 0 72.6 ^ H
f
5180 317.65 -11 0 0 9.19 P
-4.65 -7.23 -11.48 -10.84 -20.49 -10.84 c
-5.84 0 -11.2 1.6 -16.1 4.79 c
-4.89 3.2 -8.69 7.66 -11.38 13.38 c
-2.69 5.73 -4.03 12.31 -4.03 19.75 c
0 7.26 1.21 13.84 3.64 19.75 c
2.43 5.91 6.07 10.44 10.93 13.59 c
4.86 3.15 10.29 4.73 16.29 4.73 c
4.4 0 8.32 -0.9 11.75 -2.7 c
3.44 -1.8 6.23 -4.15 8.39 -7.04 c
0 35.96 12 0 h
5130 353.96 m
0 -9.37 1.95 -16.37 5.86 -21.01 c
3.91 -4.64 8.52 -6.96 13.84 -6.96 c
5.36 0 9.92 2.21 13.67 6.65 c
3.75 4.43 5.63 11.19 5.63 20.28 c
0 10.01 -1.91 17.36 -5.73 22.04 c
-3.82 4.68 -8.52 7.03 -14.11 7.03 c
-5.45 0 -10.01 -2.25 -13.67 -6.75 c
-3.66 -4.5 -5.49 -11.59 -5.49 -21.28 c
h
f
5194 354 m
0 13.46 3.79 23.43 11.37 29.92 c
6.34 5.38 14.05 8.09 23.16 8.09 c
10.13 0 18.4 -3.29 24.83 -9.83 c
6.43 -6.55 9.64 -15.6 9.64 -27.14 c
0 -9.36 -1.43 -16.72 -4.27 -22.08 c
-2.84 -5.36 -6.98 -9.53 -12.41 -12.5 c
-5.43 -2.96 -11.36 -4.45 -17.79 -4.45 c
-10.31 0 -18.64 3.26 -25 9.79 c
-6.36 6.53 -9.54 15.93 -9.54 28.21 c
h
5207 354.04 m
0 -9.37 2.04 -16.38 6.12 -21.04 c
4.08 -4.66 9.22 -6.99 15.41 -6.99 c
6.14 0 11.26 2.34 15.34 7.03 c
4.08 4.68 6.13 11.82 6.13 21.42 c
0 9.05 -2.06 15.9 -6.16 20.56 c
-4.11 4.66 -9.21 6.99 -15.31 6.99 c
-6.19 0 -11.33 -2.32 -15.41 -6.96 c
-4.08 -4.64 -6.12 -11.64 -6.12 -21 c
h
f
15 w
1 i
4426.1 313.53 -599.79 420.75 S
3840.55 754.57 -69.96 18.81 41.5 -59.38 f*
11.4737 M
0 j
3840.55 754.57 -69.96 18.81 41.5 -59.38 H
S
14.3356 M
1 j
3752.64 1182.33 599.79 420.75 S
4366.65 1582.8 41.5 59.38 -69.96 -18.81 f*
11.4737 M
0 j
4366.65 1582.8 41.5 59.38 -69.96 -18.81 H
S
14.3356 M
1 j
4980.09 800.11 0 -85.63 S
4955.32 714.48 24.78 -68.07 24.78 68.07 f*
11.4737 M
0 j
4955.32 714.48 24.78 -68.07 24.78 68.07 H
S
14.3356 M
1 j
4980.09 1350.75 0 -85.75 S
4955.32 1265.01 24.78 -68.07 24.78 68.07 f*
11.4737 M
0 j
4955.32 1265.01 24.78 -68.07 24.78 68.07 H
S
cleartomark end end pagesave restore
 showpage
%%PageTrailer
%%Trailer
%%Pages: 1
%%EOF
