%!PS-Adobe-3.0
%%Pages: (atend)
%%BoundingBox: 7 3 254 98
%%HiResBoundingBox: 7.313281 3.700391 253.699609 97.299609
%...........................................
%%Creator: GPL Ghostscript 871 (pswrite)
%%CreationDate: 2011/08/26 16:14:09
%%DocumentData: Clean7Bit
%%LanguageLevel: 2
%%EndComments
%%BeginProlog
% This copyright applies to everything between here and the %%EndProlog:
% Copyright (C) 2010 Artifex Software, Inc.  All rights reserved.
%%BeginResource: procset GS_pswrite_2_0_1001 1.001 0
/GS_pswrite_2_0_1001 80 dict dup begin
/PageSize 2 array def/setpagesize{ PageSize aload pop 3 index eq exch
4 index eq and{ pop pop pop}{ PageSize dup  1
5 -1 roll put 0 4 -1 roll put dup null eq {false} {dup where} ifelse{ exch get exec}
{ pop/setpagedevice where
{ pop 1 dict dup /PageSize PageSize put setpagedevice}
{ /setpage where{ pop PageSize aload pop pageparams 3 {exch pop} repeat
setpage}if}ifelse}ifelse}ifelse} bind def
/!{bind def}bind def/#{load def}!/N/counttomark #
/rG{3{3 -1 roll 255 div}repeat setrgbcolor}!/G{255 div setgray}!/K{0 G}!
/r6{dup 3 -1 roll rG}!/r5{dup 3 1 roll rG}!/r3{dup rG}!
/w/setlinewidth #/J/setlinecap #
/j/setlinejoin #/M/setmiterlimit #/d/setdash #/i/setflat #
/m/moveto #/l/lineto #/c/rcurveto #
/p{N 2 idiv{N -2 roll rlineto}repeat}!
/P{N 0 gt{N -2 roll moveto p}if}!
/h{p closepath}!/H{P closepath}!
/lx{0 rlineto}!/ly{0 exch rlineto}!/v{0 0 6 2 roll c}!/y{2 copy c}!
/re{4 -2 roll m exch dup lx exch ly neg lx h}!
/^{3 index neg 3 index neg}!
/f{P fill}!/f*{P eofill}!/s{H stroke}!/S{P stroke}!
/q/gsave #/Q/grestore #/rf{re fill}!
/Y{P clip newpath}!/Y*{P eoclip newpath}!/rY{re Y}!
/|={pop exch 4 1 roll 1 array astore cvx 3 array astore cvx exch 1 index def exec}!
/|{exch string readstring |=}!
/+{dup type/nametype eq{2 index 7 add -3 bitshift 2 index mul}if}!
/@/currentfile #/${+ @ |}!
/B{{2 copy string{readstring pop}aload pop 4 array astore cvx
3 1 roll}repeat pop pop true}!
/Ix{[1 0 0 1 11 -2 roll exch neg exch neg]exch}!
/,{true exch Ix imagemask}!/If{false exch Ix imagemask}!/I{exch Ix image}!
/Ic{exch Ix false 3 colorimage}!
/F{/Columns counttomark 3 add -2 roll/Rows exch/K -1/BlackIs1 true>>
/CCITTFaxDecode filter}!/FX{<</EndOfBlock false F}!
/X{/ASCII85Decode filter}!/@X{@ X}!/&2{2 index 2 index}!
/@F{@ &2<<F}!/@C{@X &2 FX}!
/$X{+ @X |}!/&4{4 index 4 index}!/$F{+ @ &4<<F |}!/$C{+ @X &4 FX |}!
/IC{3 1 roll 10 dict begin 1{/ImageType/Interpolate/Decode/DataSource
/ImageMatrix/BitsPerComponent/Height/Width}{exch def}forall
currentdict end image}!
/~{@ read {pop} if}!
end def
%%EndResource
/pagesave null def
%%EndProlog
%%Page: 1 1
%%PageBoundingBox: 0 0 258 104
%%BeginPageSetup
GS_pswrite_2_0_1001 begin
258 104 null setpagesize
/pagesave save store 197 dict begin
0.1 0.1 scale
%%EndPageSetup
gsave mark
Q q
0 0 2580 0 0 1040 ^ Y
0.2 i
K
89 957 -12 0 0 14 ^ H
89 871 -12 0 0 72.6 ^ H
f
123 871 -12 0 0 63 -10.7 0 0 10 ^ 0 7.64 P
0 4.82 0.44 8.4 1.3 10.75 c
1.19 3.16 3.29 5.71 6.29 7.67 c
3 1.96 7.2 2.95 12.61 2.95 c
3.48 0 7.33 -0.41 11.55 -1.24 c
-1.89 -10.8 p
-2.61 0.69 -5.07 1.04 -7.39 1.04 c
-3.82 0 -6.52 -0.8 -8.09 -2.39 c
-1.58 -1.59 -2.37 -4.57 -2.37 -8.93 c
0 -6.68 14.55 0 0 -10 ^ h
f
234.93 894.38 12.71 -1.6 P
-2.01 -7.54 -5.72 -13.38 -11.14 -17.54 c
-5.43 -4.16 -12.35 -6.24 -20.78 -6.24 c
-10.62 0 -19.04 3.28 -25.26 9.84 c
-6.22 6.56 -9.33 15.77 -9.33 27.61 c
0 12.25 3.14 21.77 9.43 28.55 c
6.29 6.66 14.45 10 24.47 10 c
9.71 0 17.64 -3.3 23.79 -9.89 c
6.15 -6.6 9.23 -15.87 9.23 -27.83 c
0 -0.73 -0.02 -1.82 -0.07 -3.27 c
-54.14 0 p
0.45 -8.08 2.71 -14.27 6.77 -18.56 c
4.05 -4.29 9.11 -6.44 15.18 -6.44 c
4.51 0 8.36 1.22 11.55 3.67 c
3.19 2.45 5.71 6.35 7.59 11.71 c
h
194.53 914 40.54 0 P
-0.55 6.15 -2.1 10.76 -4.65 13.84 c
-3.92 4.77 -9 7.16 -15.24 7.16 c
-5.65 0 -10.41 -1.91 -14.25 -5.71 c
-3.85 -3.81 -5.98 -8.91 -6.39 -15.29 c
h
f
275 871 -12 0 0 72.35 11 0 0 -10.29 P
5.34 7.95 13.05 11.94 23.14 11.94 c
4.38 0 8.41 -0.8 12.08 -2.37 c
3.68 -1.57 6.43 -3.62 8.25 -6.16 c
1.82 -2.54 3.11 -5.56 3.84 -9.06 c
0.45 -2.27 0.7 -6.24 0.7 -11.92 c
0 -44.48 -12 0 0 43.75 p
0 4.96 -0.49 8.68 -1.46 11.14 c
-0.98 2.46 -2.7 4.43 -5.18 5.89 c
-2.48 1.46 -5.39 2.21 -8.73 2.21 c
-5.33 0 -9.94 -1.66 -13.81 -4.96 c
-3.87 -3.3 -5.81 -9.55 -5.81 -18.76 c
h
f
400 870.65 -11 0 0 9.19 P
-4.65 -7.23 -11.48 -10.84 -20.49 -10.84 c
-5.84 0 -11.2 1.6 -16.1 4.79 c
-4.89 3.2 -8.69 7.66 -11.38 13.38 c
-2.69 5.73 -4.03 12.31 -4.03 19.75 c
0 7.26 1.21 13.84 3.64 19.75 c
2.43 5.91 6.07 10.44 10.93 13.59 c
4.86 3.15 10.29 4.73 16.29 4.73 c
4.4 0 8.32 -0.9 11.75 -2.7 c
3.44 -1.8 6.23 -4.15 8.39 -7.04 c
0 35.96 12 0 h
350 906.96 m
0 -9.37 1.95 -16.37 5.86 -21.01 c
3.91 -4.64 8.52 -6.96 13.84 -6.96 c
5.36 0 9.92 2.21 13.67 6.65 c
3.75 4.43 5.63 11.19 5.63 20.28 c
0 10.01 -1.91 17.36 -5.73 22.04 c
-3.82 4.68 -8.52 7.03 -14.11 7.03 c
-5.45 0 -10.01 -2.25 -13.67 -6.75 c
-3.66 -4.5 -5.49 -11.59 -5.49 -21.28 c
h
f
468.93 894.38 12.71 -1.6 P
-2.01 -7.54 -5.72 -13.38 -11.14 -17.54 c
-5.43 -4.16 -12.35 -6.24 -20.78 -6.24 c
-10.62 0 -19.04 3.28 -25.26 9.84 c
-6.22 6.56 -9.33 15.77 -9.33 27.61 c
0 12.25 3.14 21.77 9.43 28.55 c
6.29 6.66 14.45 10 24.47 10 c
9.71 0 17.64 -3.3 23.79 -9.89 c
6.15 -6.6 9.23 -15.87 9.23 -27.83 c
0 -0.73 -0.02 -1.82 -0.07 -3.27 c
-54.14 0 p
0.45 -8.08 2.71 -14.27 6.77 -18.56 c
4.05 -4.29 9.11 -6.44 15.18 -6.44 c
4.51 0 8.36 1.22 11.55 3.67 c
3.19 2.45 5.71 6.35 7.59 11.71 c
h
428.53 914 40.54 0 P
-0.55 6.15 -2.1 10.76 -4.65 13.84 c
-3.92 4.77 -9 7.16 -15.24 7.16 c
-5.65 0 -10.41 -1.91 -14.25 -5.71 c
-3.85 -3.81 -5.98 -8.91 -6.39 -15.29 c
h
f
508 871 -12 0 0 72.35 11 0 0 -10.96 P
2.84 5.13 5.46 8.52 7.87 10.15 c
2.41 1.64 5.05 2.47 7.94 2.47 c
4.17 0 8.41 -1.3 12.72 -3.91 c
-4.3 -11.23 p
-3.05 1.43 -6.11 2.14 -9.16 2.14 c
-2.73 0 -5.18 -0.8 -7.35 -2.41 c
-2.18 -1.6 -3.72 -3.83 -4.65 -6.68 c
-1.39 -4.34 -2.08 -9.08 -2.08 -14.23 c
h
f
592.93 894.38 12.71 -1.6 P
-2.01 -7.54 -5.72 -13.38 -11.14 -17.54 c
-5.43 -4.16 -12.35 -6.24 -20.78 -6.24 c
-10.62 0 -19.04 3.28 -25.26 9.84 c
-6.22 6.56 -9.33 15.77 -9.33 27.61 c
0 12.25 3.14 21.77 9.43 28.55 c
6.29 6.66 14.45 10 24.47 10 c
9.71 0 17.64 -3.3 23.79 -9.89 c
6.15 -6.6 9.23 -15.87 9.23 -27.83 c
0 -0.73 -0.02 -1.82 -0.07 -3.27 c
-54.14 0 p
0.45 -8.08 2.71 -14.27 6.77 -18.56 c
4.05 -4.29 9.11 -6.44 15.18 -6.44 c
4.51 0 8.36 1.22 11.55 3.67 c
3.19 2.45 5.71 6.35 7.59 11.71 c
h
552.53 914 40.54 0 P
-0.55 6.15 -2.1 10.76 -4.65 13.84 c
-3.92 4.77 -9 7.16 -15.24 7.16 c
-5.65 0 -10.41 -1.91 -14.25 -5.71 c
-3.85 -3.81 -5.98 -8.91 -6.39 -15.29 c
h
f
668.57 897.54 12.13 -1.57 P
-1.34 -8.32 -4.75 -14.84 -10.23 -19.55 c
-5.48 -4.71 -12.22 -7.06 -20.21 -7.06 c
-10.01 0 -18.05 3.24 -24.13 9.71 c
-6.09 6.47 -9.12 15.75 -9.12 27.84 c
0 7.81 1.31 14.65 3.93 20.51 c
2.62 5.86 6.6 10.25 11.95 13.18 c
5.35 2.93 11.17 4.4 17.46 4.4 c
7.94 0 14.44 -1.98 19.49 -5.93 c
5.05 -3.95 8.29 -9.56 9.72 -16.82 c
-12 -1.82 p
-1.14 4.83 -3.16 8.47 -6.06 10.91 c
-2.9 2.44 -6.41 3.66 -10.52 3.66 c
-6.21 0 -11.26 -2.23 -15.14 -6.66 c
-3.88 -4.43 -5.82 -11.45 -5.82 -21.05 c
0 -9.73 1.87 -16.81 5.62 -21.22 c
3.75 -4.41 8.63 -6.62 14.66 -6.62 c
4.84 0 8.88 1.48 12.13 4.43 c
3.24 2.96 5.3 7.5 6.16 13.64 c
h
640.1 862.32 3.51 11.62 9.06 0 -2.23 -7.22 P
3.83 -0.45 6.71 -1.63 8.65 -3.54 c
1.94 -1.91 2.91 -4.04 2.91 -6.37 c
0 -3.37 -1.63 -6.35 -4.88 -8.93 c
-3.25 -2.59 -8.16 -3.87 -14.71 -3.87 c
-3.71 0 -6.96 0.26 -9.76 0.78 c
0.76 7.63 p
2.95 0.39 5.11 0.59 6.49 0.59 c
4.32 0 7.36 0.57 9.11 1.7 c
1.33 0.88 2 1.95 2 3.22 c
0 0.79 -0.27 1.49 -0.8 2.1 c
-0.53 0.61 -1.52 1.14 -2.95 1.58 c
-1.44 0.44 -3.82 0.68 -7.15 0.72 c
h
f
686 907 m
0 13.46 3.79 23.43 11.37 29.92 c
6.34 5.38 14.05 8.09 23.16 8.09 c
10.13 0 18.4 -3.29 24.83 -9.83 c
6.43 -6.55 9.64 -15.6 9.64 -27.14 c
0 -9.36 -1.43 -16.72 -4.27 -22.08 c
-2.84 -5.36 -6.98 -9.53 -12.41 -12.5 c
-5.43 -2.96 -11.36 -4.45 -17.79 -4.45 c
-10.31 0 -18.64 3.26 -25 9.79 c
-6.36 6.53 -9.54 15.93 -9.54 28.21 c
h
699 907.04 m
0 -9.37 2.04 -16.38 6.12 -21.04 c
4.08 -4.66 9.22 -6.99 15.41 -6.99 c
6.14 0 11.26 2.34 15.34 7.03 c
4.08 4.68 6.13 11.82 6.13 21.42 c
0 9.05 -2.06 15.9 -6.16 20.56 c
-4.11 4.66 -9.21 6.99 -15.31 6.99 c
-6.19 0 -11.33 -2.32 -15.41 -6.96 c
-4.08 -4.64 -6.12 -11.64 -6.12 -21 c
h
f
872.96 941 0 -11 -66.17 0 ^ H
872.96 911 0 -11 -66.17 0 ^ H
f
953.96 941 0 -11 -66.17 0 ^ H
953.96 911 0 -11 -66.17 0 ^ H
f
1059.93 894.38 12.71 -1.6 P
-2.01 -7.54 -5.72 -13.38 -11.14 -17.54 c
-5.43 -4.16 -12.35 -6.24 -20.78 -6.24 c
-10.62 0 -19.04 3.28 -25.26 9.84 c
-6.22 6.56 -9.33 15.77 -9.33 27.61 c
0 12.25 3.14 21.77 9.43 28.55 c
6.29 6.66 14.45 10 24.47 10 c
9.71 0 17.64 -3.3 23.79 -9.89 c
6.15 -6.6 9.23 -15.87 9.23 -27.83 c
0 -0.73 -0.02 -1.82 -0.07 -3.27 c
-54.14 0 p
0.45 -8.08 2.71 -14.27 6.77 -18.56 c
4.05 -4.29 9.11 -6.44 15.18 -6.44 c
4.51 0 8.36 1.22 11.55 3.67 c
3.19 2.45 5.71 6.35 7.59 11.71 c
h
1019.53 914 40.54 0 P
-0.55 6.15 -2.1 10.76 -4.65 13.84 c
-3.92 4.77 -9 7.16 -15.24 7.16 c
-5.65 0 -10.41 -1.91 -14.25 -5.71 c
-3.85 -3.81 -5.98 -8.91 -6.39 -15.29 c
h
f
1099 871 -12 0 0 72.35 11 0 0 -10.29 P
5.34 7.95 13.05 11.94 23.14 11.94 c
4.38 0 8.41 -0.8 12.08 -2.37 c
3.68 -1.57 6.43 -3.62 8.25 -6.16 c
1.82 -2.54 3.11 -5.56 3.84 -9.06 c
0.45 -2.27 0.7 -6.24 0.7 -11.92 c
0 -44.48 -12 0 0 43.75 p
0 4.96 -0.49 8.68 -1.46 11.14 c
-0.98 2.46 -2.7 4.43 -5.18 5.89 c
-2.48 1.46 -5.39 2.21 -8.73 2.21 c
-5.33 0 -9.94 -1.66 -13.81 -4.96 c
-3.87 -3.3 -5.81 -9.55 -5.81 -18.76 c
h
f
1224 870.65 -11 0 0 9.19 P
-4.65 -7.23 -11.48 -10.84 -20.49 -10.84 c
-5.84 0 -11.2 1.6 -16.1 4.79 c
-4.89 3.2 -8.69 7.66 -11.38 13.38 c
-2.69 5.73 -4.03 12.31 -4.03 19.75 c
0 7.26 1.21 13.84 3.64 19.75 c
2.43 5.91 6.07 10.44 10.93 13.59 c
4.86 3.15 10.29 4.73 16.29 4.73 c
4.4 0 8.32 -0.9 11.75 -2.7 c
3.44 -1.8 6.23 -4.15 8.39 -7.04 c
0 35.96 12 0 h
1174 906.96 m
0 -9.37 1.95 -16.37 5.86 -21.01 c
3.91 -4.64 8.52 -6.96 13.84 -6.96 c
5.36 0 9.92 2.21 13.67 6.65 c
3.75 4.43 5.63 11.19 5.63 20.28 c
0 10.01 -1.91 17.36 -5.73 22.04 c
-3.82 4.68 -8.52 7.03 -14.11 7.03 c
-5.45 0 -10.01 -2.25 -13.67 -6.75 c
-3.66 -4.5 -5.49 -11.59 -5.49 -21.28 c
h
f
1292.93 894.38 12.71 -1.6 P
-2.01 -7.54 -5.72 -13.38 -11.14 -17.54 c
-5.43 -4.16 -12.35 -6.24 -20.78 -6.24 c
-10.62 0 -19.04 3.28 -25.26 9.84 c
-6.22 6.56 -9.33 15.77 -9.33 27.61 c
0 12.25 3.14 21.77 9.43 28.55 c
6.29 6.66 14.45 10 24.47 10 c
9.71 0 17.64 -3.3 23.79 -9.89 c
6.15 -6.6 9.23 -15.87 9.23 -27.83 c
0 -0.73 -0.02 -1.82 -0.07 -3.27 c
-54.14 0 p
0.45 -8.08 2.71 -14.27 6.77 -18.56 c
4.05 -4.29 9.11 -6.44 15.18 -6.44 c
4.51 0 8.36 1.22 11.55 3.67 c
3.19 2.45 5.71 6.35 7.59 11.71 c
h
1252.53 914 40.54 0 P
-0.55 6.15 -2.1 10.76 -4.65 13.84 c
-3.92 4.77 -9 7.16 -15.24 7.16 c
-5.65 0 -10.41 -1.91 -14.25 -5.71 c
-3.85 -3.81 -5.98 -8.91 -6.39 -15.29 c
h
f
1333 871 -12 0 0 72.35 11 0 0 -10.96 P
2.84 5.13 5.46 8.52 7.87 10.15 c
2.41 1.64 5.05 2.47 7.94 2.47 c
4.17 0 8.41 -1.3 12.72 -3.91 c
-4.3 -11.23 p
-3.05 1.43 -6.11 2.14 -9.16 2.14 c
-2.73 0 -5.18 -0.8 -7.35 -2.41 c
-2.18 -1.6 -3.72 -3.83 -4.65 -6.68 c
-1.39 -4.34 -2.08 -9.08 -2.08 -14.23 c
h
f
1417.93 894.38 12.71 -1.6 P
-2.01 -7.54 -5.72 -13.38 -11.14 -17.54 c
-5.43 -4.16 -12.35 -6.24 -20.78 -6.24 c
-10.62 0 -19.04 3.28 -25.26 9.84 c
-6.22 6.56 -9.33 15.77 -9.33 27.61 c
0 12.25 3.14 21.77 9.43 28.55 c
6.29 6.66 14.45 10 24.47 10 c
9.71 0 17.64 -3.3 23.79 -9.89 c
6.15 -6.6 9.23 -15.87 9.23 -27.83 c
0 -0.73 -0.02 -1.82 -0.07 -3.27 c
-54.14 0 p
0.45 -8.08 2.71 -14.27 6.77 -18.56 c
4.05 -4.29 9.11 -6.44 15.18 -6.44 c
4.51 0 8.36 1.22 11.55 3.67 c
3.19 2.45 5.71 6.35 7.59 11.71 c
h
1377.53 914 40.54 0 P
-0.55 6.15 -2.1 10.76 -4.65 13.84 c
-3.92 4.77 -9 7.16 -15.24 7.16 c
-5.65 0 -10.41 -1.91 -14.25 -5.71 c
-3.85 -3.81 -5.98 -8.91 -6.39 -15.29 c
h
f
1492.57 897.54 12.13 -1.57 P
-1.34 -8.32 -4.75 -14.84 -10.23 -19.55 c
-5.48 -4.71 -12.22 -7.06 -20.21 -7.06 c
-10.01 0 -18.05 3.24 -24.13 9.71 c
-6.09 6.47 -9.12 15.75 -9.12 27.84 c
0 7.81 1.31 14.65 3.93 20.51 c
2.62 5.86 6.6 10.25 11.95 13.18 c
5.35 2.93 11.17 4.4 17.46 4.4 c
7.94 0 14.44 -1.98 19.49 -5.93 c
5.05 -3.95 8.29 -9.56 9.72 -16.82 c
-12 -1.82 p
-1.14 4.83 -3.16 8.47 -6.06 10.91 c
-2.9 2.44 -6.41 3.66 -10.52 3.66 c
-6.21 0 -11.26 -2.23 -15.14 -6.66 c
-3.88 -4.43 -5.82 -11.45 -5.82 -21.05 c
0 -9.73 1.87 -16.81 5.62 -21.22 c
3.75 -4.41 8.63 -6.62 14.66 -6.62 c
4.84 0 8.88 1.48 12.13 4.43 c
3.24 2.96 5.3 7.5 6.16 13.64 c
h
1464.1 862.32 3.51 11.62 9.06 0 -2.23 -7.22 P
3.83 -0.45 6.71 -1.63 8.65 -3.54 c
1.94 -1.91 2.91 -4.04 2.91 -6.37 c
0 -3.37 -1.63 -6.35 -4.88 -8.93 c
-3.25 -2.59 -8.16 -3.87 -14.71 -3.87 c
-3.71 0 -6.96 0.26 -9.76 0.78 c
0.76 7.63 p
2.95 0.39 5.11 0.59 6.49 0.59 c
4.32 0 7.36 0.57 9.11 1.7 c
1.33 0.88 2 1.95 2 3.22 c
0 0.79 -0.27 1.49 -0.8 2.1 c
-0.53 0.61 -1.52 1.14 -2.95 1.58 c
-1.44 0.44 -3.82 0.68 -7.15 0.72 c
h
f
1510 907 m
0 13.46 3.79 23.43 11.37 29.92 c
6.34 5.38 14.05 8.09 23.16 8.09 c
10.13 0 18.4 -3.29 24.83 -9.83 c
6.43 -6.55 9.64 -15.6 9.64 -27.14 c
0 -9.36 -1.43 -16.72 -4.27 -22.08 c
-2.84 -5.36 -6.98 -9.53 -12.41 -12.5 c
-5.43 -2.96 -11.36 -4.45 -17.79 -4.45 c
-10.31 0 -18.64 3.26 -25 9.79 c
-6.36 6.53 -9.54 15.93 -9.54 28.21 c
h
1523 907.04 m
0 -9.37 2.04 -16.38 6.12 -21.04 c
4.08 -4.66 9.22 -6.99 15.41 -6.99 c
6.14 0 11.26 2.34 15.34 7.03 c
4.08 4.68 6.13 11.82 6.13 21.42 c
0 9.05 -2.06 15.9 -6.16 20.56 c
-4.11 4.66 -9.21 6.99 -15.31 6.99 c
-6.19 0 -11.33 -2.32 -15.41 -6.96 c
-4.08 -4.64 -6.12 -11.64 -6.12 -21 c
h
f
1581.88 843 81.5508 9 re
f
1666 907 m
0 13.46 3.79 23.43 11.37 29.92 c
6.34 5.38 14.05 8.09 23.16 8.09 c
10.13 0 18.4 -3.29 24.83 -9.83 c
6.43 -6.55 9.64 -15.6 9.64 -27.14 c
0 -9.36 -1.43 -16.72 -4.27 -22.08 c
-2.84 -5.36 -6.98 -9.53 -12.41 -12.5 c
-5.43 -2.96 -11.36 -4.45 -17.79 -4.45 c
-10.31 0 -18.64 3.26 -25 9.79 c
-6.36 6.53 -9.54 15.93 -9.54 28.21 c
h
1679 907.04 m
0 -9.37 2.04 -16.38 6.12 -21.04 c
4.08 -4.66 9.22 -6.99 15.41 -6.99 c
6.14 0 11.26 2.34 15.34 7.03 c
4.08 4.68 6.13 11.82 6.13 21.42 c
0 9.05 -2.06 15.9 -6.16 20.56 c
-4.11 4.66 -9.21 6.99 -15.31 6.99 c
-6.19 0 -11.33 -2.32 -15.41 -6.96 c
-4.08 -4.64 -6.12 -11.64 -6.12 -21 c
h
f
1761 871 -12 0 0 72.35 11 0 0 -10.96 P
2.84 5.13 5.46 8.52 7.87 10.15 c
2.41 1.64 5.05 2.47 7.94 2.47 c
4.17 0 8.41 -1.3 12.72 -3.91 c
-4.3 -11.23 p
-3.05 1.43 -6.11 2.14 -9.16 2.14 c
-2.73 0 -5.18 -0.8 -7.35 -2.41 c
-2.18 -1.6 -3.72 -3.83 -4.65 -6.68 c
-1.39 -4.34 -2.08 -9.08 -2.08 -14.23 c
h
f
1808 957 -12 0 0 14 ^ H
1808 871 -12 0 0 72.6 ^ H
f
1824.46 864.98 11.96 -1.74 P
0.5 -3.61 1.89 -6.25 4.17 -7.9 c
3.05 -2.23 7.23 -3.34 12.51 -3.34 c
5.7 0 10.1 1.13 13.2 3.38 c
3.1 2.26 5.2 5.41 6.29 9.48 c
0.6 2.32 0.89 7.02 0.89 14.11 c
0 0.5 0 1.01 0 1.54 c
-5.38 -6.34 -12.08 -9.5 -20.11 -9.5 c
-9.98 0 -17.71 3.59 -23.18 10.76 c
-5.47 7.18 -8.2 15.79 -8.2 25.82 c
0 6.91 1.26 13.27 3.79 19.11 c
2.52 5.84 6.18 10.34 10.98 13.52 c
4.8 3.18 10.43 4.79 16.9 4.79 c
8.63 0 15.74 -3.45 21.34 -10.33 c
0 8.69 11 0 0 -62.33 p
0 -11.22 -1.15 -19.18 -3.45 -23.86 c
-2.3 -4.68 -5.95 -8.38 -10.94 -11.1 c
-4.99 -2.71 -11.13 -4.07 -18.43 -4.07 c
-8.66 0 -15.66 1.91 -20.99 5.73 c
-5.16 3.7 -7.73 9.2 -7.73 16.5 c
0 0.25 0 0.5 0.01 0.76 c
h
1835 908.47 m
0 -9.55 1.9 -16.51 5.7 -20.89 c
3.8 -4.39 8.55 -6.58 14.27 -6.58 c
5.67 0 10.43 2.18 14.27 6.54 c
3.84 4.36 5.77 11.2 5.77 20.52 c
0 8.91 -1.98 15.62 -5.93 20.14 c
-3.96 4.52 -8.73 6.8 -14.31 6.8 c
-5.49 0 -10.15 -2.24 -14 -6.7 c
-3.84 -4.45 -5.76 -11.06 -5.76 -19.83 c
h
f
1916 957 -12 0 0 14 ^ H
1916 871 -12 0 0 72.6 ^ H
f
1948 871 -12 0 0 72.35 11 0 0 -10.29 P
5.34 7.95 13.05 11.94 23.14 11.94 c
4.38 0 8.41 -0.8 12.08 -2.37 c
3.68 -1.57 6.43 -3.62 8.25 -6.16 c
1.82 -2.54 3.11 -5.56 3.84 -9.06 c
0.45 -2.27 0.7 -6.24 0.7 -11.92 c
0 -44.48 -12 0 0 43.75 p
0 4.96 -0.49 8.68 -1.46 11.14 c
-0.98 2.46 -2.7 4.43 -5.18 5.89 c
-2.48 1.46 -5.39 2.21 -8.73 2.21 c
-5.33 0 -9.94 -1.66 -13.81 -4.96 c
-3.87 -3.3 -5.81 -9.55 -5.81 -18.76 c
h
f
2061 879.61 m
-4.6 -3.88 -9.03 -6.62 -13.28 -8.21 c
-4.25 -1.6 -8.82 -2.4 -13.69 -2.4 c
-8.05 0 -14.23 1.97 -18.55 5.91 c
-4.32 3.95 -6.48 8.98 -6.48 15.12 c
0 3.6 0.82 6.88 2.45 9.86 c
1.63 2.98 3.77 5.36 6.42 7.16 c
2.64 1.8 5.63 3.16 8.94 4.08 c
2.44 0.64 6.12 1.27 11.04 1.87 c
10.03 1.17 17.41 2.57 22.16 4.2 c
0 1.67 0 2.73 0 3.18 c
0 4.96 -1.17 8.46 -3.51 10.49 c
-3.17 2.75 -7.87 4.13 -14.12 4.13 c
-5.83 0 -10.13 -1.01 -12.91 -3.03 c
-2.78 -2.02 -4.83 -5.59 -6.16 -10.72 c
-12.12 1.62 p
1.09 5.1 2.89 9.21 5.39 12.35 c
2.5 3.14 6.13 5.55 10.86 7.24 c
4.74 1.69 10.23 2.54 16.47 2.54 c
6.2 0 11.23 -0.74 15.1 -2.2 c
3.87 -1.46 6.72 -3.3 8.54 -5.51 c
1.82 -2.21 3.1 -5.01 3.82 -8.39 c
0.41 -2.1 0.63 -5.89 0.63 -11.36 c
0 -16.43 p
0 -11.46 0.33 -18.7 1 -21.74 c
0.49 -3.04 1.46 -5.95 2.91 -8.73 c
-12.52 0 p
-1.25 2.55 -2.04 5.54 -2.4 8.97 c
h
2060 902.92 0 4.52 P
-4.54 -1.74 -11.35 -3.22 -20.43 -4.44 c
-5.14 -0.74 -8.78 -1.57 -10.91 -2.48 c
-2.13 -0.92 -3.78 -2.27 -4.93 -4.04 c
-1.16 -1.77 -1.73 -3.73 -1.73 -5.89 c
0 -3.31 1.26 -6.07 3.79 -8.27 c
2.52 -2.21 6.21 -3.31 11.08 -3.31 c
4.82 0 9.1 1.04 12.85 3.11 c
3.75 2.07 6.5 4.91 8.27 8.51 c
1.34 2.78 2.02 6.88 2.02 12.3 c
h
f
2091 871 12.0039 100.215 re
f
2110.88 843 81.5508 9 re
f
2243 971.63 0 -100.62 -12 0 0 78.41 P
-2.98 -2.83 -6.89 -5.65 -11.73 -8.48 c
-4.84 -2.83 -9.18 -4.95 -13.03 -6.36 c
0 11.89 p
6.85 3.23 12.84 7.15 17.96 11.76 c
5.13 4.6 8.76 9.07 10.89 13.4 c
h
f
2286.41 841.54 -8.93 0 P
13.68 21.88 20.52 43.77 20.52 65.69 c
0 8.57 -0.98 17.07 -2.95 25.5 c
-1.56 6.84 -3.73 13.4 -6.52 19.69 c
-1.79 4.1 -5.47 10.94 -11.05 20.51 c
8.93 0 p
8.68 -11.44 15.1 -22.93 19.25 -34.45 c
3.55 -9.94 5.34 -20.33 5.34 -31.17 c
0 -12.3 -2.39 -24.2 -7.17 -35.68 c
-4.78 -11.48 -10.59 -21.51 -17.42 -30.08 c
h
f
229.46 703.98 11.96 -1.74 P
0.5 -3.61 1.89 -6.25 4.17 -7.9 c
3.05 -2.23 7.23 -3.34 12.51 -3.34 c
5.7 0 10.1 1.13 13.2 3.38 c
3.1 2.26 5.2 5.41 6.29 9.48 c
0.6 2.32 0.89 7.02 0.89 14.11 c
0 0.5 0 1.01 0 1.54 c
-5.38 -6.34 -12.08 -9.5 -20.11 -9.5 c
-9.98 0 -17.71 3.59 -23.18 10.76 c
-5.47 7.18 -8.2 15.79 -8.2 25.82 c
0 6.91 1.26 13.27 3.79 19.11 c
2.52 5.84 6.18 10.34 10.98 13.52 c
4.8 3.18 10.43 4.79 16.9 4.79 c
8.63 0 15.74 -3.45 21.34 -10.33 c
0 8.69 11 0 0 -62.33 p
0 -11.22 -1.15 -19.18 -3.45 -23.86 c
-2.3 -4.68 -5.95 -8.38 -10.94 -11.1 c
-4.99 -2.71 -11.13 -4.07 -18.43 -4.07 c
-8.66 0 -15.66 1.91 -20.99 5.73 c
-5.16 3.7 -7.73 9.2 -7.73 16.5 c
0 0.25 0 0.5 0.01 0.76 c
h
240 747.47 m
0 -9.55 1.9 -16.51 5.7 -20.89 c
3.8 -4.39 8.55 -6.58 14.27 -6.58 c
5.67 0 10.43 2.18 14.27 6.54 c
3.84 4.36 5.77 11.2 5.77 20.52 c
0 8.91 -1.98 15.62 -5.93 20.14 c
-3.96 4.52 -8.73 6.8 -14.31 6.8 c
-5.49 0 -10.15 -2.24 -14 -6.7 c
-3.84 -4.45 -5.76 -11.06 -5.76 -19.83 c
h
f
304 746 m
0 13.46 3.79 23.43 11.37 29.92 c
6.34 5.38 14.05 8.09 23.16 8.09 c
10.13 0 18.4 -3.29 24.83 -9.83 c
6.43 -6.55 9.64 -15.6 9.64 -27.14 c
0 -9.36 -1.43 -16.72 -4.27 -22.08 c
-2.84 -5.36 -6.98 -9.53 -12.41 -12.5 c
-5.43 -2.96 -11.36 -4.45 -17.79 -4.45 c
-10.31 0 -18.64 3.26 -25 9.79 c
-6.36 6.53 -9.54 15.93 -9.54 28.21 c
h
317 746.04 m
0 -9.37 2.04 -16.38 6.12 -21.04 c
4.08 -4.66 9.22 -6.99 15.41 -6.99 c
6.14 0 11.26 2.34 15.34 7.03 c
4.08 4.68 6.13 11.82 6.13 21.42 c
0 9.05 -2.06 15.9 -6.16 20.56 c
-4.11 4.66 -9.21 6.99 -15.31 6.99 c
-6.19 0 -11.33 -2.32 -15.41 -6.96 c
-4.08 -4.64 -6.12 -11.64 -6.12 -21 c
h
f
414.13 721.01 1.75 -10.91 P
-3.4 -0.73 -6.44 -1.1 -9.12 -1.1 c
-4.38 0 -7.77 0.71 -10.19 2.12 c
-2.41 1.41 -4.11 3.27 -5.09 5.57 c
-0.98 2.3 -1.47 7.14 -1.47 14.53 c
0 41.78 -9.54 0 0 10 ^ 0 17.69 12 7.27 0 -24.96 12.09 0 
0 -10 ^ 0 -42.86 p
0 -3.54 0.21 -5.82 0.63 -6.83 c
0.43 -1.01 1.12 -1.82 2.08 -2.41 c
0.96 -0.6 2.34 -0.9 4.12 -0.9 c
1.34 0 3.11 0.34 5.29 1.01 c
h
f
421 746 m
0 13.46 3.79 23.43 11.37 29.92 c
6.34 5.38 14.05 8.09 23.16 8.09 c
10.13 0 18.4 -3.29 24.83 -9.83 c
6.43 -6.55 9.64 -15.6 9.64 -27.14 c
0 -9.36 -1.43 -16.72 -4.27 -22.08 c
-2.84 -5.36 -6.98 -9.53 -12.41 -12.5 c
-5.43 -2.96 -11.36 -4.45 -17.79 -4.45 c
-10.31 0 -18.64 3.26 -25 9.79 c
-6.36 6.53 -9.54 15.93 -9.54 28.21 c
h
434 746.04 m
0 -9.37 2.04 -16.38 6.12 -21.04 c
4.08 -4.66 9.22 -6.99 15.41 -6.99 c
6.14 0 11.26 2.34 15.34 7.03 c
4.08 4.68 6.13 11.82 6.13 21.42 c
0 9.05 -2.06 15.9 -6.16 20.56 c
-4.11 4.66 -9.21 6.99 -15.31 6.99 c
-6.19 0 -11.33 -2.32 -15.41 -6.96 c
-4.08 -4.64 -6.12 -11.64 -6.12 -21 c
h
f
592.93 733.38 12.71 -1.6 P
-2.01 -7.54 -5.72 -13.38 -11.14 -17.54 c
-5.43 -4.16 -12.35 -6.24 -20.78 -6.24 c
-10.62 0 -19.04 3.28 -25.26 9.84 c
-6.22 6.56 -9.33 15.77 -9.33 27.61 c
0 12.25 3.14 21.77 9.43 28.55 c
6.29 6.66 14.45 10 24.47 10 c
9.71 0 17.64 -3.3 23.79 -9.89 c
6.15 -6.6 9.23 -15.87 9.23 -27.83 c
0 -0.73 -0.02 -1.82 -0.07 -3.27 c
-54.14 0 p
0.45 -8.08 2.71 -14.27 6.77 -18.56 c
4.05 -4.29 9.11 -6.44 15.18 -6.44 c
4.51 0 8.36 1.22 11.55 3.67 c
3.19 2.45 5.71 6.35 7.59 11.71 c
h
552.53 753 40.54 0 P
-0.55 6.15 -2.1 10.76 -4.65 13.84 c
-3.92 4.77 -9 7.16 -15.24 7.16 c
-5.65 0 -10.41 -1.91 -14.25 -5.71 c
-3.85 -3.81 -5.98 -8.91 -6.39 -15.29 c
h
f
633 710 -12 0 0 72.35 11 0 0 -10.29 P
5.34 7.95 13.05 11.94 23.14 11.94 c
4.38 0 8.41 -0.8 12.08 -2.37 c
3.68 -1.57 6.43 -3.62 8.25 -6.16 c
1.82 -2.54 3.11 -5.56 3.84 -9.06 c
0.45 -2.27 0.7 -6.24 0.7 -11.92 c
0 -44.48 -12 0 0 43.75 p
0 4.96 -0.49 8.68 -1.46 11.14 c
-0.98 2.46 -2.7 4.43 -5.18 5.89 c
-2.48 1.46 -5.39 2.21 -8.73 2.21 c
-5.33 0 -9.94 -1.66 -13.81 -4.96 c
-3.87 -3.3 -5.81 -9.55 -5.81 -18.76 c
h
f
757 709.65 -11 0 0 9.19 P
-4.65 -7.23 -11.48 -10.84 -20.49 -10.84 c
-5.84 0 -11.2 1.6 -16.1 4.79 c
-4.89 3.2 -8.69 7.66 -11.38 13.38 c
-2.69 5.73 -4.03 12.31 -4.03 19.75 c
0 7.26 1.21 13.84 3.64 19.75 c
2.43 5.91 6.07 10.44 10.93 13.59 c
4.86 3.15 10.29 4.73 16.29 4.73 c
4.4 0 8.32 -0.9 11.75 -2.7 c
3.44 -1.8 6.23 -4.15 8.39 -7.04 c
0 35.96 12 0 h
707 745.96 m
0 -9.37 1.95 -16.37 5.86 -21.01 c
3.91 -4.64 8.52 -6.96 13.84 -6.96 c
5.36 0 9.92 2.21 13.67 6.65 c
3.75 4.43 5.63 11.19 5.63 20.28 c
0 10.01 -1.91 17.36 -5.73 22.04 c
-3.82 4.68 -8.52 7.03 -14.11 7.03 c
-5.45 0 -10.01 -2.25 -13.67 -6.75 c
-3.66 -4.5 -5.49 -11.59 -5.49 -21.28 c
h
f
825.93 733.38 12.71 -1.6 P
-2.01 -7.54 -5.72 -13.38 -11.14 -17.54 c
-5.43 -4.16 -12.35 -6.24 -20.78 -6.24 c
-10.62 0 -19.04 3.28 -25.26 9.84 c
-6.22 6.56 -9.33 15.77 -9.33 27.61 c
0 12.25 3.14 21.77 9.43 28.55 c
6.29 6.66 14.45 10 24.47 10 c
9.71 0 17.64 -3.3 23.79 -9.89 c
6.15 -6.6 9.23 -15.87 9.23 -27.83 c
0 -0.73 -0.02 -1.82 -0.07 -3.27 c
-54.14 0 p
0.45 -8.08 2.71 -14.27 6.77 -18.56 c
4.05 -4.29 9.11 -6.44 15.18 -6.44 c
4.51 0 8.36 1.22 11.55 3.67 c
3.19 2.45 5.71 6.35 7.59 11.71 c
h
785.53 753 40.54 0 P
-0.55 6.15 -2.1 10.76 -4.65 13.84 c
-3.92 4.77 -9 7.16 -15.24 7.16 c
-5.65 0 -10.41 -1.91 -14.25 -5.71 c
-3.85 -3.81 -5.98 -8.91 -6.39 -15.29 c
h
f
866 710 -12 0 0 72.35 11 0 0 -10.96 P
2.84 5.13 5.46 8.52 7.87 10.15 c
2.41 1.64 5.05 2.47 7.94 2.47 c
4.17 0 8.41 -1.3 12.72 -3.91 c
-4.3 -11.23 p
-3.05 1.43 -6.11 2.14 -9.16 2.14 c
-2.73 0 -5.18 -0.8 -7.35 -2.41 c
-2.18 -1.6 -3.72 -3.83 -4.65 -6.68 c
-1.39 -4.34 -2.08 -9.08 -2.08 -14.23 c
h
f
950.93 733.38 12.71 -1.6 P
-2.01 -7.54 -5.72 -13.38 -11.14 -17.54 c
-5.43 -4.16 -12.35 -6.24 -20.78 -6.24 c
-10.62 0 -19.04 3.28 -25.26 9.84 c
-6.22 6.56 -9.33 15.77 -9.33 27.61 c
0 12.25 3.14 21.77 9.43 28.55 c
6.29 6.66 14.45 10 24.47 10 c
9.71 0 17.64 -3.3 23.79 -9.89 c
6.15 -6.6 9.23 -15.87 9.23 -27.83 c
0 -0.73 -0.02 -1.82 -0.07 -3.27 c
-54.14 0 p
0.45 -8.08 2.71 -14.27 6.77 -18.56 c
4.05 -4.29 9.11 -6.44 15.18 -6.44 c
4.51 0 8.36 1.22 11.55 3.67 c
3.19 2.45 5.71 6.35 7.59 11.71 c
h
910.53 753 40.54 0 P
-0.55 6.15 -2.1 10.76 -4.65 13.84 c
-3.92 4.77 -9 7.16 -15.24 7.16 c
-5.65 0 -10.41 -1.91 -14.25 -5.71 c
-3.85 -3.81 -5.98 -8.91 -6.39 -15.29 c
h
f
1026.57 736.54 12.13 -1.57 P
-1.34 -8.32 -4.75 -14.84 -10.23 -19.55 c
-5.48 -4.71 -12.22 -7.06 -20.21 -7.06 c
-10.01 0 -18.05 3.24 -24.13 9.71 c
-6.09 6.47 -9.12 15.75 -9.12 27.84 c
0 7.81 1.31 14.65 3.93 20.51 c
2.62 5.86 6.6 10.25 11.95 13.18 c
5.35 2.93 11.17 4.4 17.46 4.4 c
7.94 0 14.44 -1.98 19.49 -5.93 c
5.05 -3.95 8.29 -9.56 9.72 -16.82 c
-12 -1.82 p
-1.14 4.83 -3.16 8.47 -6.06 10.91 c
-2.9 2.44 -6.41 3.66 -10.52 3.66 c
-6.21 0 -11.26 -2.23 -15.14 -6.66 c
-3.88 -4.43 -5.82 -11.45 -5.82 -21.05 c
0 -9.73 1.87 -16.81 5.62 -21.22 c
3.75 -4.41 8.63 -6.62 14.66 -6.62 c
4.84 0 8.88 1.48 12.13 4.43 c
3.24 2.96 5.3 7.5 6.16 13.64 c
h
998.1 701.32 3.51 11.62 9.06 0 -2.23 -7.22 P
3.83 -0.45 6.71 -1.63 8.65 -3.54 c
1.94 -1.91 2.91 -4.04 2.91 -6.37 c
0 -3.37 -1.63 -6.35 -4.88 -8.93 c
-3.25 -2.59 -8.16 -3.87 -14.71 -3.87 c
-3.71 0 -6.96 0.26 -9.76 0.78 c
0.76 7.63 p
2.95 0.39 5.11 0.59 6.49 0.59 c
4.32 0 7.36 0.57 9.11 1.7 c
1.33 0.88 2 1.95 2 3.22 c
0 0.79 -0.27 1.49 -0.8 2.1 c
-0.53 0.61 -1.52 1.14 -2.95 1.58 c
-1.44 0.44 -3.82 0.68 -7.15 0.72 c
h
f
1044 746 m
0 13.46 3.79 23.43 11.37 29.92 c
6.34 5.38 14.05 8.09 23.16 8.09 c
10.13 0 18.4 -3.29 24.83 -9.83 c
6.43 -6.55 9.64 -15.6 9.64 -27.14 c
0 -9.36 -1.43 -16.72 -4.27 -22.08 c
-2.84 -5.36 -6.98 -9.53 -12.41 -12.5 c
-5.43 -2.96 -11.36 -4.45 -17.79 -4.45 c
-10.31 0 -18.64 3.26 -25 9.79 c
-6.36 6.53 -9.54 15.93 -9.54 28.21 c
h
1057 746.04 m
0 -9.37 2.04 -16.38 6.12 -21.04 c
4.08 -4.66 9.22 -6.99 15.41 -6.99 c
6.14 0 11.26 2.34 15.34 7.03 c
4.08 4.68 6.13 11.82 6.13 21.42 c
0 9.05 -2.06 15.9 -6.16 20.56 c
-4.11 4.66 -9.21 6.99 -15.31 6.99 c
-6.19 0 -11.33 -2.32 -15.41 -6.96 c
-4.08 -4.64 -6.12 -11.64 -6.12 -21 c
h
f
1114.88 682 81.5508 9 re
f
1231.13 721.01 1.75 -10.91 P
-3.4 -0.73 -6.44 -1.1 -9.12 -1.1 c
-4.38 0 -7.77 0.71 -10.19 2.12 c
-2.41 1.41 -4.11 3.27 -5.09 5.57 c
-0.98 2.3 -1.47 7.14 -1.47 14.53 c
0 41.78 -9.54 0 0 10 ^ 0 17.69 12 7.27 0 -24.96 12.09 0 
0 -10 ^ 0 -42.86 p
0 -3.54 0.21 -5.82 0.63 -6.83 c
0.43 -1.01 1.12 -1.82 2.08 -2.41 c
0.96 -0.6 2.34 -0.9 4.12 -0.9 c
1.34 0 3.11 0.34 5.29 1.01 c
h
f
1255 710 -12 0 0 72.35 11 0 0 -10.96 P
2.84 5.13 5.46 8.52 7.87 10.15 c
2.41 1.64 5.05 2.47 7.94 2.47 c
4.17 0 8.41 -1.3 12.72 -3.91 c
-4.3 -11.23 p
-3.05 1.43 -6.11 2.14 -9.16 2.14 c
-2.73 0 -5.18 -0.8 -7.35 -2.41 c
-2.18 -1.6 -3.72 -3.83 -4.65 -6.68 c
-1.39 -4.34 -2.08 -9.08 -2.08 -14.23 c
h
f
1338 718.61 m
-4.6 -3.88 -9.03 -6.62 -13.28 -8.21 c
-4.25 -1.6 -8.82 -2.4 -13.69 -2.4 c
-8.05 0 -14.23 1.97 -18.55 5.91 c
-4.32 3.95 -6.48 8.98 -6.48 15.12 c
0 3.6 0.82 6.88 2.45 9.86 c
1.63 2.98 3.77 5.36 6.42 7.16 c
2.64 1.8 5.63 3.16 8.94 4.08 c
2.44 0.64 6.12 1.27 11.04 1.87 c
10.03 1.17 17.41 2.57 22.16 4.2 c
0 1.67 0 2.73 0 3.18 c
0 4.96 -1.17 8.46 -3.51 10.49 c
-3.17 2.75 -7.87 4.13 -14.12 4.13 c
-5.83 0 -10.13 -1.01 -12.91 -3.03 c
-2.78 -2.02 -4.83 -5.59 -6.16 -10.72 c
-12.12 1.62 p
1.09 5.1 2.89 9.21 5.39 12.35 c
2.5 3.14 6.13 5.55 10.86 7.24 c
4.74 1.69 10.23 2.54 16.47 2.54 c
6.2 0 11.23 -0.74 15.1 -2.2 c
3.87 -1.46 6.72 -3.3 8.54 -5.51 c
1.82 -2.21 3.1 -5.01 3.82 -8.39 c
0.41 -2.1 0.63 -5.89 0.63 -11.36 c
0 -16.43 p
0 -11.46 0.33 -18.7 1 -21.74 c
0.49 -3.04 1.46 -5.95 2.91 -8.73 c
-12.52 0 p
-1.25 2.55 -2.04 5.54 -2.4 8.97 c
h
1337 741.92 0 4.52 P
-4.54 -1.74 -11.35 -3.22 -20.43 -4.44 c
-5.14 -0.74 -8.78 -1.57 -10.91 -2.48 c
-2.13 -0.92 -3.78 -2.27 -4.93 -4.04 c
-1.16 -1.77 -1.73 -3.73 -1.73 -5.89 c
0 -3.31 1.26 -6.07 3.79 -8.27 c
2.52 -2.21 6.21 -3.31 11.08 -3.31 c
4.82 0 9.1 1.04 12.85 3.11 c
3.75 2.07 6.5 4.91 8.27 8.51 c
1.34 2.78 2.02 6.88 2.02 12.3 c
h
f
1426 709.65 -11 0 0 9.19 P
-4.65 -7.23 -11.48 -10.84 -20.49 -10.84 c
-5.84 0 -11.2 1.6 -16.1 4.79 c
-4.89 3.2 -8.69 7.66 -11.38 13.38 c
-2.69 5.73 -4.03 12.31 -4.03 19.75 c
0 7.26 1.21 13.84 3.64 19.75 c
2.43 5.91 6.07 10.44 10.93 13.59 c
4.86 3.15 10.29 4.73 16.29 4.73 c
4.4 0 8.32 -0.9 11.75 -2.7 c
3.44 -1.8 6.23 -4.15 8.39 -7.04 c
0 35.96 12 0 h
1376 745.96 m
0 -9.37 1.95 -16.37 5.86 -21.01 c
3.91 -4.64 8.52 -6.96 13.84 -6.96 c
5.36 0 9.92 2.21 13.67 6.65 c
3.75 4.43 5.63 11.19 5.63 20.28 c
0 10.01 -1.91 17.36 -5.73 22.04 c
-3.82 4.68 -8.52 7.03 -14.11 7.03 c
-5.45 0 -10.01 -2.25 -13.67 -6.75 c
-3.66 -4.5 -5.49 -11.59 -5.49 -21.28 c
h
f
1504 709.65 -11 0 0 10.71 P
-5.68 -8.24 -13.38 -12.36 -23.11 -12.36 c
-4.3 0 -8.31 0.82 -12.04 2.47 c
-3.73 1.65 -6.49 3.72 -8.29 6.21 c
-1.81 2.5 -3.07 5.55 -3.81 9.17 c
-0.5 2.43 -0.75 6.27 -0.75 11.54 c
0 45.2 12 0 0 -40.23 p
0 -6.42 0.25 -10.75 0.77 -12.98 c
0.79 -3.23 2.47 -5.77 5.03 -7.62 c
2.56 -1.84 5.73 -2.77 9.5 -2.77 c
3.77 0 7.31 0.95 10.62 2.84 c
3.3 1.89 5.64 4.46 7.02 7.72 c
1.38 3.25 2.06 7.98 2.06 14.18 c
0 38.87 12 0 h
f
1580.99 710 -64.26 0 0 9.98 46.21 53.05 P
-5.24 -0.02 -9.87 -0.03 -13.87 -0.03 c
-29.6 0 0 10 59.34 0 0 -8.19 -39.3 -46.37 -7.59 -8.46 p
5.51 0.68 10.69 1.02 15.52 1.02 c
33.56 0 h
f
1605 796 -12 0 0 14 ^ H
1605 710 -12 0 0 72.6 ^ H
f
1683 709.65 -11 0 0 9.19 P
-4.65 -7.23 -11.48 -10.84 -20.49 -10.84 c
-5.84 0 -11.2 1.6 -16.1 4.79 c
-4.89 3.2 -8.69 7.66 -11.38 13.38 c
-2.69 5.73 -4.03 12.31 -4.03 19.75 c
0 7.26 1.21 13.84 3.64 19.75 c
2.43 5.91 6.07 10.44 10.93 13.59 c
4.86 3.15 10.29 4.73 16.29 4.73 c
4.4 0 8.32 -0.9 11.75 -2.7 c
3.44 -1.8 6.23 -4.15 8.39 -7.04 c
0 35.96 12 0 h
1633 745.96 m
0 -9.37 1.95 -16.37 5.86 -21.01 c
3.91 -4.64 8.52 -6.96 13.84 -6.96 c
5.36 0 9.92 2.21 13.67 6.65 c
3.75 4.43 5.63 11.19 5.63 20.28 c
0 10.01 -1.91 17.36 -5.73 22.04 c
-3.82 4.68 -8.52 7.03 -14.11 7.03 c
-5.45 0 -10.01 -2.25 -13.67 -6.75 c
-3.66 -4.5 -5.49 -11.59 -5.49 -21.28 c
h
f
1697 746 m
0 13.46 3.79 23.43 11.37 29.92 c
6.34 5.38 14.05 8.09 23.16 8.09 c
10.13 0 18.4 -3.29 24.83 -9.83 c
6.43 -6.55 9.64 -15.6 9.64 -27.14 c
0 -9.36 -1.43 -16.72 -4.27 -22.08 c
-2.84 -5.36 -6.98 -9.53 -12.41 -12.5 c
-5.43 -2.96 -11.36 -4.45 -17.79 -4.45 c
-10.31 0 -18.64 3.26 -25 9.79 c
-6.36 6.53 -9.54 15.93 -9.54 28.21 c
h
1710 746.04 m
0 -9.37 2.04 -16.38 6.12 -21.04 c
4.08 -4.66 9.22 -6.99 15.41 -6.99 c
6.14 0 11.26 2.34 15.34 7.03 c
4.08 4.68 6.13 11.82 6.13 21.42 c
0 9.05 -2.06 15.9 -6.16 20.56 c
-4.11 4.66 -9.21 6.99 -15.31 6.99 c
-6.19 0 -11.33 -2.32 -15.41 -6.96 c
-4.08 -4.64 -6.12 -11.64 -6.12 -21 c
h
f
1768.88 682 81.5508 9 re
f
1901 810.63 0 -100.62 -12 0 0 78.41 P
-2.98 -2.83 -6.89 -5.65 -11.73 -8.48 c
-4.84 -2.83 -9.18 -4.95 -13.03 -6.36 c
0 11.89 p
6.85 3.23 12.84 7.15 17.96 11.76 c
5.13 4.6 8.76 9.07 10.89 13.4 c
h
f
126.93 572.38 12.71 -1.6 P
-2.01 -7.54 -5.72 -13.38 -11.14 -17.54 c
-5.43 -4.16 -12.35 -6.24 -20.78 -6.24 c
-10.62 0 -19.04 3.28 -25.26 9.84 c
-6.22 6.56 -9.33 15.77 -9.33 27.61 c
0 12.25 3.14 21.77 9.43 28.55 c
6.29 6.66 14.45 10 24.47 10 c
9.71 0 17.64 -3.3 23.79 -9.89 c
6.15 -6.6 9.23 -15.87 9.23 -27.83 c
0 -0.73 -0.02 -1.82 -0.07 -3.27 c
-54.14 0 p
0.45 -8.08 2.71 -14.27 6.77 -18.56 c
4.05 -4.29 9.11 -6.44 15.18 -6.44 c
4.51 0 8.36 1.22 11.55 3.67 c
3.19 2.45 5.71 6.35 7.59 11.71 c
h
86.53 592 40.54 0 P
-0.55 6.15 -2.1 10.76 -4.65 13.84 c
-3.92 4.77 -9 7.16 -15.24 7.16 c
-5.65 0 -10.41 -1.91 -14.25 -5.71 c
-3.85 -3.81 -5.98 -8.91 -6.39 -15.29 c
h
f
153.996 549 12.0039 100.215 re
f
180.31 570.64 12.18 1.95 P
0.68 -5.03 2.59 -8.89 5.71 -11.57 c
3.13 -2.68 7.49 -4.02 13.11 -4.02 c
5.66 0 9.85 1.16 12.59 3.46 c
2.74 2.31 4.11 5.02 4.11 8.13 c
0 2.79 -1.22 4.98 -3.66 6.58 c
-1.7 1.1 -5.93 2.49 -12.69 4.19 c
-9.1 2.29 -15.41 4.26 -18.93 5.93 c
-3.52 1.67 -6.18 3.98 -8 6.93 c
-1.82 2.95 -2.72 6.21 -2.72 9.77 c
0 3.25 0.75 6.25 2.23 9.02 c
1.49 2.77 3.52 5.06 6.09 6.89 c
1.93 1.42 4.55 2.62 7.88 3.6 c
3.32 0.98 6.89 1.49 10.7 1.49 c
5.73 0 10.77 -0.82 15.1 -2.44 c
4.34 -1.62 7.54 -3.82 9.6 -6.59 c
2.07 -2.77 3.48 -6.48 4.27 -11.12 c
-12.11 -1.62 p
-0.55 3.7 -2.14 6.58 -4.78 8.66 c
-2.64 2.07 -6.36 3.12 -11.17 3.12 c
-5.68 0 -9.74 -0.95 -12.17 -2.82 c
-2.43 -1.88 -3.64 -4.07 -3.64 -6.59 c
0 -1.6 0.51 -3.04 1.52 -4.32 c
1.02 -1.33 2.61 -2.43 4.79 -3.29 c
1.25 -0.46 4.92 -1.51 11.02 -3.16 c
8.82 -2.33 14.98 -4.24 18.47 -5.73 c
3.48 -1.49 6.22 -3.65 8.21 -6.48 c
1.99 -2.84 2.99 -6.36 2.99 -10.56 c
0 -4.11 -1.21 -7.99 -3.62 -11.62 c
-2.41 -3.64 -5.88 -6.45 -10.42 -8.44 c
-4.54 -1.99 -9.68 -2.98 -15.41 -2.98 c
-9.5 0 -16.73 1.99 -21.71 5.96 c
-4.98 3.98 -8.15 9.87 -9.53 17.68 c
h
f
267 635 -12 0 0 14 ^ H
267 549 -12 0 0 72.6 ^ H
f
301 549 -12 0 0 63 -10.7 0 0 10 ^ 0 7.64 P
0 4.82 0.44 8.4 1.3 10.75 c
1.19 3.16 3.29 5.71 6.29 7.67 c
3 1.96 7.2 2.95 12.61 2.95 c
3.48 0 7.33 -0.41 11.55 -1.24 c
-1.89 -10.8 p
-2.61 0.69 -5.07 1.04 -7.39 1.04 c
-3.82 0 -6.52 -0.8 -8.09 -2.39 c
-1.58 -1.59 -2.37 -4.57 -2.37 -8.93 c
0 -6.68 14.55 0 0 -10 ^ h
f
396.56 519.54 -8.95 0 P
-6.89 8.57 -12.71 18.59 -17.48 30.08 c
-4.76 11.48 -7.14 23.38 -7.14 35.68 c
0 10.84 1.78 21.23 5.34 31.17 c
4.16 11.53 10.59 23.01 19.28 34.45 c
8.95 0 p
-5.55 -9.48 -9.22 -16.25 -11 -20.3 c
-2.8 -6.29 -5 -12.85 -6.6 -19.69 c
-1.97 -8.52 -2.96 -17.09 -2.96 -25.7 c
0 -21.92 6.85 -43.82 20.56 -65.69 c
h
f
460.93 572.38 12.71 -1.6 P
-2.01 -7.54 -5.72 -13.38 -11.14 -17.54 c
-5.43 -4.16 -12.35 -6.24 -20.78 -6.24 c
-10.62 0 -19.04 3.28 -25.26 9.84 c
-6.22 6.56 -9.33 15.77 -9.33 27.61 c
0 12.25 3.14 21.77 9.43 28.55 c
6.29 6.66 14.45 10 24.47 10 c
9.71 0 17.64 -3.3 23.79 -9.89 c
6.15 -6.6 9.23 -15.87 9.23 -27.83 c
0 -0.73 -0.02 -1.82 -0.07 -3.27 c
-54.14 0 p
0.45 -8.08 2.71 -14.27 6.77 -18.56 c
4.05 -4.29 9.11 -6.44 15.18 -6.44 c
4.51 0 8.36 1.22 11.55 3.67 c
3.19 2.45 5.71 6.35 7.59 11.71 c
h
420.53 592 40.54 0 P
-0.55 6.15 -2.1 10.76 -4.65 13.84 c
-3.92 4.77 -9 7.16 -15.24 7.16 c
-5.65 0 -10.41 -1.91 -14.25 -5.71 c
-3.85 -3.81 -5.98 -8.91 -6.39 -15.29 c
h
f
501 549 -12 0 0 72.35 11 0 0 -10.29 P
5.34 7.95 13.05 11.94 23.14 11.94 c
4.38 0 8.41 -0.8 12.08 -2.37 c
3.68 -1.57 6.43 -3.62 8.25 -6.16 c
1.82 -2.54 3.11 -5.56 3.84 -9.06 c
0.45 -2.27 0.7 -6.24 0.7 -11.92 c
0 -44.48 -12 0 0 43.75 p
0 4.96 -0.49 8.68 -1.46 11.14 c
-0.98 2.46 -2.7 4.43 -5.18 5.89 c
-2.48 1.46 -5.39 2.21 -8.73 2.21 c
-5.33 0 -9.94 -1.66 -13.81 -4.96 c
-3.87 -3.3 -5.81 -9.55 -5.81 -18.76 c
h
f
625 548.65 -11 0 0 9.19 P
-4.65 -7.23 -11.48 -10.84 -20.49 -10.84 c
-5.84 0 -11.2 1.6 -16.1 4.79 c
-4.89 3.2 -8.69 7.66 -11.38 13.38 c
-2.69 5.73 -4.03 12.31 -4.03 19.75 c
0 7.26 1.21 13.84 3.64 19.75 c
2.43 5.91 6.07 10.44 10.93 13.59 c
4.86 3.15 10.29 4.73 16.29 4.73 c
4.4 0 8.32 -0.9 11.75 -2.7 c
3.44 -1.8 6.23 -4.15 8.39 -7.04 c
0 35.96 12 0 h
575 584.96 m
0 -9.37 1.95 -16.37 5.86 -21.01 c
3.91 -4.64 8.52 -6.96 13.84 -6.96 c
5.36 0 9.92 2.21 13.67 6.65 c
3.75 4.43 5.63 11.19 5.63 20.28 c
0 10.01 -1.91 17.36 -5.73 22.04 c
-3.82 4.68 -8.52 7.03 -14.11 7.03 c
-5.45 0 -10.01 -2.25 -13.67 -6.75 c
-3.66 -4.5 -5.49 -11.59 -5.49 -21.28 c
h
f
693.93 572.38 12.71 -1.6 P
-2.01 -7.54 -5.72 -13.38 -11.14 -17.54 c
-5.43 -4.16 -12.35 -6.24 -20.78 -6.24 c
-10.62 0 -19.04 3.28 -25.26 9.84 c
-6.22 6.56 -9.33 15.77 -9.33 27.61 c
0 12.25 3.14 21.77 9.43 28.55 c
6.29 6.66 14.45 10 24.47 10 c
9.71 0 17.64 -3.3 23.79 -9.89 c
6.15 -6.6 9.23 -15.87 9.23 -27.83 c
0 -0.73 -0.02 -1.82 -0.07 -3.27 c
-54.14 0 p
0.45 -8.08 2.71 -14.27 6.77 -18.56 c
4.05 -4.29 9.11 -6.44 15.18 -6.44 c
4.51 0 8.36 1.22 11.55 3.67 c
3.19 2.45 5.71 6.35 7.59 11.71 c
h
653.53 592 40.54 0 P
-0.55 6.15 -2.1 10.76 -4.65 13.84 c
-3.92 4.77 -9 7.16 -15.24 7.16 c
-5.65 0 -10.41 -1.91 -14.25 -5.71 c
-3.85 -3.81 -5.98 -8.91 -6.39 -15.29 c
h
f
734 549 -12 0 0 72.35 11 0 0 -10.96 P
2.84 5.13 5.46 8.52 7.87 10.15 c
2.41 1.64 5.05 2.47 7.94 2.47 c
4.17 0 8.41 -1.3 12.72 -3.91 c
-4.3 -11.23 p
-3.05 1.43 -6.11 2.14 -9.16 2.14 c
-2.73 0 -5.18 -0.8 -7.35 -2.41 c
-2.18 -1.6 -3.72 -3.83 -4.65 -6.68 c
-1.39 -4.34 -2.08 -9.08 -2.08 -14.23 c
h
f
818.93 572.38 12.71 -1.6 P
-2.01 -7.54 -5.72 -13.38 -11.14 -17.54 c
-5.43 -4.16 -12.35 -6.24 -20.78 -6.24 c
-10.62 0 -19.04 3.28 -25.26 9.84 c
-6.22 6.56 -9.33 15.77 -9.33 27.61 c
0 12.25 3.14 21.77 9.43 28.55 c
6.29 6.66 14.45 10 24.47 10 c
9.71 0 17.64 -3.3 23.79 -9.89 c
6.15 -6.6 9.23 -15.87 9.23 -27.83 c
0 -0.73 -0.02 -1.82 -0.07 -3.27 c
-54.14 0 p
0.45 -8.08 2.71 -14.27 6.77 -18.56 c
4.05 -4.29 9.11 -6.44 15.18 -6.44 c
4.51 0 8.36 1.22 11.55 3.67 c
3.19 2.45 5.71 6.35 7.59 11.71 c
h
778.53 592 40.54 0 P
-0.55 6.15 -2.1 10.76 -4.65 13.84 c
-3.92 4.77 -9 7.16 -15.24 7.16 c
-5.65 0 -10.41 -1.91 -14.25 -5.71 c
-3.85 -3.81 -5.98 -8.91 -6.39 -15.29 c
h
f
893.57 575.54 12.13 -1.57 P
-1.34 -8.32 -4.75 -14.84 -10.23 -19.55 c
-5.48 -4.71 -12.22 -7.06 -20.21 -7.06 c
-10.01 0 -18.05 3.24 -24.13 9.71 c
-6.09 6.47 -9.12 15.75 -9.12 27.84 c
0 7.81 1.31 14.65 3.93 20.51 c
2.62 5.86 6.6 10.25 11.95 13.18 c
5.35 2.93 11.17 4.4 17.46 4.4 c
7.94 0 14.44 -1.98 19.49 -5.93 c
5.05 -3.95 8.29 -9.56 9.72 -16.82 c
-12 -1.82 p
-1.14 4.83 -3.16 8.47 -6.06 10.91 c
-2.9 2.44 -6.41 3.66 -10.52 3.66 c
-6.21 0 -11.26 -2.23 -15.14 -6.66 c
-3.88 -4.43 -5.82 -11.45 -5.82 -21.05 c
0 -9.73 1.87 -16.81 5.62 -21.22 c
3.75 -4.41 8.63 -6.62 14.66 -6.62 c
4.84 0 8.88 1.48 12.13 4.43 c
3.24 2.96 5.3 7.5 6.16 13.64 c
h
865.1 540.32 3.51 11.62 9.06 0 -2.23 -7.22 P
3.83 -0.45 6.71 -1.63 8.65 -3.54 c
1.94 -1.91 2.91 -4.04 2.91 -6.37 c
0 -3.37 -1.63 -6.35 -4.88 -8.93 c
-3.25 -2.59 -8.16 -3.87 -14.71 -3.87 c
-3.71 0 -6.96 0.26 -9.76 0.78 c
0.76 7.63 p
2.95 0.39 5.11 0.59 6.49 0.59 c
4.32 0 7.36 0.57 9.11 1.7 c
1.33 0.88 2 1.95 2 3.22 c
0 0.79 -0.27 1.49 -0.8 2.1 c
-0.53 0.61 -1.52 1.14 -2.95 1.58 c
-1.44 0.44 -3.82 0.68 -7.15 0.72 c
h
f
911 585 m
0 13.46 3.79 23.43 11.37 29.92 c
6.34 5.38 14.05 8.09 23.16 8.09 c
10.13 0 18.4 -3.29 24.83 -9.83 c
6.43 -6.55 9.64 -15.6 9.64 -27.14 c
0 -9.36 -1.43 -16.72 -4.27 -22.08 c
-2.84 -5.36 -6.98 -9.53 -12.41 -12.5 c
-5.43 -2.96 -11.36 -4.45 -17.79 -4.45 c
-10.31 0 -18.64 3.26 -25 9.79 c
-6.36 6.53 -9.54 15.93 -9.54 28.21 c
h
924 585.04 m
0 -9.37 2.04 -16.38 6.12 -21.04 c
4.08 -4.66 9.22 -6.99 15.41 -6.99 c
6.14 0 11.26 2.34 15.34 7.03 c
4.08 4.68 6.13 11.82 6.13 21.42 c
0 9.05 -2.06 15.9 -6.16 20.56 c
-4.11 4.66 -9.21 6.99 -15.31 6.99 c
-6.19 0 -11.33 -2.32 -15.41 -6.96 c
-4.08 -4.64 -6.12 -11.64 -6.12 -21 c
h
f
1097.96 619 0 -11 -66.17 0 ^ H
1097.96 589 0 -11 -66.17 0 ^ H
f
1179.96 619 0 -11 -66.17 0 ^ H
1179.96 589 0 -11 -66.17 0 ^ H
f
1284.93 572.38 12.71 -1.6 P
-2.01 -7.54 -5.72 -13.38 -11.14 -17.54 c
-5.43 -4.16 -12.35 -6.24 -20.78 -6.24 c
-10.62 0 -19.04 3.28 -25.26 9.84 c
-6.22 6.56 -9.33 15.77 -9.33 27.61 c
0 12.25 3.14 21.77 9.43 28.55 c
6.29 6.66 14.45 10 24.47 10 c
9.71 0 17.64 -3.3 23.79 -9.89 c
6.15 -6.6 9.23 -15.87 9.23 -27.83 c
0 -0.73 -0.02 -1.82 -0.07 -3.27 c
-54.14 0 p
0.45 -8.08 2.71 -14.27 6.77 -18.56 c
4.05 -4.29 9.11 -6.44 15.18 -6.44 c
4.51 0 8.36 1.22 11.55 3.67 c
3.19 2.45 5.71 6.35 7.59 11.71 c
h
1244.53 592 40.54 0 P
-0.55 6.15 -2.1 10.76 -4.65 13.84 c
-3.92 4.77 -9 7.16 -15.24 7.16 c
-5.65 0 -10.41 -1.91 -14.25 -5.71 c
-3.85 -3.81 -5.98 -8.91 -6.39 -15.29 c
h
f
1325 549 -12 0 0 72.35 11 0 0 -10.29 P
5.34 7.95 13.05 11.94 23.14 11.94 c
4.38 0 8.41 -0.8 12.08 -2.37 c
3.68 -1.57 6.43 -3.62 8.25 -6.16 c
1.82 -2.54 3.11 -5.56 3.84 -9.06 c
0.45 -2.27 0.7 -6.24 0.7 -11.92 c
0 -44.48 -12 0 0 43.75 p
0 4.96 -0.49 8.68 -1.46 11.14 c
-0.98 2.46 -2.7 4.43 -5.18 5.89 c
-2.48 1.46 -5.39 2.21 -8.73 2.21 c
-5.33 0 -9.94 -1.66 -13.81 -4.96 c
-3.87 -3.3 -5.81 -9.55 -5.81 -18.76 c
h
f
1450 548.65 -11 0 0 9.19 P
-4.65 -7.23 -11.48 -10.84 -20.49 -10.84 c
-5.84 0 -11.2 1.6 -16.1 4.79 c
-4.89 3.2 -8.69 7.66 -11.38 13.38 c
-2.69 5.73 -4.03 12.31 -4.03 19.75 c
0 7.26 1.21 13.84 3.64 19.75 c
2.43 5.91 6.07 10.44 10.93 13.59 c
4.86 3.15 10.29 4.73 16.29 4.73 c
4.4 0 8.32 -0.9 11.75 -2.7 c
3.44 -1.8 6.23 -4.15 8.39 -7.04 c
0 35.96 12 0 h
1400 584.96 m
0 -9.37 1.95 -16.37 5.86 -21.01 c
3.91 -4.64 8.52 -6.96 13.84 -6.96 c
5.36 0 9.92 2.21 13.67 6.65 c
3.75 4.43 5.63 11.19 5.63 20.28 c
0 10.01 -1.91 17.36 -5.73 22.04 c
-3.82 4.68 -8.52 7.03 -14.11 7.03 c
-5.45 0 -10.01 -2.25 -13.67 -6.75 c
-3.66 -4.5 -5.49 -11.59 -5.49 -21.28 c
h
f
1518.93 572.38 12.71 -1.6 P
-2.01 -7.54 -5.72 -13.38 -11.14 -17.54 c
-5.43 -4.16 -12.35 -6.24 -20.78 -6.24 c
-10.62 0 -19.04 3.28 -25.26 9.84 c
-6.22 6.56 -9.33 15.77 -9.33 27.61 c
0 12.25 3.14 21.77 9.43 28.55 c
6.29 6.66 14.45 10 24.47 10 c
9.71 0 17.64 -3.3 23.79 -9.89 c
6.15 -6.6 9.23 -15.87 9.23 -27.83 c
0 -0.73 -0.02 -1.82 -0.07 -3.27 c
-54.14 0 p
0.45 -8.08 2.71 -14.27 6.77 -18.56 c
4.05 -4.29 9.11 -6.44 15.18 -6.44 c
4.51 0 8.36 1.22 11.55 3.67 c
3.19 2.45 5.71 6.35 7.59 11.71 c
h
1478.53 592 40.54 0 P
-0.55 6.15 -2.1 10.76 -4.65 13.84 c
-3.92 4.77 -9 7.16 -15.24 7.16 c
-5.65 0 -10.41 -1.91 -14.25 -5.71 c
-3.85 -3.81 -5.98 -8.91 -6.39 -15.29 c
h
f
1558 549 -12 0 0 72.35 11 0 0 -10.96 P
2.84 5.13 5.46 8.52 7.87 10.15 c
2.41 1.64 5.05 2.47 7.94 2.47 c
4.17 0 8.41 -1.3 12.72 -3.91 c
-4.3 -11.23 p
-3.05 1.43 -6.11 2.14 -9.16 2.14 c
-2.73 0 -5.18 -0.8 -7.35 -2.41 c
-2.18 -1.6 -3.72 -3.83 -4.65 -6.68 c
-1.39 -4.34 -2.08 -9.08 -2.08 -14.23 c
h
f
1642.93 572.38 12.71 -1.6 P
-2.01 -7.54 -5.72 -13.38 -11.14 -17.54 c
-5.43 -4.16 -12.35 -6.24 -20.78 -6.24 c
-10.62 0 -19.04 3.28 -25.26 9.84 c
-6.22 6.56 -9.33 15.77 -9.33 27.61 c
0 12.25 3.14 21.77 9.43 28.55 c
6.29 6.66 14.45 10 24.47 10 c
9.71 0 17.64 -3.3 23.79 -9.89 c
6.15 -6.6 9.23 -15.87 9.23 -27.83 c
0 -0.73 -0.02 -1.82 -0.07 -3.27 c
-54.14 0 p
0.45 -8.08 2.71 -14.27 6.77 -18.56 c
4.05 -4.29 9.11 -6.44 15.18 -6.44 c
4.51 0 8.36 1.22 11.55 3.67 c
3.19 2.45 5.71 6.35 7.59 11.71 c
h
1602.53 592 40.54 0 P
-0.55 6.15 -2.1 10.76 -4.65 13.84 c
-3.92 4.77 -9 7.16 -15.24 7.16 c
-5.65 0 -10.41 -1.91 -14.25 -5.71 c
-3.85 -3.81 -5.98 -8.91 -6.39 -15.29 c
h
f
1718.57 575.54 12.13 -1.57 P
-1.34 -8.32 -4.75 -14.84 -10.23 -19.55 c
-5.48 -4.71 -12.22 -7.06 -20.21 -7.06 c
-10.01 0 -18.05 3.24 -24.13 9.71 c
-6.09 6.47 -9.12 15.75 -9.12 27.84 c
0 7.81 1.31 14.65 3.93 20.51 c
2.62 5.86 6.6 10.25 11.95 13.18 c
5.35 2.93 11.17 4.4 17.46 4.4 c
7.94 0 14.44 -1.98 19.49 -5.93 c
5.05 -3.95 8.29 -9.56 9.72 -16.82 c
-12 -1.82 p
-1.14 4.83 -3.16 8.47 -6.06 10.91 c
-2.9 2.44 -6.41 3.66 -10.52 3.66 c
-6.21 0 -11.26 -2.23 -15.14 -6.66 c
-3.88 -4.43 -5.82 -11.45 -5.82 -21.05 c
0 -9.73 1.87 -16.81 5.62 -21.22 c
3.75 -4.41 8.63 -6.62 14.66 -6.62 c
4.84 0 8.88 1.48 12.13 4.43 c
3.24 2.96 5.3 7.5 6.16 13.64 c
h
1690.1 540.32 3.51 11.62 9.06 0 -2.23 -7.22 P
3.83 -0.45 6.71 -1.63 8.65 -3.54 c
1.94 -1.91 2.91 -4.04 2.91 -6.37 c
0 -3.37 -1.63 -6.35 -4.88 -8.93 c
-3.25 -2.59 -8.16 -3.87 -14.71 -3.87 c
-3.71 0 -6.96 0.26 -9.76 0.78 c
0.76 7.63 p
2.95 0.39 5.11 0.59 6.49 0.59 c
4.32 0 7.36 0.57 9.11 1.7 c
1.33 0.88 2 1.95 2 3.22 c
0 0.79 -0.27 1.49 -0.8 2.1 c
-0.53 0.61 -1.52 1.14 -2.95 1.58 c
-1.44 0.44 -3.82 0.68 -7.15 0.72 c
h
f
1736 585 m
0 13.46 3.79 23.43 11.37 29.92 c
6.34 5.38 14.05 8.09 23.16 8.09 c
10.13 0 18.4 -3.29 24.83 -9.83 c
6.43 -6.55 9.64 -15.6 9.64 -27.14 c
0 -9.36 -1.43 -16.72 -4.27 -22.08 c
-2.84 -5.36 -6.98 -9.53 -12.41 -12.5 c
-5.43 -2.96 -11.36 -4.45 -17.79 -4.45 c
-10.31 0 -18.64 3.26 -25 9.79 c
-6.36 6.53 -9.54 15.93 -9.54 28.21 c
h
1749 585.04 m
0 -9.37 2.04 -16.38 6.12 -21.04 c
4.08 -4.66 9.22 -6.99 15.41 -6.99 c
6.14 0 11.26 2.34 15.34 7.03 c
4.08 4.68 6.13 11.82 6.13 21.42 c
0 9.05 -2.06 15.9 -6.16 20.56 c
-4.11 4.66 -9.21 6.99 -15.31 6.99 c
-6.19 0 -11.33 -2.32 -15.41 -6.96 c
-4.08 -4.64 -6.12 -11.64 -6.12 -21 c
h
f
1807.88 521 81.5508 9 re
f
1892 585 m
0 13.46 3.79 23.43 11.37 29.92 c
6.34 5.38 14.05 8.09 23.16 8.09 c
10.13 0 18.4 -3.29 24.83 -9.83 c
6.43 -6.55 9.64 -15.6 9.64 -27.14 c
0 -9.36 -1.43 -16.72 -4.27 -22.08 c
-2.84 -5.36 -6.98 -9.53 -12.41 -12.5 c
-5.43 -2.96 -11.36 -4.45 -17.79 -4.45 c
-10.31 0 -18.64 3.26 -25 9.79 c
-6.36 6.53 -9.54 15.93 -9.54 28.21 c
h
1905 585.04 m
0 -9.37 2.04 -16.38 6.12 -21.04 c
4.08 -4.66 9.22 -6.99 15.41 -6.99 c
6.14 0 11.26 2.34 15.34 7.03 c
4.08 4.68 6.13 11.82 6.13 21.42 c
0 9.05 -2.06 15.9 -6.16 20.56 c
-4.11 4.66 -9.21 6.99 -15.31 6.99 c
-6.19 0 -11.33 -2.32 -15.41 -6.96 c
-4.08 -4.64 -6.12 -11.64 -6.12 -21 c
h
f
1986 549 -12 0 0 72.35 11 0 0 -10.96 P
2.84 5.13 5.46 8.52 7.87 10.15 c
2.41 1.64 5.05 2.47 7.94 2.47 c
4.17 0 8.41 -1.3 12.72 -3.91 c
-4.3 -11.23 p
-3.05 1.43 -6.11 2.14 -9.16 2.14 c
-2.73 0 -5.18 -0.8 -7.35 -2.41 c
-2.18 -1.6 -3.72 -3.83 -4.65 -6.68 c
-1.39 -4.34 -2.08 -9.08 -2.08 -14.23 c
h
f
2033 635 -12 0 0 14 ^ H
2033 549 -12 0 0 72.6 ^ H
f
2049.46 542.98 11.96 -1.74 P
0.5 -3.61 1.89 -6.25 4.17 -7.9 c
3.05 -2.23 7.23 -3.34 12.51 -3.34 c
5.7 0 10.1 1.13 13.2 3.38 c
3.1 2.26 5.2 5.41 6.29 9.48 c
0.6 2.32 0.89 7.02 0.89 14.11 c
0 0.5 0 1.01 0 1.54 c
-5.38 -6.34 -12.08 -9.5 -20.11 -9.5 c
-9.98 0 -17.71 3.59 -23.18 10.76 c
-5.47 7.18 -8.2 15.79 -8.2 25.82 c
0 6.91 1.26 13.27 3.79 19.11 c
2.52 5.84 6.18 10.34 10.98 13.52 c
4.8 3.18 10.43 4.79 16.9 4.79 c
8.63 0 15.74 -3.45 21.34 -10.33 c
0 8.69 11 0 0 -62.33 p
0 -11.22 -1.15 -19.18 -3.45 -23.86 c
-2.3 -4.68 -5.95 -8.38 -10.94 -11.1 c
-4.99 -2.71 -11.13 -4.07 -18.43 -4.07 c
-8.66 0 -15.66 1.91 -20.99 5.73 c
-5.16 3.7 -7.73 9.2 -7.73 16.5 c
0 0.25 0 0.5 0.01 0.76 c
h
2060 586.47 m
0 -9.55 1.9 -16.51 5.7 -20.89 c
3.8 -4.39 8.55 -6.58 14.27 -6.58 c
5.67 0 10.43 2.18 14.27 6.54 c
3.84 4.36 5.77 11.2 5.77 20.52 c
0 8.91 -1.98 15.62 -5.93 20.14 c
-3.96 4.52 -8.73 6.8 -14.31 6.8 c
-5.49 0 -10.15 -2.24 -14 -6.7 c
-3.84 -4.45 -5.76 -11.06 -5.76 -19.83 c
h
f
2142 635 -12 0 0 14 ^ H
2142 549 -12 0 0 72.6 ^ H
f
2173 549 -12 0 0 72.35 11 0 0 -10.29 P
5.34 7.95 13.05 11.94 23.14 11.94 c
4.38 0 8.41 -0.8 12.08 -2.37 c
3.68 -1.57 6.43 -3.62 8.25 -6.16 c
1.82 -2.54 3.11 -5.56 3.84 -9.06 c
0.45 -2.27 0.7 -6.24 0.7 -11.92 c
0 -44.48 -12 0 0 43.75 p
0 4.96 -0.49 8.68 -1.46 11.14 c
-0.98 2.46 -2.7 4.43 -5.18 5.89 c
-2.48 1.46 -5.39 2.21 -8.73 2.21 c
-5.33 0 -9.94 -1.66 -13.81 -4.96 c
-3.87 -3.3 -5.81 -9.55 -5.81 -18.76 c
h
f
2287 557.61 m
-4.6 -3.88 -9.03 -6.62 -13.28 -8.21 c
-4.25 -1.6 -8.82 -2.4 -13.69 -2.4 c
-8.05 0 -14.23 1.97 -18.55 5.91 c
-4.32 3.95 -6.48 8.98 -6.48 15.12 c
0 3.6 0.82 6.88 2.45 9.86 c
1.63 2.98 3.77 5.36 6.42 7.16 c
2.64 1.8 5.63 3.16 8.94 4.08 c
2.44 0.64 6.12 1.27 11.04 1.87 c
10.03 1.17 17.41 2.57 22.16 4.2 c
0 1.67 0 2.73 0 3.18 c
0 4.96 -1.17 8.46 -3.51 10.49 c
-3.17 2.75 -7.87 4.13 -14.12 4.13 c
-5.83 0 -10.13 -1.01 -12.91 -3.03 c
-2.78 -2.02 -4.83 -5.59 -6.16 -10.72 c
-12.12 1.62 p
1.09 5.1 2.89 9.21 5.39 12.35 c
2.5 3.14 6.13 5.55 10.86 7.24 c
4.74 1.69 10.23 2.54 16.47 2.54 c
6.2 0 11.23 -0.74 15.1 -2.2 c
3.87 -1.46 6.72 -3.3 8.54 -5.51 c
1.82 -2.21 3.1 -5.01 3.82 -8.39 c
0.41 -2.1 0.63 -5.89 0.63 -11.36 c
0 -16.43 p
0 -11.46 0.33 -18.7 1 -21.74 c
0.49 -3.04 1.46 -5.95 2.91 -8.73 c
-12.52 0 p
-1.25 2.55 -2.04 5.54 -2.4 8.97 c
h
2286 580.92 0 4.52 P
-4.54 -1.74 -11.35 -3.22 -20.43 -4.44 c
-5.14 -0.74 -8.78 -1.57 -10.91 -2.48 c
-2.13 -0.92 -3.78 -2.27 -4.93 -4.04 c
-1.16 -1.77 -1.73 -3.73 -1.73 -5.89 c
0 -3.31 1.26 -6.07 3.79 -8.27 c
2.52 -2.21 6.21 -3.31 11.08 -3.31 c
4.82 0 9.1 1.04 12.85 3.11 c
3.75 2.07 6.5 4.91 8.27 8.51 c
1.34 2.78 2.02 6.88 2.02 12.3 c
h
f
2317 549 12.0039 100.215 re
f
2336.88 521 81.5508 9 re
f
2438.33 561 49.15 0 0 -12 -66.24 0 P
-0.01 0.24 -0.01 0.48 -0.01 0.72 c
0 2.72 0.48 5.35 1.46 7.88 c
1.69 4.54 4.41 9.01 8.14 13.41 c
3.73 4.4 9.13 9.49 16.19 15.27 c
10.95 8.98 18.36 16.11 22.21 21.36 c
3.85 5.25 5.78 10.21 5.78 14.89 c
0 4.9 -1.76 9.04 -5.27 12.41 c
-3.51 3.37 -8.08 5.06 -13.72 5.06 c
-5.96 0 -10.73 -1.83 -14.3 -5.48 c
-3.57 -3.66 -5.39 -8.71 -5.43 -15.18 c
-12.72 1.31 p
0.88 9.55 4.17 16.82 9.88 21.83 c
5.71 5 13.38 7.51 23 7.51 c
9.71 0 17.41 -2.68 23.07 -8.02 c
5.66 -5.34 8.5 -11.96 8.5 -19.87 c
0 -4.02 -0.84 -7.97 -2.5 -11.85 c
-1.66 -3.88 -4.42 -7.97 -8.28 -12.26 c
-3.86 -4.29 -10.26 -10.19 -19.22 -17.68 c
-7.48 -6.21 -12.28 -10.43 -14.4 -12.64 c
-2.12 -2.21 -3.88 -4.44 -5.27 -6.68 c
h
f
2512.41 519.54 -8.93 0 P
13.68 21.88 20.52 43.77 20.52 65.69 c
0 8.57 -0.98 17.07 -2.95 25.5 c
-1.56 6.84 -3.73 13.4 -6.52 19.69 c
-1.79 4.1 -5.47 10.94 -11.05 20.51 c
8.93 0 p
8.68 -11.44 15.1 -22.93 19.25 -34.45 c
3.55 -9.94 5.34 -20.33 5.34 -31.17 c
0 -12.3 -2.39 -24.2 -7.17 -35.68 c
-4.78 -11.48 -10.59 -21.51 -17.42 -30.08 c
h
f
229.46 381.98 11.96 -1.74 P
0.5 -3.61 1.89 -6.25 4.17 -7.9 c
3.05 -2.23 7.23 -3.34 12.51 -3.34 c
5.7 0 10.1 1.13 13.2 3.38 c
3.1 2.26 5.2 5.41 6.29 9.48 c
0.6 2.32 0.89 7.02 0.89 14.11 c
0 0.5 0 1.01 0 1.54 c
-5.38 -6.34 -12.08 -9.5 -20.11 -9.5 c
-9.98 0 -17.71 3.59 -23.18 10.76 c
-5.47 7.18 -8.2 15.79 -8.2 25.82 c
0 6.91 1.26 13.27 3.79 19.11 c
2.52 5.84 6.18 10.34 10.98 13.52 c
4.8 3.18 10.43 4.79 16.9 4.79 c
8.63 0 15.74 -3.45 21.34 -10.33 c
0 8.69 11 0 0 -62.33 p
0 -11.22 -1.15 -19.18 -3.45 -23.86 c
-2.3 -4.68 -5.95 -8.38 -10.94 -11.1 c
-4.99 -2.71 -11.13 -4.07 -18.43 -4.07 c
-8.66 0 -15.66 1.91 -20.99 5.73 c
-5.16 3.7 -7.73 9.2 -7.73 16.5 c
0 0.25 0 0.5 0.01 0.76 c
h
240 425.47 m
0 -9.55 1.9 -16.51 5.7 -20.89 c
3.8 -4.39 8.55 -6.58 14.27 -6.58 c
5.67 0 10.43 2.18 14.27 6.54 c
3.84 4.36 5.77 11.2 5.77 20.52 c
0 8.91 -1.98 15.62 -5.93 20.14 c
-3.96 4.52 -8.73 6.8 -14.31 6.8 c
-5.49 0 -10.15 -2.24 -14 -6.7 c
-3.84 -4.45 -5.76 -11.06 -5.76 -19.83 c
h
f
304 424 m
0 13.46 3.79 23.43 11.37 29.92 c
6.34 5.38 14.05 8.09 23.16 8.09 c
10.13 0 18.4 -3.29 24.83 -9.83 c
6.43 -6.55 9.64 -15.6 9.64 -27.14 c
0 -9.36 -1.43 -16.72 -4.27 -22.08 c
-2.84 -5.36 -6.98 -9.53 -12.41 -12.5 c
-5.43 -2.96 -11.36 -4.45 -17.79 -4.45 c
-10.31 0 -18.64 3.26 -25 9.79 c
-6.36 6.53 -9.54 15.93 -9.54 28.21 c
h
317 424.04 m
0 -9.37 2.04 -16.38 6.12 -21.04 c
4.08 -4.66 9.22 -6.99 15.41 -6.99 c
6.14 0 11.26 2.34 15.34 7.03 c
4.08 4.68 6.13 11.82 6.13 21.42 c
0 9.05 -2.06 15.9 -6.16 20.56 c
-4.11 4.66 -9.21 6.99 -15.31 6.99 c
-6.19 0 -11.33 -2.32 -15.41 -6.96 c
-4.08 -4.64 -6.12 -11.64 -6.12 -21 c
h
f
414.13 399.01 1.75 -10.91 P
-3.4 -0.73 -6.44 -1.1 -9.12 -1.1 c
-4.38 0 -7.77 0.71 -10.19 2.12 c
-2.41 1.41 -4.11 3.27 -5.09 5.57 c
-0.98 2.3 -1.47 7.14 -1.47 14.53 c
0 41.78 -9.54 0 0 10 ^ 0 17.69 12 7.27 0 -24.96 12.09 0 
0 -10 ^ 0 -42.86 p
0 -3.54 0.21 -5.82 0.63 -6.83 c
0.43 -1.01 1.12 -1.82 2.08 -2.41 c
0.96 -0.6 2.34 -0.9 4.12 -0.9 c
1.34 0 3.11 0.34 5.29 1.01 c
h
f
421 424 m
0 13.46 3.79 23.43 11.37 29.92 c
6.34 5.38 14.05 8.09 23.16 8.09 c
10.13 0 18.4 -3.29 24.83 -9.83 c
6.43 -6.55 9.64 -15.6 9.64 -27.14 c
0 -9.36 -1.43 -16.72 -4.27 -22.08 c
-2.84 -5.36 -6.98 -9.53 -12.41 -12.5 c
-5.43 -2.96 -11.36 -4.45 -17.79 -4.45 c
-10.31 0 -18.64 3.26 -25 9.79 c
-6.36 6.53 -9.54 15.93 -9.54 28.21 c
h
434 424.04 m
0 -9.37 2.04 -16.38 6.12 -21.04 c
4.08 -4.66 9.22 -6.99 15.41 -6.99 c
6.14 0 11.26 2.34 15.34 7.03 c
4.08 4.68 6.13 11.82 6.13 21.42 c
0 9.05 -2.06 15.9 -6.16 20.56 c
-4.11 4.66 -9.21 6.99 -15.31 6.99 c
-6.19 0 -11.33 -2.32 -15.41 -6.96 c
-4.08 -4.64 -6.12 -11.64 -6.12 -21 c
h
f
592.93 411.38 12.71 -1.6 P
-2.01 -7.54 -5.72 -13.38 -11.14 -17.54 c
-5.43 -4.16 -12.35 -6.24 -20.78 -6.24 c
-10.62 0 -19.04 3.28 -25.26 9.84 c
-6.22 6.56 -9.33 15.77 -9.33 27.61 c
0 12.25 3.14 21.77 9.43 28.55 c
6.29 6.66 14.45 10 24.47 10 c
9.71 0 17.64 -3.3 23.79 -9.89 c
6.15 -6.6 9.23 -15.87 9.23 -27.83 c
0 -0.73 -0.02 -1.82 -0.07 -3.27 c
-54.14 0 p
0.45 -8.08 2.71 -14.27 6.77 -18.56 c
4.05 -4.29 9.11 -6.44 15.18 -6.44 c
4.51 0 8.36 1.22 11.55 3.67 c
3.19 2.45 5.71 6.35 7.59 11.71 c
h
552.53 431 40.54 0 P
-0.55 6.15 -2.1 10.76 -4.65 13.84 c
-3.92 4.77 -9 7.16 -15.24 7.16 c
-5.65 0 -10.41 -1.91 -14.25 -5.71 c
-3.85 -3.81 -5.98 -8.91 -6.39 -15.29 c
h
f
633 388 -12 0 0 72.35 11 0 0 -10.29 P
5.34 7.95 13.05 11.94 23.14 11.94 c
4.38 0 8.41 -0.8 12.08 -2.37 c
3.68 -1.57 6.43 -3.62 8.25 -6.16 c
1.82 -2.54 3.11 -5.56 3.84 -9.06 c
0.45 -2.27 0.7 -6.24 0.7 -11.92 c
0 -44.48 -12 0 0 43.75 p
0 4.96 -0.49 8.68 -1.46 11.14 c
-0.98 2.46 -2.7 4.43 -5.18 5.89 c
-2.48 1.46 -5.39 2.21 -8.73 2.21 c
-5.33 0 -9.94 -1.66 -13.81 -4.96 c
-3.87 -3.3 -5.81 -9.55 -5.81 -18.76 c
h
f
757 387.65 -11 0 0 9.19 P
-4.65 -7.23 -11.48 -10.84 -20.49 -10.84 c
-5.84 0 -11.2 1.6 -16.1 4.79 c
-4.89 3.2 -8.69 7.66 -11.38 13.38 c
-2.69 5.73 -4.03 12.31 -4.03 19.75 c
0 7.26 1.21 13.84 3.64 19.75 c
2.43 5.91 6.07 10.44 10.93 13.59 c
4.86 3.15 10.29 4.73 16.29 4.73 c
4.4 0 8.32 -0.9 11.75 -2.7 c
3.44 -1.8 6.23 -4.15 8.39 -7.04 c
0 35.96 12 0 h
707 423.96 m
0 -9.37 1.95 -16.37 5.86 -21.01 c
3.91 -4.64 8.52 -6.96 13.84 -6.96 c
5.36 0 9.92 2.21 13.67 6.65 c
3.75 4.43 5.63 11.19 5.63 20.28 c
0 10.01 -1.91 17.36 -5.73 22.04 c
-3.82 4.68 -8.52 7.03 -14.11 7.03 c
-5.45 0 -10.01 -2.25 -13.67 -6.75 c
-3.66 -4.5 -5.49 -11.59 -5.49 -21.28 c
h
f
825.93 411.38 12.71 -1.6 P
-2.01 -7.54 -5.72 -13.38 -11.14 -17.54 c
-5.43 -4.16 -12.35 -6.24 -20.78 -6.24 c
-10.62 0 -19.04 3.28 -25.26 9.84 c
-6.22 6.56 -9.33 15.77 -9.33 27.61 c
0 12.25 3.14 21.77 9.43 28.55 c
6.29 6.66 14.45 10 24.47 10 c
9.71 0 17.64 -3.3 23.79 -9.89 c
6.15 -6.6 9.23 -15.87 9.23 -27.83 c
0 -0.73 -0.02 -1.82 -0.07 -3.27 c
-54.14 0 p
0.45 -8.08 2.71 -14.27 6.77 -18.56 c
4.05 -4.29 9.11 -6.44 15.18 -6.44 c
4.51 0 8.36 1.22 11.55 3.67 c
3.19 2.45 5.71 6.35 7.59 11.71 c
h
785.53 431 40.54 0 P
-0.55 6.15 -2.1 10.76 -4.65 13.84 c
-3.92 4.77 -9 7.16 -15.24 7.16 c
-5.65 0 -10.41 -1.91 -14.25 -5.71 c
-3.85 -3.81 -5.98 -8.91 -6.39 -15.29 c
h
f
866 388 -12 0 0 72.35 11 0 0 -10.96 P
2.84 5.13 5.46 8.52 7.87 10.15 c
2.41 1.64 5.05 2.47 7.94 2.47 c
4.17 0 8.41 -1.3 12.72 -3.91 c
-4.3 -11.23 p
-3.05 1.43 -6.11 2.14 -9.16 2.14 c
-2.73 0 -5.18 -0.8 -7.35 -2.41 c
-2.18 -1.6 -3.72 -3.83 -4.65 -6.68 c
-1.39 -4.34 -2.08 -9.08 -2.08 -14.23 c
h
f
950.93 411.38 12.71 -1.6 P
-2.01 -7.54 -5.72 -13.38 -11.14 -17.54 c
-5.43 -4.16 -12.35 -6.24 -20.78 -6.24 c
-10.62 0 -19.04 3.28 -25.26 9.84 c
-6.22 6.56 -9.33 15.77 -9.33 27.61 c
0 12.25 3.14 21.77 9.43 28.55 c
6.29 6.66 14.45 10 24.47 10 c
9.71 0 17.64 -3.3 23.79 -9.89 c
6.15 -6.6 9.23 -15.87 9.23 -27.83 c
0 -0.73 -0.02 -1.82 -0.07 -3.27 c
-54.14 0 p
0.45 -8.08 2.71 -14.27 6.77 -18.56 c
4.05 -4.29 9.11 -6.44 15.18 -6.44 c
4.51 0 8.36 1.22 11.55 3.67 c
3.19 2.45 5.71 6.35 7.59 11.71 c
h
910.53 431 40.54 0 P
-0.55 6.15 -2.1 10.76 -4.65 13.84 c
-3.92 4.77 -9 7.16 -15.24 7.16 c
-5.65 0 -10.41 -1.91 -14.25 -5.71 c
-3.85 -3.81 -5.98 -8.91 -6.39 -15.29 c
h
f
1026.57 414.54 12.13 -1.57 P
-1.34 -8.32 -4.75 -14.84 -10.23 -19.55 c
-5.48 -4.71 -12.22 -7.06 -20.21 -7.06 c
-10.01 0 -18.05 3.24 -24.13 9.71 c
-6.09 6.47 -9.12 15.75 -9.12 27.84 c
0 7.81 1.31 14.65 3.93 20.51 c
2.62 5.86 6.6 10.25 11.95 13.18 c
5.35 2.93 11.17 4.4 17.46 4.4 c
7.94 0 14.44 -1.98 19.49 -5.93 c
5.05 -3.95 8.29 -9.56 9.72 -16.82 c
-12 -1.82 p
-1.14 4.83 -3.16 8.47 -6.06 10.91 c
-2.9 2.44 -6.41 3.66 -10.52 3.66 c
-6.21 0 -11.26 -2.23 -15.14 -6.66 c
-3.88 -4.43 -5.82 -11.45 -5.82 -21.05 c
0 -9.73 1.87 -16.81 5.62 -21.22 c
3.75 -4.41 8.63 -6.62 14.66 -6.62 c
4.84 0 8.88 1.48 12.13 4.43 c
3.24 2.96 5.3 7.5 6.16 13.64 c
h
998.1 379.32 3.51 11.62 9.06 0 -2.23 -7.22 P
3.83 -0.45 6.71 -1.63 8.65 -3.54 c
1.94 -1.91 2.91 -4.04 2.91 -6.37 c
0 -3.37 -1.63 -6.35 -4.88 -8.93 c
-3.25 -2.59 -8.16 -3.87 -14.71 -3.87 c
-3.71 0 -6.96 0.26 -9.76 0.78 c
0.76 7.63 p
2.95 0.39 5.11 0.59 6.49 0.59 c
4.32 0 7.36 0.57 9.11 1.7 c
1.33 0.88 2 1.95 2 3.22 c
0 0.79 -0.27 1.49 -0.8 2.1 c
-0.53 0.61 -1.52 1.14 -2.95 1.58 c
-1.44 0.44 -3.82 0.68 -7.15 0.72 c
h
f
1044 424 m
0 13.46 3.79 23.43 11.37 29.92 c
6.34 5.38 14.05 8.09 23.16 8.09 c
10.13 0 18.4 -3.29 24.83 -9.83 c
6.43 -6.55 9.64 -15.6 9.64 -27.14 c
0 -9.36 -1.43 -16.72 -4.27 -22.08 c
-2.84 -5.36 -6.98 -9.53 -12.41 -12.5 c
-5.43 -2.96 -11.36 -4.45 -17.79 -4.45 c
-10.31 0 -18.64 3.26 -25 9.79 c
-6.36 6.53 -9.54 15.93 -9.54 28.21 c
h
1057 424.04 m
0 -9.37 2.04 -16.38 6.12 -21.04 c
4.08 -4.66 9.22 -6.99 15.41 -6.99 c
6.14 0 11.26 2.34 15.34 7.03 c
4.08 4.68 6.13 11.82 6.13 21.42 c
0 9.05 -2.06 15.9 -6.16 20.56 c
-4.11 4.66 -9.21 6.99 -15.31 6.99 c
-6.19 0 -11.33 -2.32 -15.41 -6.96 c
-4.08 -4.64 -6.12 -11.64 -6.12 -21 c
h
f
1114.88 360 81.5508 9 re
f
1231.13 399.01 1.75 -10.91 P
-3.4 -0.73 -6.44 -1.1 -9.12 -1.1 c
-4.38 0 -7.77 0.71 -10.19 2.12 c
-2.41 1.41 -4.11 3.27 -5.09 5.57 c
-0.98 2.3 -1.47 7.14 -1.47 14.53 c
0 41.78 -9.54 0 0 10 ^ 0 17.69 12 7.27 0 -24.96 12.09 0 
0 -10 ^ 0 -42.86 p
0 -3.54 0.21 -5.82 0.63 -6.83 c
0.43 -1.01 1.12 -1.82 2.08 -2.41 c
0.96 -0.6 2.34 -0.9 4.12 -0.9 c
1.34 0 3.11 0.34 5.29 1.01 c
h
f
1255 388 -12 0 0 72.35 11 0 0 -10.96 P
2.84 5.13 5.46 8.52 7.87 10.15 c
2.41 1.64 5.05 2.47 7.94 2.47 c
4.17 0 8.41 -1.3 12.72 -3.91 c
-4.3 -11.23 p
-3.05 1.43 -6.11 2.14 -9.16 2.14 c
-2.73 0 -5.18 -0.8 -7.35 -2.41 c
-2.18 -1.6 -3.72 -3.83 -4.65 -6.68 c
-1.39 -4.34 -2.08 -9.08 -2.08 -14.23 c
h
f
1338 396.61 m
-4.6 -3.88 -9.03 -6.62 -13.28 -8.21 c
-4.25 -1.6 -8.82 -2.4 -13.69 -2.4 c
-8.05 0 -14.23 1.97 -18.55 5.91 c
-4.32 3.95 -6.48 8.98 -6.48 15.12 c
0 3.6 0.82 6.88 2.45 9.86 c
1.63 2.98 3.77 5.36 6.42 7.16 c
2.64 1.8 5.63 3.16 8.94 4.08 c
2.44 0.64 6.12 1.27 11.04 1.87 c
10.03 1.17 17.41 2.57 22.16 4.2 c
0 1.67 0 2.73 0 3.18 c
0 4.96 -1.17 8.46 -3.51 10.49 c
-3.17 2.75 -7.87 4.13 -14.12 4.13 c
-5.83 0 -10.13 -1.01 -12.91 -3.03 c
-2.78 -2.02 -4.83 -5.59 -6.16 -10.72 c
-12.12 1.62 p
1.09 5.1 2.89 9.21 5.39 12.35 c
2.5 3.14 6.13 5.55 10.86 7.24 c
4.74 1.69 10.23 2.54 16.47 2.54 c
6.2 0 11.23 -0.74 15.1 -2.2 c
3.87 -1.46 6.72 -3.3 8.54 -5.51 c
1.82 -2.21 3.1 -5.01 3.82 -8.39 c
0.41 -2.1 0.63 -5.89 0.63 -11.36 c
0 -16.43 p
0 -11.46 0.33 -18.7 1 -21.74 c
0.49 -3.04 1.46 -5.95 2.91 -8.73 c
-12.52 0 p
-1.25 2.55 -2.04 5.54 -2.4 8.97 c
h
1337 419.92 0 4.52 P
-4.54 -1.74 -11.35 -3.22 -20.43 -4.44 c
-5.14 -0.74 -8.78 -1.57 -10.91 -2.48 c
-2.13 -0.92 -3.78 -2.27 -4.93 -4.04 c
-1.16 -1.77 -1.73 -3.73 -1.73 -5.89 c
0 -3.31 1.26 -6.07 3.79 -8.27 c
2.52 -2.21 6.21 -3.31 11.08 -3.31 c
4.82 0 9.1 1.04 12.85 3.11 c
3.75 2.07 6.5 4.91 8.27 8.51 c
1.34 2.78 2.02 6.88 2.02 12.3 c
h
f
1426 387.65 -11 0 0 9.19 P
-4.65 -7.23 -11.48 -10.84 -20.49 -10.84 c
-5.84 0 -11.2 1.6 -16.1 4.79 c
-4.89 3.2 -8.69 7.66 -11.38 13.38 c
-2.69 5.73 -4.03 12.31 -4.03 19.75 c
0 7.26 1.21 13.84 3.64 19.75 c
2.43 5.91 6.07 10.44 10.93 13.59 c
4.86 3.15 10.29 4.73 16.29 4.73 c
4.4 0 8.32 -0.9 11.75 -2.7 c
3.44 -1.8 6.23 -4.15 8.39 -7.04 c
0 35.96 12 0 h
1376 423.96 m
0 -9.37 1.95 -16.37 5.86 -21.01 c
3.91 -4.64 8.52 -6.96 13.84 -6.96 c
5.36 0 9.92 2.21 13.67 6.65 c
3.75 4.43 5.63 11.19 5.63 20.28 c
0 10.01 -1.91 17.36 -5.73 22.04 c
-3.82 4.68 -8.52 7.03 -14.11 7.03 c
-5.45 0 -10.01 -2.25 -13.67 -6.75 c
-3.66 -4.5 -5.49 -11.59 -5.49 -21.28 c
h
f
1504 387.65 -11 0 0 10.71 P
-5.68 -8.24 -13.38 -12.36 -23.11 -12.36 c
-4.3 0 -8.31 0.82 -12.04 2.47 c
-3.73 1.65 -6.49 3.72 -8.29 6.21 c
-1.81 2.5 -3.07 5.55 -3.81 9.17 c
-0.5 2.43 -0.75 6.27 -0.75 11.54 c
0 45.2 12 0 0 -40.23 p
0 -6.42 0.25 -10.75 0.77 -12.98 c
0.79 -3.23 2.47 -5.77 5.03 -7.62 c
2.56 -1.84 5.73 -2.77 9.5 -2.77 c
3.77 0 7.31 0.95 10.62 2.84 c
3.3 1.89 5.64 4.46 7.02 7.72 c
1.38 3.25 2.06 7.98 2.06 14.18 c
0 38.87 12 0 h
f
1580.99 388 -64.26 0 0 9.98 46.21 53.05 P
-5.24 -0.02 -9.87 -0.03 -13.87 -0.03 c
-29.6 0 0 10 59.34 0 0 -8.19 -39.3 -46.37 -7.59 -8.46 p
5.51 0.68 10.69 1.02 15.52 1.02 c
33.56 0 h
f
1605 474 -12 0 0 14 ^ H
1605 388 -12 0 0 72.6 ^ H
f
1683 387.65 -11 0 0 9.19 P
-4.65 -7.23 -11.48 -10.84 -20.49 -10.84 c
-5.84 0 -11.2 1.6 -16.1 4.79 c
-4.89 3.2 -8.69 7.66 -11.38 13.38 c
-2.69 5.73 -4.03 12.31 -4.03 19.75 c
0 7.26 1.21 13.84 3.64 19.75 c
2.43 5.91 6.07 10.44 10.93 13.59 c
4.86 3.15 10.29 4.73 16.29 4.73 c
4.4 0 8.32 -0.9 11.75 -2.7 c
3.44 -1.8 6.23 -4.15 8.39 -7.04 c
0 35.96 12 0 h
1633 423.96 m
0 -9.37 1.95 -16.37 5.86 -21.01 c
3.91 -4.64 8.52 -6.96 13.84 -6.96 c
5.36 0 9.92 2.21 13.67 6.65 c
3.75 4.43 5.63 11.19 5.63 20.28 c
0 10.01 -1.91 17.36 -5.73 22.04 c
-3.82 4.68 -8.52 7.03 -14.11 7.03 c
-5.45 0 -10.01 -2.25 -13.67 -6.75 c
-3.66 -4.5 -5.49 -11.59 -5.49 -21.28 c
h
f
1697 424 m
0 13.46 3.79 23.43 11.37 29.92 c
6.34 5.38 14.05 8.09 23.16 8.09 c
10.13 0 18.4 -3.29 24.83 -9.83 c
6.43 -6.55 9.64 -15.6 9.64 -27.14 c
0 -9.36 -1.43 -16.72 -4.27 -22.08 c
-2.84 -5.36 -6.98 -9.53 -12.41 -12.5 c
-5.43 -2.96 -11.36 -4.45 -17.79 -4.45 c
-10.31 0 -18.64 3.26 -25 9.79 c
-6.36 6.53 -9.54 15.93 -9.54 28.21 c
h
1710 424.04 m
0 -9.37 2.04 -16.38 6.12 -21.04 c
4.08 -4.66 9.22 -6.99 15.41 -6.99 c
6.14 0 11.26 2.34 15.34 7.03 c
4.08 4.68 6.13 11.82 6.13 21.42 c
0 9.05 -2.06 15.9 -6.16 20.56 c
-4.11 4.66 -9.21 6.99 -15.31 6.99 c
-6.19 0 -11.33 -2.32 -15.41 -6.96 c
-4.08 -4.64 -6.12 -11.64 -6.12 -21 c
h
f
1768.88 360 81.5508 9 re
f
1870.33 400 49.15 0 0 -12 -66.24 0 P
-0.01 0.24 -0.01 0.48 -0.01 0.72 c
0 2.72 0.48 5.35 1.46 7.88 c
1.69 4.54 4.41 9.01 8.14 13.41 c
3.73 4.4 9.13 9.49 16.19 15.27 c
10.95 8.98 18.36 16.11 22.21 21.36 c
3.85 5.25 5.78 10.21 5.78 14.89 c
0 4.9 -1.76 9.04 -5.27 12.41 c
-3.51 3.37 -8.08 5.06 -13.72 5.06 c
-5.96 0 -10.73 -1.83 -14.3 -5.48 c
-3.57 -3.66 -5.39 -8.71 -5.43 -15.18 c
-12.72 1.31 p
0.88 9.55 4.17 16.82 9.88 21.83 c
5.71 5 13.38 7.51 23 7.51 c
9.71 0 17.41 -2.68 23.07 -8.02 c
5.66 -5.34 8.5 -11.96 8.5 -19.87 c
0 -4.02 -0.84 -7.97 -2.5 -11.85 c
-1.66 -3.88 -4.42 -7.97 -8.28 -12.26 c
-3.86 -4.29 -10.26 -10.19 -19.22 -17.68 c
-7.48 -6.21 -12.28 -10.43 -14.4 -12.64 c
-2.12 -2.21 -3.88 -4.44 -5.27 -6.68 c
h
f
126.93 250.38 12.71 -1.6 P
-2.01 -7.54 -5.72 -13.38 -11.14 -17.54 c
-5.43 -4.16 -12.35 -6.24 -20.78 -6.24 c
-10.62 0 -19.04 3.28 -25.26 9.84 c
-6.22 6.56 -9.33 15.77 -9.33 27.61 c
0 12.25 3.14 21.77 9.43 28.55 c
6.29 6.66 14.45 10 24.47 10 c
9.71 0 17.64 -3.3 23.79 -9.89 c
6.15 -6.6 9.23 -15.87 9.23 -27.83 c
0 -0.73 -0.02 -1.82 -0.07 -3.27 c
-54.14 0 p
0.45 -8.08 2.71 -14.27 6.77 -18.56 c
4.05 -4.29 9.11 -6.44 15.18 -6.44 c
4.51 0 8.36 1.22 11.55 3.67 c
3.19 2.45 5.71 6.35 7.59 11.71 c
h
86.53 270 40.54 0 P
-0.55 6.15 -2.1 10.76 -4.65 13.84 c
-3.92 4.77 -9 7.16 -15.24 7.16 c
-5.65 0 -10.41 -1.91 -14.25 -5.71 c
-3.85 -3.81 -5.98 -8.91 -6.39 -15.29 c
h
f
153.996 227 12.0039 100.215 re
f
180.31 248.64 12.18 1.95 P
0.68 -5.03 2.59 -8.89 5.71 -11.57 c
3.13 -2.68 7.49 -4.02 13.11 -4.02 c
5.66 0 9.85 1.16 12.59 3.46 c
2.74 2.31 4.11 5.02 4.11 8.13 c
0 2.79 -1.22 4.98 -3.66 6.58 c
-1.7 1.1 -5.93 2.49 -12.69 4.19 c
-9.1 2.29 -15.41 4.26 -18.93 5.93 c
-3.52 1.67 -6.18 3.98 -8 6.93 c
-1.82 2.95 -2.72 6.21 -2.72 9.77 c
0 3.25 0.75 6.25 2.23 9.02 c
1.49 2.77 3.52 5.06 6.09 6.89 c
1.93 1.42 4.55 2.62 7.88 3.6 c
3.32 0.98 6.89 1.49 10.7 1.49 c
5.73 0 10.77 -0.82 15.1 -2.44 c
4.34 -1.62 7.54 -3.82 9.6 -6.59 c
2.07 -2.77 3.48 -6.48 4.27 -11.12 c
-12.11 -1.62 p
-0.55 3.7 -2.14 6.58 -4.78 8.66 c
-2.64 2.07 -6.36 3.12 -11.17 3.12 c
-5.68 0 -9.74 -0.95 -12.17 -2.82 c
-2.43 -1.88 -3.64 -4.07 -3.64 -6.59 c
0 -1.6 0.51 -3.04 1.52 -4.32 c
1.02 -1.33 2.61 -2.43 4.79 -3.29 c
1.25 -0.46 4.92 -1.51 11.02 -3.16 c
8.82 -2.33 14.98 -4.24 18.47 -5.73 c
3.48 -1.49 6.22 -3.65 8.21 -6.48 c
1.99 -2.84 2.99 -6.36 2.99 -10.56 c
0 -4.11 -1.21 -7.99 -3.62 -11.62 c
-2.41 -3.64 -5.88 -6.45 -10.42 -8.44 c
-4.54 -1.99 -9.68 -2.98 -15.41 -2.98 c
-9.5 0 -16.73 1.99 -21.71 5.96 c
-4.98 3.98 -8.15 9.87 -9.53 17.68 c
h
f
304.93 250.38 12.71 -1.6 P
-2.01 -7.54 -5.72 -13.38 -11.14 -17.54 c
-5.43 -4.16 -12.35 -6.24 -20.78 -6.24 c
-10.62 0 -19.04 3.28 -25.26 9.84 c
-6.22 6.56 -9.33 15.77 -9.33 27.61 c
0 12.25 3.14 21.77 9.43 28.55 c
6.29 6.66 14.45 10 24.47 10 c
9.71 0 17.64 -3.3 23.79 -9.89 c
6.15 -6.6 9.23 -15.87 9.23 -27.83 c
0 -0.73 -0.02 -1.82 -0.07 -3.27 c
-54.14 0 p
0.45 -8.08 2.71 -14.27 6.77 -18.56 c
4.05 -4.29 9.11 -6.44 15.18 -6.44 c
4.51 0 8.36 1.22 11.55 3.67 c
3.19 2.45 5.71 6.35 7.59 11.71 c
h
264.53 270 40.54 0 P
-0.55 6.15 -2.1 10.76 -4.65 13.84 c
-3.92 4.77 -9 7.16 -15.24 7.16 c
-5.65 0 -10.41 -1.91 -14.25 -5.71 c
-3.85 -3.81 -5.98 -8.91 -6.39 -15.29 c
h
f
229.46 59.98 11.96 -1.74 P
0.5 -3.61 1.89 -6.25 4.17 -7.9 c
3.05 -2.23 7.23 -3.34 12.51 -3.34 c
5.7 0 10.1 1.13 13.2 3.38 c
3.1 2.26 5.2 5.41 6.29 9.48 c
0.6 2.32 0.89 7.02 0.89 14.11 c
0 0.5 0 1.01 0 1.54 c
-5.38 -6.34 -12.08 -9.5 -20.11 -9.5 c
-9.98 0 -17.71 3.59 -23.18 10.76 c
-5.47 7.18 -8.2 15.79 -8.2 25.82 c
0 6.91 1.26 13.27 3.79 19.11 c
2.52 5.84 6.18 10.34 10.98 13.52 c
4.8 3.18 10.43 4.79 16.9 4.79 c
8.63 0 15.74 -3.45 21.34 -10.33 c
0 8.69 11 0 0 -62.33 p
0 -11.22 -1.15 -19.18 -3.45 -23.86 c
-2.3 -4.68 -5.95 -8.38 -10.94 -11.1 c
-4.99 -2.71 -11.13 -4.07 -18.43 -4.07 c
-8.66 0 -15.66 1.91 -20.99 5.73 c
-5.16 3.7 -7.73 9.2 -7.73 16.5 c
0 0.25 0 0.5 0.01 0.76 c
h
240 103.47 m
0 -9.55 1.9 -16.51 5.7 -20.89 c
3.8 -4.39 8.55 -6.58 14.27 -6.58 c
5.67 0 10.43 2.18 14.27 6.54 c
3.84 4.36 5.77 11.2 5.77 20.52 c
0 8.91 -1.98 15.62 -5.93 20.14 c
-3.96 4.52 -8.73 6.8 -14.31 6.8 c
-5.49 0 -10.15 -2.24 -14 -6.7 c
-3.84 -4.45 -5.76 -11.06 -5.76 -19.83 c
h
f
304 102 m
0 13.46 3.79 23.43 11.37 29.92 c
6.34 5.38 14.05 8.09 23.16 8.09 c
10.13 0 18.4 -3.29 24.83 -9.83 c
6.43 -6.55 9.64 -15.6 9.64 -27.14 c
0 -9.36 -1.43 -16.72 -4.27 -22.08 c
-2.84 -5.36 -6.98 -9.53 -12.41 -12.5 c
-5.43 -2.96 -11.36 -4.45 -17.79 -4.45 c
-10.31 0 -18.64 3.26 -25 9.79 c
-6.36 6.53 -9.54 15.93 -9.54 28.21 c
h
317 102.04 m
0 -9.37 2.04 -16.38 6.12 -21.04 c
4.08 -4.66 9.22 -6.99 15.41 -6.99 c
6.14 0 11.26 2.34 15.34 7.03 c
4.08 4.68 6.13 11.82 6.13 21.42 c
0 9.05 -2.06 15.9 -6.16 20.56 c
-4.11 4.66 -9.21 6.99 -15.31 6.99 c
-6.19 0 -11.33 -2.32 -15.41 -6.96 c
-4.08 -4.64 -6.12 -11.64 -6.12 -21 c
h
f
414.13 77.01 1.75 -10.91 P
-3.4 -0.73 -6.44 -1.1 -9.12 -1.1 c
-4.38 0 -7.77 0.71 -10.19 2.12 c
-2.41 1.41 -4.11 3.27 -5.09 5.57 c
-0.98 2.3 -1.47 7.14 -1.47 14.53 c
0 41.78 -9.54 0 0 10 ^ 0 17.69 12 7.27 0 -24.96 12.09 0 
0 -10 ^ 0 -42.86 p
0 -3.54 0.21 -5.82 0.63 -6.83 c
0.43 -1.01 1.12 -1.82 2.08 -2.41 c
0.96 -0.6 2.34 -0.9 4.12 -0.9 c
1.34 0 3.11 0.34 5.29 1.01 c
h
f
421 102 m
0 13.46 3.79 23.43 11.37 29.92 c
6.34 5.38 14.05 8.09 23.16 8.09 c
10.13 0 18.4 -3.29 24.83 -9.83 c
6.43 -6.55 9.64 -15.6 9.64 -27.14 c
0 -9.36 -1.43 -16.72 -4.27 -22.08 c
-2.84 -5.36 -6.98 -9.53 -12.41 -12.5 c
-5.43 -2.96 -11.36 -4.45 -17.79 -4.45 c
-10.31 0 -18.64 3.26 -25 9.79 c
-6.36 6.53 -9.54 15.93 -9.54 28.21 c
h
434 102.04 m
0 -9.37 2.04 -16.38 6.12 -21.04 c
4.08 -4.66 9.22 -6.99 15.41 -6.99 c
6.14 0 11.26 2.34 15.34 7.03 c
4.08 4.68 6.13 11.82 6.13 21.42 c
0 9.05 -2.06 15.9 -6.16 20.56 c
-4.11 4.66 -9.21 6.99 -15.31 6.99 c
-6.19 0 -11.33 -2.32 -15.41 -6.96 c
-4.08 -4.64 -6.12 -11.64 -6.12 -21 c
h
f
540.46 59.98 11.96 -1.74 P
0.5 -3.61 1.89 -6.25 4.17 -7.9 c
3.05 -2.23 7.23 -3.34 12.51 -3.34 c
5.7 0 10.1 1.13 13.2 3.38 c
3.1 2.26 5.2 5.41 6.29 9.48 c
0.6 2.32 0.89 7.02 0.89 14.11 c
0 0.5 0 1.01 0 1.54 c
-5.38 -6.34 -12.08 -9.5 -20.11 -9.5 c
-9.98 0 -17.71 3.59 -23.18 10.76 c
-5.47 7.18 -8.2 15.79 -8.2 25.82 c
0 6.91 1.26 13.27 3.79 19.11 c
2.52 5.84 6.18 10.34 10.98 13.52 c
4.8 3.18 10.43 4.79 16.9 4.79 c
8.63 0 15.74 -3.45 21.34 -10.33 c
0 8.69 11 0 0 -62.33 p
0 -11.22 -1.15 -19.18 -3.45 -23.86 c
-2.3 -4.68 -5.95 -8.38 -10.94 -11.1 c
-4.99 -2.71 -11.13 -4.07 -18.43 -4.07 c
-8.66 0 -15.66 1.91 -20.99 5.73 c
-5.16 3.7 -7.73 9.2 -7.73 16.5 c
0 0.25 0 0.5 0.01 0.76 c
h
551 103.47 m
0 -9.55 1.9 -16.51 5.7 -20.89 c
3.8 -4.39 8.55 -6.58 14.27 -6.58 c
5.67 0 10.43 2.18 14.27 6.54 c
3.84 4.36 5.77 11.2 5.77 20.52 c
0 8.91 -1.98 15.62 -5.93 20.14 c
-3.96 4.52 -8.73 6.8 -14.31 6.8 c
-5.49 0 -10.15 -2.24 -14 -6.7 c
-3.84 -4.45 -5.76 -11.06 -5.76 -19.83 c
h
f
670.93 89.38 12.71 -1.6 P
-2.01 -7.54 -5.72 -13.38 -11.14 -17.54 c
-5.43 -4.16 -12.35 -6.24 -20.78 -6.24 c
-10.62 0 -19.04 3.28 -25.26 9.84 c
-6.22 6.56 -9.33 15.77 -9.33 27.61 c
0 12.25 3.14 21.77 9.43 28.55 c
6.29 6.66 14.45 10 24.47 10 c
9.71 0 17.64 -3.3 23.79 -9.89 c
6.15 -6.6 9.23 -15.87 9.23 -27.83 c
0 -0.73 -0.02 -1.82 -0.07 -3.27 c
-54.14 0 p
0.45 -8.08 2.71 -14.27 6.77 -18.56 c
4.05 -4.29 9.11 -6.44 15.18 -6.44 c
4.51 0 8.36 1.22 11.55 3.67 c
3.19 2.45 5.71 6.35 7.59 11.71 c
h
630.53 109 40.54 0 P
-0.55 6.15 -2.1 10.76 -4.65 13.84 c
-3.92 4.77 -9 7.16 -15.24 7.16 c
-5.65 0 -10.41 -1.91 -14.25 -5.71 c
-3.85 -3.81 -5.98 -8.91 -6.39 -15.29 c
h
f
710 66 -12 0 0 72.35 11 0 0 -10.96 P
2.84 5.13 5.46 8.52 7.87 10.15 c
2.41 1.64 5.05 2.47 7.94 2.47 c
4.17 0 8.41 -1.3 12.72 -3.91 c
-4.3 -11.23 p
-3.05 1.43 -6.11 2.14 -9.16 2.14 c
-2.73 0 -5.18 -0.8 -7.35 -2.41 c
-2.18 -1.6 -3.72 -3.83 -4.65 -6.68 c
-1.39 -4.34 -2.08 -9.08 -2.08 -14.23 c
h
f
794.93 89.38 12.71 -1.6 P
-2.01 -7.54 -5.72 -13.38 -11.14 -17.54 c
-5.43 -4.16 -12.35 -6.24 -20.78 -6.24 c
-10.62 0 -19.04 3.28 -25.26 9.84 c
-6.22 6.56 -9.33 15.77 -9.33 27.61 c
0 12.25 3.14 21.77 9.43 28.55 c
6.29 6.66 14.45 10 24.47 10 c
9.71 0 17.64 -3.3 23.79 -9.89 c
6.15 -6.6 9.23 -15.87 9.23 -27.83 c
0 -0.73 -0.02 -1.82 -0.07 -3.27 c
-54.14 0 p
0.45 -8.08 2.71 -14.27 6.77 -18.56 c
4.05 -4.29 9.11 -6.44 15.18 -6.44 c
4.51 0 8.36 1.22 11.55 3.67 c
3.19 2.45 5.71 6.35 7.59 11.71 c
h
754.53 109 40.54 0 P
-0.55 6.15 -2.1 10.76 -4.65 13.84 c
-3.92 4.77 -9 7.16 -15.24 7.16 c
-5.65 0 -10.41 -1.91 -14.25 -5.71 c
-3.85 -3.81 -5.98 -8.91 -6.39 -15.29 c
h
f
835 66 -12 0 0 72.35 11 0 0 -10.29 P
5.34 7.95 13.05 11.94 23.14 11.94 c
4.38 0 8.41 -0.8 12.08 -2.37 c
3.68 -1.57 6.43 -3.62 8.25 -6.16 c
1.82 -2.54 3.11 -5.56 3.84 -9.06 c
0.45 -2.27 0.7 -6.24 0.7 -11.92 c
0 -44.48 -12 0 0 43.75 p
0 4.96 -0.49 8.68 -1.46 11.14 c
-0.98 2.46 -2.7 4.43 -5.18 5.89 c
-2.48 1.46 -5.39 2.21 -8.73 2.21 c
-5.33 0 -9.94 -1.66 -13.81 -4.96 c
-3.87 -3.3 -5.81 -9.55 -5.81 -18.76 c
h
f
948.57 92.59 12.13 -1.59 P
-1.34 -8.45 -4.75 -15.06 -10.23 -19.84 c
-5.48 -4.77 -12.22 -7.16 -20.21 -7.16 c
-10.01 0 -18.05 3.25 -24.13 9.75 c
-6.09 6.5 -9.12 15.83 -9.12 27.97 c
0 7.85 1.31 14.72 3.93 20.61 c
2.62 5.89 6.6 10.3 11.95 13.25 c
5.35 2.95 11.17 4.43 17.46 4.43 c
7.94 0 14.44 -1.98 19.49 -5.93 c
5.05 -3.95 8.29 -9.56 9.72 -16.82 c
-12 -1.82 p
-1.14 4.83 -3.16 8.47 -6.06 10.91 c
-2.9 2.44 -6.41 3.66 -10.52 3.66 c
-6.21 0 -11.26 -2.24 -15.14 -6.71 c
-3.88 -4.47 -5.82 -11.55 -5.82 -21.22 c
0 -9.82 1.87 -16.95 5.62 -21.4 c
3.75 -4.45 8.63 -6.67 14.66 -6.67 c
4.84 0 8.88 1.52 12.13 4.56 c
3.24 3.04 5.3 7.72 6.16 14.04 c
h
f
983 152 -12 0 0 14 ^ H
983 66 -12 0 0 72.6 ^ H
f
1050 74.61 m
-4.6 -3.88 -9.03 -6.62 -13.28 -8.21 c
-4.25 -1.6 -8.82 -2.4 -13.69 -2.4 c
-8.05 0 -14.23 1.97 -18.55 5.91 c
-4.32 3.95 -6.48 8.98 -6.48 15.12 c
0 3.6 0.82 6.88 2.45 9.86 c
1.63 2.98 3.77 5.36 6.42 7.16 c
2.64 1.8 5.63 3.16 8.94 4.08 c
2.44 0.64 6.12 1.27 11.04 1.87 c
10.03 1.17 17.41 2.57 22.16 4.2 c
0 1.67 0 2.73 0 3.18 c
0 4.96 -1.17 8.46 -3.51 10.49 c
-3.17 2.75 -7.87 4.13 -14.12 4.13 c
-5.83 0 -10.13 -1.01 -12.91 -3.03 c
-2.78 -2.02 -4.83 -5.59 -6.16 -10.72 c
-12.12 1.62 p
1.09 5.1 2.89 9.21 5.39 12.35 c
2.5 3.14 6.13 5.55 10.86 7.24 c
4.74 1.69 10.23 2.54 16.47 2.54 c
6.2 0 11.23 -0.74 15.1 -2.2 c
3.87 -1.46 6.72 -3.3 8.54 -5.51 c
1.82 -2.21 3.1 -5.01 3.82 -8.39 c
0.41 -2.1 0.63 -5.89 0.63 -11.36 c
0 -16.43 p
0 -11.46 0.33 -18.7 1 -21.74 c
0.49 -3.04 1.46 -5.95 2.91 -8.73 c
-12.52 0 p
-1.25 2.55 -2.04 5.54 -2.4 8.97 c
h
1049 97.92 0 4.52 P
-4.54 -1.74 -11.35 -3.22 -20.43 -4.44 c
-5.14 -0.74 -8.78 -1.57 -10.91 -2.48 c
-2.13 -0.92 -3.78 -2.27 -4.93 -4.04 c
-1.16 -1.77 -1.73 -3.73 -1.73 -5.89 c
0 -3.31 1.26 -6.07 3.79 -8.27 c
2.52 -2.21 6.21 -3.31 11.08 -3.31 c
4.82 0 9.1 1.04 12.85 3.11 c
3.75 2.07 6.5 4.91 8.27 8.51 c
1.34 2.78 2.02 6.88 2.02 12.3 c
h
f
1139 65.65 -11 0 0 9.19 P
-4.65 -7.23 -11.48 -10.84 -20.49 -10.84 c
-5.84 0 -11.2 1.6 -16.1 4.79 c
-4.89 3.2 -8.69 7.66 -11.38 13.38 c
-2.69 5.73 -4.03 12.31 -4.03 19.75 c
0 7.26 1.21 13.84 3.64 19.75 c
2.43 5.91 6.07 10.44 10.93 13.59 c
4.86 3.15 10.29 4.73 16.29 4.73 c
4.4 0 8.32 -0.9 11.75 -2.7 c
3.44 -1.8 6.23 -4.15 8.39 -7.04 c
0 35.96 12 0 h
1089 101.96 m
0 -9.37 1.95 -16.37 5.86 -21.01 c
3.91 -4.64 8.52 -6.96 13.84 -6.96 c
5.36 0 9.92 2.21 13.67 6.65 c
3.75 4.43 5.63 11.19 5.63 20.28 c
0 10.01 -1.91 17.36 -5.73 22.04 c
-3.82 4.68 -8.52 7.03 -14.11 7.03 c
-5.45 0 -10.01 -2.25 -13.67 -6.75 c
-3.66 -4.5 -5.49 -11.59 -5.49 -21.28 c
h
f
1152 102 m
0 13.46 3.79 23.43 11.37 29.92 c
6.34 5.38 14.05 8.09 23.16 8.09 c
10.13 0 18.4 -3.29 24.83 -9.83 c
6.43 -6.55 9.64 -15.6 9.64 -27.14 c
0 -9.36 -1.43 -16.72 -4.27 -22.08 c
-2.84 -5.36 -6.98 -9.53 -12.41 -12.5 c
-5.43 -2.96 -11.36 -4.45 -17.79 -4.45 c
-10.31 0 -18.64 3.26 -25 9.79 c
-6.36 6.53 -9.54 15.93 -9.54 28.21 c
h
1165 102.04 m
0 -9.37 2.04 -16.38 6.12 -21.04 c
4.08 -4.66 9.22 -6.99 15.41 -6.99 c
6.14 0 11.26 2.34 15.34 7.03 c
4.08 4.68 6.13 11.82 6.13 21.42 c
0 9.05 -2.06 15.9 -6.16 20.56 c
-4.11 4.66 -9.21 6.99 -15.31 6.99 c
-6.19 0 -11.33 -2.32 -15.41 -6.96 c
-4.08 -4.64 -6.12 -11.64 -6.12 -21 c
h
f
1247 66 -12 0 0 72.35 11 0 0 -10.96 P
2.84 5.13 5.46 8.52 7.87 10.15 c
2.41 1.64 5.05 2.47 7.94 2.47 c
4.17 0 8.41 -1.3 12.72 -3.91 c
-4.3 -11.23 p
-3.05 1.43 -6.11 2.14 -9.16 2.14 c
-2.73 0 -5.18 -0.8 -7.35 -2.41 c
-2.18 -1.6 -3.72 -3.83 -4.65 -6.68 c
-1.39 -4.34 -2.08 -9.08 -2.08 -14.23 c
h
f
1270.88 38 81.5508 9 re
f
1419 65.65 -11 0 0 9.19 P
-4.65 -7.23 -11.48 -10.84 -20.49 -10.84 c
-5.84 0 -11.2 1.6 -16.1 4.79 c
-4.89 3.2 -8.69 7.66 -11.38 13.38 c
-2.69 5.73 -4.03 12.31 -4.03 19.75 c
0 7.26 1.21 13.84 3.64 19.75 c
2.43 5.91 6.07 10.44 10.93 13.59 c
4.86 3.15 10.29 4.73 16.29 4.73 c
4.4 0 8.32 -0.9 11.75 -2.7 c
3.44 -1.8 6.23 -4.15 8.39 -7.04 c
0 35.96 12 0 h
1369 101.96 m
0 -9.37 1.95 -16.37 5.86 -21.01 c
3.91 -4.64 8.52 -6.96 13.84 -6.96 c
5.36 0 9.92 2.21 13.67 6.65 c
3.75 4.43 5.63 11.19 5.63 20.28 c
0 10.01 -1.91 17.36 -5.73 22.04 c
-3.82 4.68 -8.52 7.03 -14.11 7.03 c
-5.45 0 -10.01 -2.25 -13.67 -6.75 c
-3.66 -4.5 -5.49 -11.59 -5.49 -21.28 c
h
f
1486 74.61 m
-4.6 -3.88 -9.03 -6.62 -13.28 -8.21 c
-4.25 -1.6 -8.82 -2.4 -13.69 -2.4 c
-8.05 0 -14.23 1.97 -18.55 5.91 c
-4.32 3.95 -6.48 8.98 -6.48 15.12 c
0 3.6 0.82 6.88 2.45 9.86 c
1.63 2.98 3.77 5.36 6.42 7.16 c
2.64 1.8 5.63 3.16 8.94 4.08 c
2.44 0.64 6.12 1.27 11.04 1.87 c
10.03 1.17 17.41 2.57 22.16 4.2 c
0 1.67 0 2.73 0 3.18 c
0 4.96 -1.17 8.46 -3.51 10.49 c
-3.17 2.75 -7.87 4.13 -14.12 4.13 c
-5.83 0 -10.13 -1.01 -12.91 -3.03 c
-2.78 -2.02 -4.83 -5.59 -6.16 -10.72 c
-12.12 1.62 p
1.09 5.1 2.89 9.21 5.39 12.35 c
2.5 3.14 6.13 5.55 10.86 7.24 c
4.74 1.69 10.23 2.54 16.47 2.54 c
6.2 0 11.23 -0.74 15.1 -2.2 c
3.87 -1.46 6.72 -3.3 8.54 -5.51 c
1.82 -2.21 3.1 -5.01 3.82 -8.39 c
0.41 -2.1 0.63 -5.89 0.63 -11.36 c
0 -16.43 p
0 -11.46 0.33 -18.7 1 -21.74 c
0.49 -3.04 1.46 -5.95 2.91 -8.73 c
-12.52 0 p
-1.25 2.55 -2.04 5.54 -2.4 8.97 c
h
1485 97.92 0 4.52 P
-4.54 -1.74 -11.35 -3.22 -20.43 -4.44 c
-5.14 -0.74 -8.78 -1.57 -10.91 -2.48 c
-2.13 -0.92 -3.78 -2.27 -4.93 -4.04 c
-1.16 -1.77 -1.73 -3.73 -1.73 -5.89 c
0 -3.31 1.26 -6.07 3.79 -8.27 c
2.52 -2.21 6.21 -3.31 11.08 -3.31 c
4.82 0 9.1 1.04 12.85 3.11 c
3.75 2.07 6.5 4.91 8.27 8.51 c
1.34 2.78 2.02 6.88 2.02 12.3 c
h
f
1503.88 38 81.5508 9 re
f
1642.93 89.38 12.71 -1.6 P
-2.01 -7.54 -5.72 -13.38 -11.14 -17.54 c
-5.43 -4.16 -12.35 -6.24 -20.78 -6.24 c
-10.62 0 -19.04 3.28 -25.26 9.84 c
-6.22 6.56 -9.33 15.77 -9.33 27.61 c
0 12.25 3.14 21.77 9.43 28.55 c
6.29 6.66 14.45 10 24.47 10 c
9.71 0 17.64 -3.3 23.79 -9.89 c
6.15 -6.6 9.23 -15.87 9.23 -27.83 c
0 -0.73 -0.02 -1.82 -0.07 -3.27 c
-54.14 0 p
0.45 -8.08 2.71 -14.27 6.77 -18.56 c
4.05 -4.29 9.11 -6.44 15.18 -6.44 c
4.51 0 8.36 1.22 11.55 3.67 c
3.19 2.45 5.71 6.35 7.59 11.71 c
h
1602.53 109 40.54 0 P
-0.55 6.15 -2.1 10.76 -4.65 13.84 c
-3.92 4.77 -9 7.16 -15.24 7.16 c
-5.65 0 -10.41 -1.91 -14.25 -5.71 c
-3.85 -3.81 -5.98 -8.91 -6.39 -15.29 c
h
f
1683 66 -12 0 0 72.35 11 0 0 -10.15 P
2.27 3.54 5.28 6.39 9.05 8.55 c
3.77 2.16 8.05 3.25 12.86 3.25 c
5.35 0 9.74 -1.1 13.17 -3.29 c
3.43 -2.19 5.84 -5.25 7.25 -9.19 c
5.71 8.32 13.16 12.48 22.32 12.48 c
7.17 0 12.68 -2 16.54 -5.98 c
3.86 -3.98 5.81 -10.09 5.81 -18.36 c
0 -49.66 -12 0 0 45.31 p
0 4.88 -0.39 8.39 -1.17 10.53 c
-0.78 2.14 -2.2 3.87 -4.24 5.18 c
-2.05 1.31 -4.45 1.98 -7.21 1.98 c
-4.99 0 -9.13 -1.7 -12.43 -5.06 c
-3.3 -3.36 -4.95 -8.75 -4.95 -16.15 c
0 -41.79 -12 0 0 46.73 p
0 5.42 -1.05 9.48 -3.13 12.19 c
-2.08 2.71 -5.48 4.08 -10.21 4.08 c
-3.59 0 -6.92 -0.92 -9.97 -2.73 c
-3.05 -1.8 -5.26 -4.45 -6.63 -7.92 c
-1.37 -3.48 -2.05 -8.49 -2.05 -15.04 c
h
f
1847 65.65 -11 0 0 10.71 P
-5.68 -8.24 -13.38 -12.36 -23.11 -12.36 c
-4.3 0 -8.31 0.82 -12.04 2.47 c
-3.73 1.65 -6.49 3.72 -8.29 6.21 c
-1.81 2.5 -3.07 5.55 -3.81 9.17 c
-0.5 2.43 -0.75 6.27 -0.75 11.54 c
0 45.2 12 0 0 -40.23 p
0 -6.42 0.25 -10.75 0.77 -12.98 c
0.79 -3.23 2.47 -5.77 5.03 -7.62 c
2.56 -1.84 5.73 -2.77 9.5 -2.77 c
3.77 0 7.31 0.95 10.62 2.84 c
3.3 1.89 5.64 4.46 7.02 7.72 c
1.38 3.25 2.06 7.98 2.06 14.18 c
0 38.87 12 0 h
f
1866 66 12.0039 100.215 re
f
1945 74.61 m
-4.6 -3.88 -9.03 -6.62 -13.28 -8.21 c
-4.25 -1.6 -8.82 -2.4 -13.69 -2.4 c
-8.05 0 -14.23 1.97 -18.55 5.91 c
-4.32 3.95 -6.48 8.98 -6.48 15.12 c
0 3.6 0.82 6.88 2.45 9.86 c
1.63 2.98 3.77 5.36 6.42 7.16 c
2.64 1.8 5.63 3.16 8.94 4.08 c
2.44 0.64 6.12 1.27 11.04 1.87 c
10.03 1.17 17.41 2.57 22.16 4.2 c
0 1.67 0 2.73 0 3.18 c
0 4.96 -1.17 8.46 -3.51 10.49 c
-3.17 2.75 -7.87 4.13 -14.12 4.13 c
-5.83 0 -10.13 -1.01 -12.91 -3.03 c
-2.78 -2.02 -4.83 -5.59 -6.16 -10.72 c
-12.12 1.62 p
1.09 5.1 2.89 9.21 5.39 12.35 c
2.5 3.14 6.13 5.55 10.86 7.24 c
4.74 1.69 10.23 2.54 16.47 2.54 c
6.2 0 11.23 -0.74 15.1 -2.2 c
3.87 -1.46 6.72 -3.3 8.54 -5.51 c
1.82 -2.21 3.1 -5.01 3.82 -8.39 c
0.41 -2.1 0.63 -5.89 0.63 -11.36 c
0 -16.43 p
0 -11.46 0.33 -18.7 1 -21.74 c
0.49 -3.04 1.46 -5.95 2.91 -8.73 c
-12.52 0 p
-1.25 2.55 -2.04 5.54 -2.4 8.97 c
h
1944 97.92 0 4.52 P
-4.54 -1.74 -11.35 -3.22 -20.43 -4.44 c
-5.14 -0.74 -8.78 -1.57 -10.91 -2.48 c
-2.13 -0.92 -3.78 -2.27 -4.93 -4.04 c
-1.16 -1.77 -1.73 -3.73 -1.73 -5.89 c
0 -3.31 1.26 -6.07 3.79 -8.27 c
2.52 -2.21 6.21 -3.31 11.08 -3.31 c
4.82 0 9.1 1.04 12.85 3.11 c
3.75 2.07 6.5 4.91 8.27 8.51 c
1.34 2.78 2.02 6.88 2.02 12.3 c
h
f
2021.57 92.54 12.13 -1.57 P
-1.34 -8.32 -4.75 -14.84 -10.23 -19.55 c
-5.48 -4.71 -12.22 -7.06 -20.21 -7.06 c
-10.01 0 -18.05 3.24 -24.13 9.71 c
-6.09 6.47 -9.12 15.75 -9.12 27.84 c
0 7.81 1.31 14.65 3.93 20.51 c
2.62 5.86 6.6 10.25 11.95 13.18 c
5.35 2.93 11.17 4.4 17.46 4.4 c
7.94 0 14.44 -1.98 19.49 -5.93 c
5.05 -3.95 8.29 -9.56 9.72 -16.82 c
-12 -1.82 p
-1.14 4.83 -3.16 8.47 -6.06 10.91 c
-2.9 2.44 -6.41 3.66 -10.52 3.66 c
-6.21 0 -11.26 -2.23 -15.14 -6.66 c
-3.88 -4.43 -5.82 -11.45 -5.82 -21.05 c
0 -9.73 1.87 -16.81 5.62 -21.22 c
3.75 -4.41 8.63 -6.62 14.66 -6.62 c
4.84 0 8.88 1.48 12.13 4.43 c
3.24 2.96 5.3 7.5 6.16 13.64 c
h
1993.1 57.32 3.51 11.62 9.06 0 -2.23 -7.22 P
3.83 -0.45 6.71 -1.63 8.65 -3.54 c
1.94 -1.91 2.91 -4.04 2.91 -6.37 c
0 -3.37 -1.63 -6.35 -4.88 -8.93 c
-3.25 -2.59 -8.16 -3.87 -14.71 -3.87 c
-3.71 0 -6.96 0.26 -9.76 0.78 c
0.76 7.63 p
2.95 0.39 5.11 0.59 6.49 0.59 c
4.32 0 7.36 0.57 9.11 1.7 c
1.33 0.88 2 1.95 2 3.22 c
0 0.79 -0.27 1.49 -0.8 2.1 c
-0.53 0.61 -1.52 1.14 -2.95 1.58 c
-1.44 0.44 -3.82 0.68 -7.15 0.72 c
h
f
2092 74.61 m
-4.6 -3.88 -9.03 -6.62 -13.28 -8.21 c
-4.25 -1.6 -8.82 -2.4 -13.69 -2.4 c
-8.05 0 -14.23 1.97 -18.55 5.91 c
-4.32 3.95 -6.48 8.98 -6.48 15.12 c
0 3.6 0.82 6.88 2.45 9.86 c
1.63 2.98 3.77 5.36 6.42 7.16 c
2.64 1.8 5.63 3.16 8.94 4.08 c
2.44 0.64 6.12 1.27 11.04 1.87 c
10.03 1.17 17.41 2.57 22.16 4.2 c
0 1.67 0 2.73 0 3.18 c
0 4.96 -1.17 8.46 -3.51 10.49 c
-3.17 2.75 -7.87 4.13 -14.12 4.13 c
-5.83 0 -10.13 -1.01 -12.91 -3.03 c
-2.78 -2.02 -4.83 -5.59 -6.16 -10.72 c
-12.12 1.62 p
1.09 5.1 2.89 9.21 5.39 12.35 c
2.5 3.14 6.13 5.55 10.86 7.24 c
4.74 1.69 10.23 2.54 16.47 2.54 c
6.2 0 11.23 -0.74 15.1 -2.2 c
3.87 -1.46 6.72 -3.3 8.54 -5.51 c
1.82 -2.21 3.1 -5.01 3.82 -8.39 c
0.41 -2.1 0.63 -5.89 0.63 -11.36 c
0 -16.43 p
0 -11.46 0.33 -18.7 1 -21.74 c
0.49 -3.04 1.46 -5.95 2.91 -8.73 c
-12.52 0 p
-1.25 2.55 -2.04 5.54 -2.4 8.97 c
h
2091 97.92 0 4.52 P
-4.54 -1.74 -11.35 -3.22 -20.43 -4.44 c
-5.14 -0.74 -8.78 -1.57 -10.91 -2.48 c
-2.13 -0.92 -3.78 -2.27 -4.93 -4.04 c
-1.16 -1.77 -1.73 -3.73 -1.73 -5.89 c
0 -3.31 1.26 -6.07 3.79 -8.27 c
2.52 -2.21 6.21 -3.31 11.08 -3.31 c
4.82 0 9.1 1.04 12.85 3.11 c
3.75 2.07 6.5 4.91 8.27 8.51 c
1.34 2.78 2.02 6.88 2.02 12.3 c
h
2059.75 149.33 -8.75 0 P
0 0.08 0 0.16 0 0.24 c
0 4.65 1.27 8.37 3.81 11.16 c
2.54 2.84 5.79 4.26 9.75 4.26 c
2.76 0 6.52 -1.25 11.29 -3.75 c
2.63 -1.39 4.72 -2.08 6.28 -2.08 c
1.42 0 2.51 0.39 3.27 1.2 c
0.76 0.8 1.29 2.38 1.61 4.75 c
9 0 p
-0.14 -5.04 -1.43 -8.82 -3.87 -11.34 c
-2.44 -2.52 -5.54 -3.78 -9.3 -3.78 c
-2.82 0 -6.54 1.18 -11.15 3.55 c
-3 1.52 -5.2 2.28 -6.58 2.28 c
-1.52 0 -2.75 -0.55 -3.7 -1.64 c
-0.94 -1.05 -1.41 -2.57 -1.41 -4.57 c
0 -0.09 -0.07 -0.19 -0.25 -0.28 c
h
f
2117 102 m
0 13.46 3.79 23.43 11.37 29.92 c
6.34 5.38 14.05 8.09 23.16 8.09 c
10.13 0 18.4 -3.29 24.83 -9.83 c
6.43 -6.55 9.64 -15.6 9.64 -27.14 c
0 -9.36 -1.43 -16.72 -4.27 -22.08 c
-2.84 -5.36 -6.98 -9.53 -12.41 -12.5 c
-5.43 -2.96 -11.36 -4.45 -17.79 -4.45 c
-10.31 0 -18.64 3.26 -25 9.79 c
-6.36 6.53 -9.54 15.93 -9.54 28.21 c
h
2130 102.04 m
0 -9.37 2.04 -16.38 6.12 -21.04 c
4.08 -4.66 9.22 -6.99 15.41 -6.99 c
6.14 0 11.26 2.34 15.34 7.03 c
4.08 4.68 6.13 11.82 6.13 21.42 c
0 9.05 -2.06 15.9 -6.16 20.56 c
-4.11 4.66 -9.21 6.99 -15.31 6.99 c
-6.19 0 -11.33 -2.32 -15.41 -6.96 c
-4.08 -4.64 -6.12 -11.64 -6.12 -21 c
h
f
cleartomark end end pagesave restore
 showpage
%%PageTrailer
%%Trailer
%%Pages: 1
%%EOF
