x	ya              yb              yc              benchmark
1	721.454902	0		770.570538      401.bzip2
2	302.945434	0		304.945003      429.mcf
3	546.355358	0		775.1325        445.gobmk
4	644.051567	0		646.749429      456.hmmer
5	617.180075	0		642.736885      462.libquantum
6	848.890191	0		1145.555573     464.h264ref
7	357.355362	0		413.180612      471.omnetpp
8	553.535731	0		566.120394      473.astar
9	290.51192	0		359.209765      483.xalancbmk
