x	ya              yb              yc              benchmark
1	941.587019 	945.284447	948.497315 	401.bzip2
2	354.632951 	354.441156	354.826274 	429.mcf
3	924.115704 	942.616454	958.856473 	445.gobmk
4	1233.465693	1531.704954	1285.359599	456.hmmer
5	757.787703 	755.88764	757.14441  	462.libquantum
6	1392.897272	1443.299797	1408.428372	464.h264ref
7	472.368863 	1521.333674	742.449317 	471.omnetpp
8	684.27439  	700.357676	695.244415 	473.astar
9	425.54707  	2256.377596	1275.912376	483.xalancbmk
